 running on  128 total cores
 distrk:  each k-point on  128 cores,    1 groups
 distr:  one band on   16 cores,    8 groups
 using from now: INCAR     
 vasp.5.4.1 05Feb16 (build Jun 30 2016 18:30:42) gamma-only                     
  
 POSCAR found :  2 types and     215 ions
 scaLAPACK will be used

 ----------------------------------------------------------------------------- 
|                                                                             |
|  ADVICE TO THIS USER RUNNING 'VASP/VAMP'   (HEAR YOUR MASTER'S VOICE ...):  |
|                                                                             |
|      You have a (more or less) 'large supercell' and for larger cells       |
|      it might be more efficient to use real space projection opertators     |
|      So try LREAL= Auto  in the INCAR   file.                               |
|      Mind: At the moment your POTCAR file does not contain real space       |
|       projectors, and has to be modified,  BUT if you                       |
|      want to do an extremely  accurate calculation you might also keep the  |
|      reciprocal projection scheme          (i.e. LREAL=.FALSE.)             |
|                                                                             |
 ----------------------------------------------------------------------------- 

 WARNING: for PREC=h ENMAX is automatically increase by 25 %
        this was not the case for versions prior to vasp.4.4
 WARNING: for PREC=h ENMAX is automatically increase by 25 %
        this was not the case for versions prior to vasp.4.4
 LDA part: xc-table for Pade appr. of Perdew
 POSCAR, INCAR and KPOINTS ok, starting setup
 FFT: planning ...
 WAVECAR not read
 entering main loop
       N       E                     dE             d eps       ncg     rms          rms(c)
DAV:   1     0.722747704110E+04    0.72275E+04   -0.53125E+05  1792   0.195E+03
DAV:   2    -0.130328457605E+04   -0.85308E+04   -0.84283E+04  2376   0.421E+02
DAV:   3    -0.198630047404E+04   -0.68302E+03   -0.67930E+03  1984   0.116E+02
DAV:   4    -0.200319567971E+04   -0.16895E+02   -0.16841E+02  1888   0.225E+01
DAV:   5    -0.200373569311E+04   -0.54001E+00   -0.53886E+00  2016   0.361E+00BRMIX: very serious problems
 the old and the new charge density differ
 old charge density:   861.00000 new  861.99988
    0.577E+01
DAV:   6    -0.195217144332E+04    0.51564E+02   -0.42639E+01  1864   0.101E+01    0.344E+01
DAV:   7    -0.193509118131E+04    0.17080E+02   -0.49313E+01  1856   0.109E+01    0.808E+00
DAV:   8    -0.193536407753E+04   -0.27290E+00   -0.19959E+00  1896   0.229E+00    0.395E+00
DAV:   9    -0.193536942999E+04   -0.53525E-02   -0.27986E-01  1864   0.107E+00    0.109E+00
DAV:  10    -0.193537275456E+04   -0.33246E-02   -0.67548E-02  1888   0.471E-01    0.434E-01
DAV:  11    -0.193537299756E+04   -0.24299E-03   -0.81819E-03  1936   0.163E-01    0.153E-01
DAV:  12    -0.193537348166E+04   -0.48411E-03   -0.14663E-03  1904   0.740E-02    0.769E-02
DAV:  13    -0.193537375392E+04   -0.27225E-03   -0.32603E-04  1304   0.375E-02    0.394E-02
DAV:  14    -0.193537385470E+04   -0.10079E-03   -0.11692E-04  1024   0.228E-02    0.162E-02
DAV:  15    -0.193537386532E+04   -0.10616E-04   -0.34451E-05   992   0.104E-02
   1 F= -.19353739E+04 E0= -.19353430E+04  d E =-.617205E-01  mag=     2.0000
 writing wavefunctions
 running on  128 total cores
 distrk:  each k-point on  128 cores,    1 groups
 distr:  one band on   16 cores,    8 groups
 using from now: INCAR     
 vasp.5.4.1 05Feb16 (build Jun 30 2016 18:30:42) gamma-only                     
  
 POSCAR found :  2 types and     215 ions
 scaLAPACK will be used

 ----------------------------------------------------------------------------- 
|                                                                             |
|  ADVICE TO THIS USER RUNNING 'VASP/VAMP'   (HEAR YOUR MASTER'S VOICE ...):  |
|                                                                             |
|      You have a (more or less) 'large supercell' and for larger cells       |
|      it might be more efficient to use real space projection opertators     |
|      So try LREAL= Auto  in the INCAR   file.                               |
|      Mind: At the moment your POTCAR file does not contain real space       |
|       projectors, and has to be modified,  BUT if you                       |
|      want to do an extremely  accurate calculation you might also keep the  |
|      reciprocal projection scheme          (i.e. LREAL=.FALSE.)             |
|                                                                             |
 ----------------------------------------------------------------------------- 

 WARNING: for PREC=h ENMAX is automatically increase by 25 %
        this was not the case for versions prior to vasp.4.4
 WARNING: for PREC=h ENMAX is automatically increase by 25 %
        this was not the case for versions prior to vasp.4.4
 LDA part: xc-table for Pade appr. of Perdew
 POSCAR, INCAR and KPOINTS ok, starting setup
 FFT: planning ...
 WAVECAR not read
 entering main loop
       N       E                     dE             d eps       ncg     rms          rms(c)
DAV:   1     0.722746555384E+04    0.72275E+04   -0.53125E+05  1792   0.195E+03
DAV:   2    -0.130330996132E+04   -0.85308E+04   -0.84284E+04  2376   0.421E+02
DAV:   3    -0.198630504999E+04   -0.68300E+03   -0.67929E+03  1984   0.116E+02
DAV:   4    -0.200319622939E+04   -0.16891E+02   -0.16837E+02  1888   0.225E+01
DAV:   5    -0.200373473316E+04   -0.53850E+00   -0.53732E+00  2000   0.361E+00BRMIX: very serious problems
 the old and the new charge density differ
 old charge density:   861.00000 new  861.99988
    0.577E+01
DAV:   6    -0.195217122067E+04    0.51564E+02   -0.42652E+01  1864   0.101E+01    0.344E+01
DAV:   7    -0.193509120226E+04    0.17080E+02   -0.49308E+01  1856   0.109E+01    0.808E+00
DAV:   8    -0.193536407365E+04   -0.27287E+00   -0.19953E+00  1896   0.229E+00    0.395E+00
DAV:   9    -0.193536943424E+04   -0.53606E-02   -0.28004E-01  1864   0.107E+00    0.109E+00
DAV:  10    -0.193537275781E+04   -0.33236E-02   -0.67523E-02  1888   0.470E-01    0.434E-01
DAV:  11    -0.193537299867E+04   -0.24086E-03   -0.81862E-03  1944   0.163E-01    0.153E-01
DAV:  12    -0.193537348275E+04   -0.48408E-03   -0.14670E-03  1896   0.740E-02    0.769E-02
DAV:  13    -0.193537375507E+04   -0.27232E-03   -0.32754E-04  1312   0.375E-02    0.394E-02
DAV:  14    -0.193537385577E+04   -0.10070E-03   -0.11708E-04  1024   0.227E-02    0.163E-02
DAV:  15    -0.193537386636E+04   -0.10595E-04   -0.34464E-05   992   0.104E-02
   1 F= -.19353739E+04 E0= -.19353430E+04  d E =-.617305E-01  mag=     2.0000
 writing wavefunctions
