 running on  128 total cores
 distrk:  each k-point on  128 cores,    1 groups
 distr:  one band on   16 cores,    8 groups
 using from now: INCAR     
 vasp.5.4.1 05Feb16 (build Jun 30 2016 18:30:42) gamma-only                     
  
 POSCAR found :  2 types and     215 ions
 scaLAPACK will be used

 ----------------------------------------------------------------------------- 
|                                                                             |
|  ADVICE TO THIS USER RUNNING 'VASP/VAMP'   (HEAR YOUR MASTER'S VOICE ...):  |
|                                                                             |
|      You have a (more or less) 'large supercell' and for larger cells       |
|      it might be more efficient to use real space projection opertators     |
|      So try LREAL= Auto  in the INCAR   file.                               |
|      Mind: At the moment your POTCAR file does not contain real space       |
|       projectors, and has to be modified,  BUT if you                       |
|      want to do an extremely  accurate calculation you might also keep the  |
|      reciprocal projection scheme          (i.e. LREAL=.FALSE.)             |
|                                                                             |
 ----------------------------------------------------------------------------- 

 WARNING: for PREC=h ENMAX is automatically increase by 25 %
        this was not the case for versions prior to vasp.4.4
 WARNING: for PREC=h ENMAX is automatically increase by 25 %
        this was not the case for versions prior to vasp.4.4
 LDA part: xc-table for Pade appr. of Perdew
 POSCAR, INCAR and KPOINTS ok, starting setup
 FFT: planning ...
 WAVECAR not read
 entering main loop
       N       E                     dE             d eps       ncg     rms          rms(c)
DAV:   1     0.722746158783E+04    0.72275E+04   -0.53125E+05  1792   0.195E+03
DAV:   2    -0.130327801421E+04   -0.85307E+04   -0.84283E+04  2376   0.421E+02
DAV:   3    -0.198630171108E+04   -0.68302E+03   -0.67931E+03  1984   0.116E+02
DAV:   4    -0.200319646643E+04   -0.16895E+02   -0.16841E+02  1888   0.225E+01
DAV:   5    -0.200373401176E+04   -0.53755E+00   -0.53635E+00  1976   0.361E+00BRMIX: very serious problems
 the old and the new charge density differ
 old charge density:   861.00000 new  861.99988
    0.577E+01
DAV:   6    -0.195217063736E+04    0.51563E+02   -0.42664E+01  1864   0.101E+01    0.344E+01
DAV:   7    -0.193509124136E+04    0.17079E+02   -0.49321E+01  1856   0.109E+01    0.808E+00
DAV:   8    -0.193536410157E+04   -0.27286E+00   -0.19977E+00  1896   0.229E+00    0.395E+00
DAV:   9    -0.193536944665E+04   -0.53451E-02   -0.28073E-01  1864   0.107E+00    0.109E+00
DAV:  10    -0.193537276812E+04   -0.33215E-02   -0.67714E-02  1888   0.471E-01    0.434E-01
DAV:  11    -0.193537300692E+04   -0.23880E-03   -0.82203E-03  1944   0.163E-01    0.153E-01
DAV:  12    -0.193537349149E+04   -0.48457E-03   -0.14721E-03  1904   0.741E-02    0.769E-02
DAV:  13    -0.193537376355E+04   -0.27206E-03   -0.32650E-04  1312   0.375E-02    0.394E-02
DAV:  14    -0.193537386433E+04   -0.10079E-03   -0.11658E-04  1016   0.227E-02    0.163E-02
DAV:  15    -0.193537387500E+04   -0.10669E-04   -0.34769E-05   992   0.104E-02
   1 F= -.19353739E+04 E0= -.19353431E+04  d E =-.616456E-01  mag=     2.0000
 writing wavefunctions
 running on  128 total cores
 distrk:  each k-point on  128 cores,    1 groups
 distr:  one band on   16 cores,    8 groups
 using from now: INCAR     
 vasp.5.4.1 05Feb16 (build Jun 30 2016 18:30:42) gamma-only                     
  
 POSCAR found :  2 types and     215 ions
 scaLAPACK will be used

 ----------------------------------------------------------------------------- 
|                                                                             |
|  ADVICE TO THIS USER RUNNING 'VASP/VAMP'   (HEAR YOUR MASTER'S VOICE ...):  |
|                                                                             |
|      You have a (more or less) 'large supercell' and for larger cells       |
|      it might be more efficient to use real space projection opertators     |
|      So try LREAL= Auto  in the INCAR   file.                               |
|      Mind: At the moment your POTCAR file does not contain real space       |
|       projectors, and has to be modified,  BUT if you                       |
|      want to do an extremely  accurate calculation you might also keep the  |
|      reciprocal projection scheme          (i.e. LREAL=.FALSE.)             |
|                                                                             |
 ----------------------------------------------------------------------------- 

 WARNING: for PREC=h ENMAX is automatically increase by 25 %
        this was not the case for versions prior to vasp.4.4
 WARNING: for PREC=h ENMAX is automatically increase by 25 %
        this was not the case for versions prior to vasp.4.4
 LDA part: xc-table for Pade appr. of Perdew
 POSCAR, INCAR and KPOINTS ok, starting setup
 FFT: planning ...
 WAVECAR not read
 entering main loop
       N       E                     dE             d eps       ncg     rms          rms(c)
DAV:   1     0.722744781295E+04    0.72274E+04   -0.53125E+05  1792   0.195E+03
DAV:   2    -0.130333635167E+04   -0.85308E+04   -0.84283E+04  2376   0.421E+02
DAV:   3    -0.198630611595E+04   -0.68297E+03   -0.67926E+03  1984   0.116E+02
DAV:   4    -0.200319649514E+04   -0.16890E+02   -0.16836E+02  1888   0.225E+01
DAV:   5    -0.200373575470E+04   -0.53926E+00   -0.53808E+00  2008   0.361E+00BRMIX: very serious problems
 the old and the new charge density differ
 old charge density:   861.00000 new  861.99988
    0.577E+01
DAV:   6    -0.195217155822E+04    0.51564E+02   -0.42645E+01  1864   0.101E+01    0.344E+01
DAV:   7    -0.193509141497E+04    0.17080E+02   -0.49310E+01  1856   0.109E+01    0.808E+00
DAV:   8    -0.193536411741E+04   -0.27270E+00   -0.19946E+00  1896   0.229E+00    0.395E+00
DAV:   9    -0.193536948409E+04   -0.53667E-02   -0.27968E-01  1864   0.107E+00    0.109E+00
DAV:  10    -0.193537279951E+04   -0.33154E-02   -0.67424E-02  1888   0.470E-01    0.434E-01
DAV:  11    -0.193537304288E+04   -0.24337E-03   -0.81805E-03  1944   0.163E-01    0.153E-01
DAV:  12    -0.193537352687E+04   -0.48399E-03   -0.14624E-03  1896   0.739E-02    0.769E-02
DAV:  13    -0.193537379904E+04   -0.27217E-03   -0.32600E-04  1304   0.375E-02    0.394E-02
DAV:  14    -0.193537389974E+04   -0.10070E-03   -0.11746E-04  1024   0.228E-02    0.162E-02
DAV:  15    -0.193537391029E+04   -0.10547E-04   -0.34528E-05   992   0.104E-02
   1 F= -.19353739E+04 E0= -.19353430E+04  d E =-.617227E-01  mag=     2.0000
 writing wavefunctions
