 running on  128 total cores
 distrk:  each k-point on  128 cores,    1 groups
 distr:  one band on   16 cores,    8 groups
 using from now: INCAR     
 vasp.5.4.1 05Feb16 (build Jun 30 2016 18:30:42) gamma-only                     
  
 POSCAR found :  2 types and     215 ions
 scaLAPACK will be used

 ----------------------------------------------------------------------------- 
|                                                                             |
|  ADVICE TO THIS USER RUNNING 'VASP/VAMP'   (HEAR YOUR MASTER'S VOICE ...):  |
|                                                                             |
|      You have a (more or less) 'large supercell' and for larger cells       |
|      it might be more efficient to use real space projection opertators     |
|      So try LREAL= Auto  in the INCAR   file.                               |
|      Mind: At the moment your POTCAR file does not contain real space       |
|       projectors, and has to be modified,  BUT if you                       |
|      want to do an extremely  accurate calculation you might also keep the  |
|      reciprocal projection scheme          (i.e. LREAL=.FALSE.)             |
|                                                                             |
 ----------------------------------------------------------------------------- 

 WARNING: for PREC=h ENMAX is automatically increase by 25 %
        this was not the case for versions prior to vasp.4.4
 WARNING: for PREC=h ENMAX is automatically increase by 25 %
        this was not the case for versions prior to vasp.4.4
 LDA part: xc-table for Pade appr. of Perdew
 POSCAR, INCAR and KPOINTS ok, starting setup
 FFT: planning ...
 WAVECAR not read
 entering main loop
       N       E                     dE             d eps       ncg     rms          rms(c)
DAV:   1     0.722744970441E+04    0.72274E+04   -0.53125E+05  1792   0.195E+03
DAV:   2    -0.130333944926E+04   -0.85308E+04   -0.84283E+04  2376   0.421E+02
DAV:   3    -0.198630415204E+04   -0.68296E+03   -0.67924E+03  1984   0.116E+02
DAV:   4    -0.200319603931E+04   -0.16892E+02   -0.16837E+02  1888   0.225E+01
DAV:   5    -0.200373674117E+04   -0.54070E+00   -0.53957E+00  2032   0.361E+00BRMIX: very serious problems
 the old and the new charge density differ
 old charge density:   861.00000 new  861.99988
    0.577E+01
DAV:   6    -0.195217151188E+04    0.51565E+02   -0.42630E+01  1864   0.101E+01    0.344E+01
DAV:   7    -0.193509122045E+04    0.17080E+02   -0.49314E+01  1856   0.109E+01    0.808E+00
DAV:   8    -0.193536408972E+04   -0.27287E+00   -0.19960E+00  1896   0.229E+00    0.395E+00
DAV:   9    -0.193536944017E+04   -0.53505E-02   -0.27983E-01  1864   0.107E+00    0.109E+00
DAV:  10    -0.193537276285E+04   -0.33227E-02   -0.67545E-02  1888   0.471E-01    0.434E-01
DAV:  11    -0.193537300527E+04   -0.24242E-03   -0.81842E-03  1936   0.163E-01    0.153E-01
DAV:  12    -0.193537348956E+04   -0.48429E-03   -0.14681E-03  1912   0.740E-02    0.769E-02
DAV:  13    -0.193537376170E+04   -0.27214E-03   -0.32493E-04  1304   0.374E-02    0.394E-02
DAV:  14    -0.193537386250E+04   -0.10079E-03   -0.11693E-04  1024   0.228E-02    0.162E-02
DAV:  15    -0.193537387310E+04   -0.10604E-04   -0.34701E-05   992   0.105E-02
   1 F= -.19353739E+04 E0= -.19353430E+04  d E =-.617160E-01  mag=     2.0000
 writing wavefunctions
 running on  128 total cores
 distrk:  each k-point on  128 cores,    1 groups
 distr:  one band on   16 cores,    8 groups
 using from now: INCAR     
 vasp.5.4.1 05Feb16 (build Jun 30 2016 18:30:42) gamma-only                     
  
 POSCAR found :  2 types and     215 ions
 scaLAPACK will be used

 ----------------------------------------------------------------------------- 
|                                                                             |
|  ADVICE TO THIS USER RUNNING 'VASP/VAMP'   (HEAR YOUR MASTER'S VOICE ...):  |
|                                                                             |
|      You have a (more or less) 'large supercell' and for larger cells       |
|      it might be more efficient to use real space projection opertators     |
|      So try LREAL= Auto  in the INCAR   file.                               |
|      Mind: At the moment your POTCAR file does not contain real space       |
|       projectors, and has to be modified,  BUT if you                       |
|      want to do an extremely  accurate calculation you might also keep the  |
|      reciprocal projection scheme          (i.e. LREAL=.FALSE.)             |
|                                                                             |
 ----------------------------------------------------------------------------- 

 WARNING: for PREC=h ENMAX is automatically increase by 25 %
        this was not the case for versions prior to vasp.4.4
 WARNING: for PREC=h ENMAX is automatically increase by 25 %
        this was not the case for versions prior to vasp.4.4
 LDA part: xc-table for Pade appr. of Perdew
 POSCAR, INCAR and KPOINTS ok, starting setup
 FFT: planning ...
 WAVECAR not read
 entering main loop
       N       E                     dE             d eps       ncg     rms          rms(c)
DAV:   1     0.722746108335E+04    0.72275E+04   -0.53125E+05  1792   0.195E+03
DAV:   2    -0.130333019418E+04   -0.85308E+04   -0.84284E+04  2376   0.421E+02
DAV:   3    -0.198630548580E+04   -0.68298E+03   -0.67926E+03  1984   0.116E+02
DAV:   4    -0.200319614200E+04   -0.16891E+02   -0.16837E+02  1888   0.225E+01
DAV:   5    -0.200373390620E+04   -0.53776E+00   -0.53657E+00  1984   0.361E+00BRMIX: very serious problems
 the old and the new charge density differ
 old charge density:   861.00000 new  861.99988
    0.577E+01
DAV:   6    -0.195217122534E+04    0.51563E+02   -0.42655E+01  1864   0.101E+01    0.344E+01
DAV:   7    -0.193509116233E+04    0.17080E+02   -0.49310E+01  1856   0.109E+01    0.808E+00
DAV:   8    -0.193536410355E+04   -0.27294E+00   -0.19961E+00  1896   0.229E+00    0.395E+00
DAV:   9    -0.193536943842E+04   -0.53349E-02   -0.27989E-01  1864   0.107E+00    0.109E+00
DAV:  10    -0.193537275909E+04   -0.33207E-02   -0.67547E-02  1888   0.471E-01    0.434E-01
DAV:  11    -0.193537300159E+04   -0.24251E-03   -0.81850E-03  1944   0.163E-01    0.153E-01
DAV:  12    -0.193537348550E+04   -0.48390E-03   -0.14632E-03  1904   0.740E-02    0.769E-02
DAV:  13    -0.193537375768E+04   -0.27219E-03   -0.32576E-04  1312   0.375E-02    0.394E-02
DAV:  14    -0.193537385832E+04   -0.10064E-03   -0.11638E-04  1024   0.227E-02    0.163E-02
DAV:  15    -0.193537386896E+04   -0.10633E-04   -0.34921E-05   992   0.104E-02
   1 F= -.19353739E+04 E0= -.19353430E+04  d E =-.617154E-01  mag=     2.0000
 writing wavefunctions
