 running on  128 total cores
 distrk:  each k-point on  128 cores,    1 groups
 distr:  one band on   16 cores,    8 groups
 using from now: INCAR     
 vasp.5.4.1 05Feb16 (build Jun 30 2016 18:30:42) gamma-only                     
  
 POSCAR found :  2 types and     215 ions
 scaLAPACK will be used

 ----------------------------------------------------------------------------- 
|                                                                             |
|  ADVICE TO THIS USER RUNNING 'VASP/VAMP'   (HEAR YOUR MASTER'S VOICE ...):  |
|                                                                             |
|      You have a (more or less) 'large supercell' and for larger cells       |
|      it might be more efficient to use real space projection opertators     |
|      So try LREAL= Auto  in the INCAR   file.                               |
|      Mind: At the moment your POTCAR file does not contain real space       |
|       projectors, and has to be modified,  BUT if you                       |
|      want to do an extremely  accurate calculation you might also keep the  |
|      reciprocal projection scheme          (i.e. LREAL=.FALSE.)             |
|                                                                             |
 ----------------------------------------------------------------------------- 

 WARNING: for PREC=h ENMAX is automatically increase by 25 %
        this was not the case for versions prior to vasp.4.4
 WARNING: for PREC=h ENMAX is automatically increase by 25 %
        this was not the case for versions prior to vasp.4.4
 LDA part: xc-table for Pade appr. of Perdew
 POSCAR, INCAR and KPOINTS ok, starting setup
 FFT: planning ...
 WAVECAR not read
 entering main loop
       N       E                     dE             d eps       ncg     rms          rms(c)
DAV:   1     0.722748520867E+04    0.72275E+04   -0.53125E+05  1792   0.195E+03
DAV:   2    -0.130331156239E+04   -0.85308E+04   -0.84284E+04  2376   0.421E+02
DAV:   3    -0.198629977765E+04   -0.68299E+03   -0.67927E+03  1984   0.116E+02
DAV:   4    -0.200319504708E+04   -0.16895E+02   -0.16841E+02  1888   0.225E+01
DAV:   5    -0.200373462404E+04   -0.53958E+00   -0.53842E+00  2024   0.361E+00BRMIX: very serious problems
 the old and the new charge density differ
 old charge density:   861.00000 new  861.99988
    0.577E+01
DAV:   6    -0.195217151842E+04    0.51563E+02   -0.42635E+01  1864   0.101E+01    0.344E+01
DAV:   7    -0.193509002016E+04    0.17081E+02   -0.49299E+01  1848   0.109E+01    0.808E+00
DAV:   8    -0.193536411580E+04   -0.27410E+00   -0.19990E+00  1896   0.229E+00    0.395E+00
DAV:   9    -0.193536929355E+04   -0.51777E-02   -0.27822E-01  1864   0.107E+00    0.109E+00
DAV:  10    -0.193537274131E+04   -0.34478E-02   -0.67661E-02  1888   0.471E-01    0.433E-01
DAV:  11    -0.193537299358E+04   -0.25228E-03   -0.81223E-03  1936   0.163E-01    0.153E-01
DAV:  12    -0.193537347791E+04   -0.48432E-03   -0.14407E-03  1912   0.731E-02    0.769E-02
DAV:  13    -0.193537375027E+04   -0.27236E-03   -0.31835E-04  1304   0.368E-02    0.393E-02
DAV:  14    -0.193537385036E+04   -0.10009E-03   -0.11321E-04  1032   0.223E-02    0.162E-02
DAV:  15    -0.193537386096E+04   -0.10595E-04   -0.33155E-05   992   0.101E-02
   1 F= -.19353739E+04 E0= -.19353430E+04  d E =-.617341E-01  mag=     2.0000
 writing wavefunctions
 running on  128 total cores
 distrk:  each k-point on  128 cores,    1 groups
 distr:  one band on   16 cores,    8 groups
 using from now: INCAR     
 vasp.5.4.1 05Feb16 (build Jun 30 2016 18:30:42) gamma-only                     
  
 POSCAR found :  2 types and     215 ions
 scaLAPACK will be used

 ----------------------------------------------------------------------------- 
|                                                                             |
|  ADVICE TO THIS USER RUNNING 'VASP/VAMP'   (HEAR YOUR MASTER'S VOICE ...):  |
|                                                                             |
|      You have a (more or less) 'large supercell' and for larger cells       |
|      it might be more efficient to use real space projection opertators     |
|      So try LREAL= Auto  in the INCAR   file.                               |
|      Mind: At the moment your POTCAR file does not contain real space       |
|       projectors, and has to be modified,  BUT if you                       |
|      want to do an extremely  accurate calculation you might also keep the  |
|      reciprocal projection scheme          (i.e. LREAL=.FALSE.)             |
|                                                                             |
 ----------------------------------------------------------------------------- 

 WARNING: for PREC=h ENMAX is automatically increase by 25 %
        this was not the case for versions prior to vasp.4.4
 WARNING: for PREC=h ENMAX is automatically increase by 25 %
        this was not the case for versions prior to vasp.4.4
 LDA part: xc-table for Pade appr. of Perdew
 POSCAR, INCAR and KPOINTS ok, starting setup
 FFT: planning ...
 WAVECAR not read
 entering main loop
       N       E                     dE             d eps       ncg     rms          rms(c)
DAV:   1     0.722745177948E+04    0.72275E+04   -0.53125E+05  1792   0.195E+03
DAV:   2    -0.130323288624E+04   -0.85307E+04   -0.84283E+04  2376   0.421E+02
DAV:   3    -0.198630209583E+04   -0.68307E+03   -0.67935E+03  1984   0.116E+02
DAV:   4    -0.200319561213E+04   -0.16894E+02   -0.16840E+02  1888   0.225E+01
DAV:   5    -0.200373283223E+04   -0.53722E+00   -0.53602E+00  1984   0.361E+00BRMIX: very serious problems
 the old and the new charge density differ
 old charge density:   861.00000 new  861.99988
    0.577E+01
DAV:   6    -0.195217178166E+04    0.51561E+02   -0.42651E+01  1864   0.101E+01    0.344E+01
DAV:   7    -0.193509131125E+04    0.17080E+02   -0.49309E+01  1856   0.109E+01    0.808E+00
DAV:   8    -0.193536405642E+04   -0.27275E+00   -0.19953E+00  1896   0.229E+00    0.395E+00
DAV:   9    -0.193536943899E+04   -0.53826E-02   -0.27994E-01  1864   0.107E+00    0.109E+00
DAV:  10    -0.193537275836E+04   -0.33194E-02   -0.67490E-02  1888   0.471E-01    0.434E-01
DAV:  11    -0.193537300103E+04   -0.24267E-03   -0.81882E-03  1936   0.163E-01    0.153E-01
DAV:  12    -0.193537348520E+04   -0.48417E-03   -0.14683E-03  1912   0.740E-02    0.769E-02
DAV:  13    -0.193537375718E+04   -0.27198E-03   -0.32446E-04  1304   0.374E-02    0.394E-02
DAV:  14    -0.193537385795E+04   -0.10076E-03   -0.11665E-04  1024   0.228E-02    0.162E-02
DAV:  15    -0.193537386861E+04   -0.10663E-04   -0.35216E-05   992   0.105E-02
   1 F= -.19353739E+04 E0= -.19353430E+04  d E =-.616998E-01  mag=     2.0000
 writing wavefunctions
