 running on  128 total cores
 distrk:  each k-point on  128 cores,    1 groups
 distr:  one band on   16 cores,    8 groups
 using from now: INCAR     
 vasp.5.4.1 05Feb16 (build Jun 30 2016 18:30:42) gamma-only                     
  
 POSCAR found :  2 types and     215 ions
 scaLAPACK will be used

 ----------------------------------------------------------------------------- 
|                                                                             |
|  ADVICE TO THIS USER RUNNING 'VASP/VAMP'   (HEAR YOUR MASTER'S VOICE ...):  |
|                                                                             |
|      You have a (more or less) 'large supercell' and for larger cells       |
|      it might be more efficient to use real space projection opertators     |
|      So try LREAL= Auto  in the INCAR   file.                               |
|      Mind: At the moment your POTCAR file does not contain real space       |
|       projectors, and has to be modified,  BUT if you                       |
|      want to do an extremely  accurate calculation you might also keep the  |
|      reciprocal projection scheme          (i.e. LREAL=.FALSE.)             |
|                                                                             |
 ----------------------------------------------------------------------------- 

 WARNING: for PREC=h ENMAX is automatically increase by 25 %
        this was not the case for versions prior to vasp.4.4
 WARNING: for PREC=h ENMAX is automatically increase by 25 %
        this was not the case for versions prior to vasp.4.4
 LDA part: xc-table for Pade appr. of Perdew
 POSCAR, INCAR and KPOINTS ok, starting setup
 FFT: planning ...
 WAVECAR not read
 entering main loop
       N       E                     dE             d eps       ncg     rms          rms(c)
DAV:   1     0.722746047869E+04    0.72275E+04   -0.53125E+05  1792   0.195E+03
DAV:   2    -0.130337583485E+04   -0.85308E+04   -0.84283E+04  2376   0.421E+02
DAV:   3    -0.198630525420E+04   -0.68293E+03   -0.67921E+03  1984   0.116E+02
DAV:   4    -0.200319612446E+04   -0.16891E+02   -0.16837E+02  1888   0.225E+01
DAV:   5    -0.200373357021E+04   -0.53745E+00   -0.53625E+00  1984   0.361E+00BRMIX: very serious problems
 the old and the new charge density differ
 old charge density:   861.00000 new  861.99988
    0.577E+01
DAV:   6    -0.195217163042E+04    0.51562E+02   -0.42654E+01  1864   0.101E+01    0.344E+01
DAV:   7    -0.193509116861E+04    0.17080E+02   -0.49308E+01  1856   0.109E+01    0.808E+00
DAV:   8    -0.193536397944E+04   -0.27281E+00   -0.19954E+00  1888   0.229E+00    0.395E+00
DAV:   9    -0.193536947246E+04   -0.54930E-02   -0.27903E-01  1864   0.107E+00    0.109E+00
DAV:  10    -0.193537273084E+04   -0.32584E-02   -0.67173E-02  1888   0.470E-01    0.434E-01
DAV:  11    -0.193537298159E+04   -0.25074E-03   -0.81865E-03  1936   0.163E-01    0.153E-01
DAV:  12    -0.193537346659E+04   -0.48500E-03   -0.14535E-03  1912   0.735E-02    0.769E-02
DAV:  13    -0.193537373865E+04   -0.27206E-03   -0.32047E-04  1304   0.371E-02    0.394E-02
DAV:  14    -0.193537383939E+04   -0.10073E-03   -0.11627E-04  1016   0.227E-02    0.161E-02
DAV:  15    -0.193537384995E+04   -0.10566E-04   -0.34656E-05   992   0.104E-02
   1 F= -.19353738E+04 E0= -.19353430E+04  d E =-.617165E-01  mag=     2.0000
 writing wavefunctions
 running on  128 total cores
 distrk:  each k-point on  128 cores,    1 groups
 distr:  one band on   16 cores,    8 groups
 using from now: INCAR     
 vasp.5.4.1 05Feb16 (build Jun 30 2016 18:30:42) gamma-only                     
  
 POSCAR found :  2 types and     215 ions
 scaLAPACK will be used

 ----------------------------------------------------------------------------- 
|                                                                             |
|  ADVICE TO THIS USER RUNNING 'VASP/VAMP'   (HEAR YOUR MASTER'S VOICE ...):  |
|                                                                             |
|      You have a (more or less) 'large supercell' and for larger cells       |
|      it might be more efficient to use real space projection opertators     |
|      So try LREAL= Auto  in the INCAR   file.                               |
|      Mind: At the moment your POTCAR file does not contain real space       |
|       projectors, and has to be modified,  BUT if you                       |
|      want to do an extremely  accurate calculation you might also keep the  |
|      reciprocal projection scheme          (i.e. LREAL=.FALSE.)             |
|                                                                             |
 ----------------------------------------------------------------------------- 

 WARNING: for PREC=h ENMAX is automatically increase by 25 %
        this was not the case for versions prior to vasp.4.4
 WARNING: for PREC=h ENMAX is automatically increase by 25 %
        this was not the case for versions prior to vasp.4.4
 LDA part: xc-table for Pade appr. of Perdew
 POSCAR, INCAR and KPOINTS ok, starting setup
 FFT: planning ...
 WAVECAR not read
 entering main loop
       N       E                     dE             d eps       ncg     rms          rms(c)
DAV:   1     0.722752366343E+04    0.72275E+04   -0.53125E+05  1792   0.195E+03
DAV:   2    -0.130320295898E+04   -0.85307E+04   -0.84283E+04  2376   0.421E+02
DAV:   3    -0.198629373093E+04   -0.68309E+03   -0.67936E+03  1984   0.116E+02
DAV:   4    -0.200319543136E+04   -0.16902E+02   -0.16847E+02  1888   0.225E+01
DAV:   5    -0.200373385016E+04   -0.53842E+00   -0.53723E+00  1992   0.361E+00BRMIX: very serious problems
 the old and the new charge density differ
 old charge density:   861.00000 new  861.99988
    0.577E+01
DAV:   6    -0.195217176501E+04    0.51562E+02   -0.42647E+01  1864   0.101E+01    0.344E+01
DAV:   7    -0.193509002187E+04    0.17082E+02   -0.49296E+01  1848   0.109E+01    0.808E+00
DAV:   8    -0.193536414250E+04   -0.27412E+00   -0.19988E+00  1896   0.229E+00    0.395E+00
DAV:   9    -0.193536928299E+04   -0.51405E-02   -0.27801E-01  1864   0.107E+00    0.109E+00
DAV:  10    -0.193537273692E+04   -0.34539E-02   -0.67641E-02  1888   0.471E-01    0.433E-01
DAV:  11    -0.193537298804E+04   -0.25112E-03   -0.81041E-03  1936   0.163E-01    0.153E-01
DAV:  12    -0.193537347242E+04   -0.48438E-03   -0.14398E-03  1920   0.731E-02    0.769E-02
DAV:  13    -0.193537374466E+04   -0.27224E-03   -0.31689E-04  1304   0.368E-02    0.393E-02
DAV:  14    -0.193537384472E+04   -0.10007E-03   -0.11276E-04  1032   0.222E-02    0.161E-02
DAV:  15    -0.193537385527E+04   -0.10552E-04   -0.32883E-05   992   0.101E-02
   1 F= -.19353739E+04 E0= -.19353430E+04  d E =-.617276E-01  mag=     2.0000
 writing wavefunctions
