 running on  128 total cores
 distrk:  each k-point on  128 cores,    1 groups
 distr:  one band on   16 cores,    8 groups
 using from now: INCAR     
 vasp.5.4.1 05Feb16 (build Jun 30 2016 18:30:42) gamma-only                     
  
 POSCAR found :  2 types and     215 ions
 scaLAPACK will be used

 ----------------------------------------------------------------------------- 
|                                                                             |
|  ADVICE TO THIS USER RUNNING 'VASP/VAMP'   (HEAR YOUR MASTER'S VOICE ...):  |
|                                                                             |
|      You have a (more or less) 'large supercell' and for larger cells       |
|      it might be more efficient to use real space projection opertators     |
|      So try LREAL= Auto  in the INCAR   file.                               |
|      Mind: At the moment your POTCAR file does not contain real space       |
|       projectors, and has to be modified,  BUT if you                       |
|      want to do an extremely  accurate calculation you might also keep the  |
|      reciprocal projection scheme          (i.e. LREAL=.FALSE.)             |
|                                                                             |
 ----------------------------------------------------------------------------- 

 WARNING: for PREC=h ENMAX is automatically increase by 25 %
        this was not the case for versions prior to vasp.4.4
 WARNING: for PREC=h ENMAX is automatically increase by 25 %
        this was not the case for versions prior to vasp.4.4
 LDA part: xc-table for Pade appr. of Perdew
 POSCAR, INCAR and KPOINTS ok, starting setup
 FFT: planning ...
 WAVECAR not read
 entering main loop
       N       E                     dE             d eps       ncg     rms          rms(c)
DAV:   1     0.722746711889E+04    0.72275E+04   -0.53125E+05  1792   0.195E+03
DAV:   2    -0.130333450895E+04   -0.85308E+04   -0.84284E+04  2376   0.421E+02
DAV:   3    -0.198630107693E+04   -0.68297E+03   -0.67925E+03  1984   0.116E+02
DAV:   4    -0.200319589904E+04   -0.16895E+02   -0.16841E+02  1888   0.225E+01
DAV:   5    -0.200373559117E+04   -0.53969E+00   -0.53852E+00  2016   0.361E+00BRMIX: very serious problems
 the old and the new charge density differ
 old charge density:   861.00000 new  861.99988
    0.577E+01
DAV:   6    -0.195217135464E+04    0.51564E+02   -0.42640E+01  1864   0.101E+01    0.344E+01
DAV:   7    -0.193509111856E+04    0.17080E+02   -0.49310E+01  1856   0.109E+01    0.808E+00
DAV:   8    -0.193536409162E+04   -0.27297E+00   -0.19962E+00  1896   0.229E+00    0.395E+00
DAV:   9    -0.193536943661E+04   -0.53450E-02   -0.27991E-01  1864   0.107E+00    0.109E+00
DAV:  10    -0.193537275220E+04   -0.33156E-02   -0.67532E-02  1888   0.471E-01    0.434E-01
DAV:  11    -0.193537299490E+04   -0.24271E-03   -0.81914E-03  1944   0.163E-01    0.153E-01
DAV:  12    -0.193537347901E+04   -0.48411E-03   -0.14644E-03  1896   0.740E-02    0.769E-02
DAV:  13    -0.193537375122E+04   -0.27221E-03   -0.32690E-04  1304   0.375E-02    0.394E-02
DAV:  14    -0.193537385203E+04   -0.10081E-03   -0.11785E-04  1024   0.228E-02    0.163E-02
DAV:  15    -0.193537386263E+04   -0.10602E-04   -0.34922E-05   992   0.104E-02
   1 F= -.19353739E+04 E0= -.19353430E+04  d E =-.617152E-01  mag=     2.0000
 writing wavefunctions
 running on  128 total cores
 distrk:  each k-point on  128 cores,    1 groups
 distr:  one band on   16 cores,    8 groups
 using from now: INCAR     
 vasp.5.4.1 05Feb16 (build Jun 30 2016 18:30:42) gamma-only                     
  
 POSCAR found :  2 types and     215 ions
 scaLAPACK will be used

 ----------------------------------------------------------------------------- 
|                                                                             |
|  ADVICE TO THIS USER RUNNING 'VASP/VAMP'   (HEAR YOUR MASTER'S VOICE ...):  |
|                                                                             |
|      You have a (more or less) 'large supercell' and for larger cells       |
|      it might be more efficient to use real space projection opertators     |
|      So try LREAL= Auto  in the INCAR   file.                               |
|      Mind: At the moment your POTCAR file does not contain real space       |
|       projectors, and has to be modified,  BUT if you                       |
|      want to do an extremely  accurate calculation you might also keep the  |
|      reciprocal projection scheme          (i.e. LREAL=.FALSE.)             |
|                                                                             |
 ----------------------------------------------------------------------------- 

 WARNING: for PREC=h ENMAX is automatically increase by 25 %
        this was not the case for versions prior to vasp.4.4
 WARNING: for PREC=h ENMAX is automatically increase by 25 %
        this was not the case for versions prior to vasp.4.4
 LDA part: xc-table for Pade appr. of Perdew
 POSCAR, INCAR and KPOINTS ok, starting setup
 FFT: planning ...
 WAVECAR not read
 entering main loop
       N       E                     dE             d eps       ncg     rms          rms(c)
DAV:   1     0.722746799699E+04    0.72275E+04   -0.53125E+05  1792   0.195E+03
DAV:   2    -0.130333510916E+04   -0.85308E+04   -0.84284E+04  2376   0.421E+02
DAV:   3    -0.198630197934E+04   -0.68297E+03   -0.67925E+03  1984   0.116E+02
DAV:   4    -0.200319579892E+04   -0.16894E+02   -0.16840E+02  1888   0.225E+01
DAV:   5    -0.200373454329E+04   -0.53874E+00   -0.53757E+00  1992   0.361E+00BRMIX: very serious problems
 the old and the new charge density differ
 old charge density:   861.00000 new  861.99988
    0.577E+01
DAV:   6    -0.195217105481E+04    0.51563E+02   -0.42655E+01  1864   0.101E+01    0.344E+01
DAV:   7    -0.193509115830E+04    0.17080E+02   -0.49310E+01  1856   0.109E+01    0.808E+00
DAV:   8    -0.193536406564E+04   -0.27291E+00   -0.19959E+00  1896   0.229E+00    0.395E+00
DAV:   9    -0.193536942410E+04   -0.53585E-02   -0.27990E-01  1864   0.107E+00    0.109E+00
DAV:  10    -0.193537274833E+04   -0.33242E-02   -0.67564E-02  1888   0.471E-01    0.434E-01
DAV:  11    -0.193537299174E+04   -0.24341E-03   -0.81868E-03  1944   0.163E-01    0.153E-01
DAV:  12    -0.193537347563E+04   -0.48389E-03   -0.14631E-03  1904   0.739E-02    0.769E-02
DAV:  13    -0.193537374800E+04   -0.27237E-03   -0.32652E-04  1312   0.375E-02    0.394E-02
DAV:  14    -0.193537384865E+04   -0.10065E-03   -0.11680E-04  1016   0.227E-02    0.163E-02
DAV:  15    -0.193537385924E+04   -0.10596E-04   -0.34556E-05   992   0.104E-02
   1 F= -.19353739E+04 E0= -.19353430E+04  d E =-.617065E-01  mag=     2.0000
 writing wavefunctions
