 running on  128 total cores
 distrk:  each k-point on  128 cores,    1 groups
 distr:  one band on   16 cores,    8 groups
 using from now: INCAR     
 vasp.5.4.1 05Feb16 (build Jun 30 2016 18:30:42) gamma-only                     
  
 POSCAR found :  2 types and     215 ions
 scaLAPACK will be used

 ----------------------------------------------------------------------------- 
|                                                                             |
|  ADVICE TO THIS USER RUNNING 'VASP/VAMP'   (HEAR YOUR MASTER'S VOICE ...):  |
|                                                                             |
|      You have a (more or less) 'large supercell' and for larger cells       |
|      it might be more efficient to use real space projection opertators     |
|      So try LREAL= Auto  in the INCAR   file.                               |
|      Mind: At the moment your POTCAR file does not contain real space       |
|       projectors, and has to be modified,  BUT if you                       |
|      want to do an extremely  accurate calculation you might also keep the  |
|      reciprocal projection scheme          (i.e. LREAL=.FALSE.)             |
|                                                                             |
 ----------------------------------------------------------------------------- 

 WARNING: for PREC=h ENMAX is automatically increase by 25 %
        this was not the case for versions prior to vasp.4.4
 WARNING: for PREC=h ENMAX is automatically increase by 25 %
        this was not the case for versions prior to vasp.4.4
 LDA part: xc-table for Pade appr. of Perdew
 POSCAR, INCAR and KPOINTS ok, starting setup
 FFT: planning ...
 WAVECAR not read
 entering main loop
       N       E                     dE             d eps       ncg     rms          rms(c)
DAV:   1     0.722748003018E+04    0.72275E+04   -0.53125E+05  1792   0.195E+03
DAV:   2    -0.130336112506E+04   -0.85308E+04   -0.84284E+04  2376   0.421E+02
DAV:   3    -0.198630382978E+04   -0.68294E+03   -0.67923E+03  1984   0.116E+02
DAV:   4    -0.200319634467E+04   -0.16893E+02   -0.16838E+02  1888   0.225E+01
DAV:   5    -0.200373412300E+04   -0.53778E+00   -0.53657E+00  1984   0.361E+00BRMIX: very serious problems
 the old and the new charge density differ
 old charge density:   861.00000 new  861.99988
    0.577E+01
DAV:   6    -0.195217111572E+04    0.51563E+02   -0.42662E+01  1864   0.101E+01    0.344E+01
DAV:   7    -0.193509106724E+04    0.17080E+02   -0.49308E+01  1856   0.109E+01    0.808E+00
DAV:   8    -0.193536408025E+04   -0.27301E+00   -0.19963E+00  1896   0.229E+00    0.395E+00
DAV:   9    -0.193536940374E+04   -0.53235E-02   -0.27995E-01  1864   0.107E+00    0.109E+00
DAV:  10    -0.193537272492E+04   -0.33212E-02   -0.67546E-02  1888   0.471E-01    0.434E-01
DAV:  11    -0.193537296475E+04   -0.23982E-03   -0.81827E-03  1944   0.163E-01    0.153E-01
DAV:  12    -0.193537344909E+04   -0.48434E-03   -0.14668E-03  1896   0.740E-02    0.769E-02
DAV:  13    -0.193537372110E+04   -0.27202E-03   -0.32655E-04  1312   0.375E-02    0.394E-02
DAV:  14    -0.193537382180E+04   -0.10070E-03   -0.11693E-04  1016   0.227E-02    0.163E-02
DAV:  15    -0.193537383244E+04   -0.10639E-04   -0.34696E-05   992   0.104E-02
   1 F= -.19353738E+04 E0= -.19353430E+04  d E =-.616341E-01  mag=     2.0000
 writing wavefunctions
 running on  128 total cores
 distrk:  each k-point on  128 cores,    1 groups
 distr:  one band on   16 cores,    8 groups
 using from now: INCAR     
 vasp.5.4.1 05Feb16 (build Jun 30 2016 18:30:42) gamma-only                     
  
 POSCAR found :  2 types and     215 ions
 scaLAPACK will be used

 ----------------------------------------------------------------------------- 
|                                                                             |
|  ADVICE TO THIS USER RUNNING 'VASP/VAMP'   (HEAR YOUR MASTER'S VOICE ...):  |
|                                                                             |
|      You have a (more or less) 'large supercell' and for larger cells       |
|      it might be more efficient to use real space projection opertators     |
|      So try LREAL= Auto  in the INCAR   file.                               |
|      Mind: At the moment your POTCAR file does not contain real space       |
|       projectors, and has to be modified,  BUT if you                       |
|      want to do an extremely  accurate calculation you might also keep the  |
|      reciprocal projection scheme          (i.e. LREAL=.FALSE.)             |
|                                                                             |
 ----------------------------------------------------------------------------- 

 WARNING: for PREC=h ENMAX is automatically increase by 25 %
        this was not the case for versions prior to vasp.4.4
 WARNING: for PREC=h ENMAX is automatically increase by 25 %
        this was not the case for versions prior to vasp.4.4
 LDA part: xc-table for Pade appr. of Perdew
 POSCAR, INCAR and KPOINTS ok, starting setup
 FFT: planning ...
 WAVECAR not read
 entering main loop
       N       E                     dE             d eps       ncg     rms          rms(c)
DAV:   1     0.722747431374E+04    0.72275E+04   -0.53125E+05  1792   0.195E+03
DAV:   2    -0.130327243668E+04   -0.85307E+04   -0.84283E+04  2376   0.421E+02
DAV:   3    -0.198629853522E+04   -0.68303E+03   -0.67929E+03  1984   0.116E+02
DAV:   4    -0.200319580775E+04   -0.16897E+02   -0.16843E+02  1888   0.225E+01
DAV:   5    -0.200373427902E+04   -0.53847E+00   -0.53728E+00  2000   0.361E+00BRMIX: very serious problems
 the old and the new charge density differ
 old charge density:   861.00000 new  861.99988
    0.577E+01
DAV:   6    -0.195217165665E+04    0.51563E+02   -0.42644E+01  1864   0.101E+01    0.344E+01
DAV:   7    -0.193509124165E+04    0.17080E+02   -0.49314E+01  1856   0.109E+01    0.808E+00
DAV:   8    -0.193536412489E+04   -0.27288E+00   -0.19960E+00  1896   0.229E+00    0.395E+00
DAV:   9    -0.193536944474E+04   -0.53198E-02   -0.27986E-01  1864   0.107E+00    0.109E+00
DAV:  10    -0.193537276185E+04   -0.33171E-02   -0.67544E-02  1888   0.471E-01    0.434E-01
DAV:  11    -0.193537300338E+04   -0.24153E-03   -0.81844E-03  1936   0.163E-01    0.153E-01
DAV:  12    -0.193537348754E+04   -0.48415E-03   -0.14677E-03  1904   0.740E-02    0.769E-02
DAV:  13    -0.193537375971E+04   -0.27217E-03   -0.32649E-04  1312   0.375E-02    0.394E-02
DAV:  14    -0.193537386041E+04   -0.10070E-03   -0.11630E-04  1024   0.227E-02    0.163E-02
DAV:  15    -0.193537387105E+04   -0.10640E-04   -0.34255E-05   992   0.104E-02
   1 F= -.19353739E+04 E0= -.19353430E+04  d E =-.617148E-01  mag=     2.0000
 writing wavefunctions
