 running on  128 total cores
 distrk:  each k-point on  128 cores,    1 groups
 distr:  one band on   16 cores,    8 groups
 using from now: INCAR     
 vasp.5.4.1 05Feb16 (build Jun 30 2016 18:30:42) gamma-only                     
  
 POSCAR found :  2 types and     215 ions
 scaLAPACK will be used

 ----------------------------------------------------------------------------- 
|                                                                             |
|  ADVICE TO THIS USER RUNNING 'VASP/VAMP'   (HEAR YOUR MASTER'S VOICE ...):  |
|                                                                             |
|      You have a (more or less) 'large supercell' and for larger cells       |
|      it might be more efficient to use real space projection opertators     |
|      So try LREAL= Auto  in the INCAR   file.                               |
|      Mind: At the moment your POTCAR file does not contain real space       |
|       projectors, and has to be modified,  BUT if you                       |
|      want to do an extremely  accurate calculation you might also keep the  |
|      reciprocal projection scheme          (i.e. LREAL=.FALSE.)             |
|                                                                             |
 ----------------------------------------------------------------------------- 

 WARNING: for PREC=h ENMAX is automatically increase by 25 %
        this was not the case for versions prior to vasp.4.4
 WARNING: for PREC=h ENMAX is automatically increase by 25 %
        this was not the case for versions prior to vasp.4.4
 LDA part: xc-table for Pade appr. of Perdew
 POSCAR, INCAR and KPOINTS ok, starting setup
 FFT: planning ...
 WAVECAR not read
 entering main loop
       N       E                     dE             d eps       ncg     rms          rms(c)
DAV:   1     0.722746428220E+04    0.72275E+04   -0.53125E+05  1792   0.195E+03
DAV:   2    -0.130326167275E+04   -0.85307E+04   -0.84283E+04  2376   0.421E+02
DAV:   3    -0.198629879160E+04   -0.68304E+03   -0.67931E+03  1984   0.116E+02
DAV:   4    -0.200319650980E+04   -0.16898E+02   -0.16843E+02  1888   0.225E+01
DAV:   5    -0.200373620388E+04   -0.53969E+00   -0.53855E+00  2016   0.361E+00BRMIX: very serious problems
 the old and the new charge density differ
 old charge density:   861.00000 new  861.99988
    0.577E+01
DAV:   6    -0.195217159754E+04    0.51565E+02   -0.42640E+01  1864   0.101E+01    0.344E+01
DAV:   7    -0.193509122732E+04    0.17080E+02   -0.49313E+01  1856   0.109E+01    0.808E+00
DAV:   8    -0.193536411789E+04   -0.27289E+00   -0.19956E+00  1896   0.229E+00    0.395E+00
DAV:   9    -0.193536948213E+04   -0.53642E-02   -0.27990E-01  1864   0.107E+00    0.109E+00
DAV:  10    -0.193537280008E+04   -0.33180E-02   -0.67502E-02  1888   0.471E-01    0.434E-01
DAV:  11    -0.193537304354E+04   -0.24346E-03   -0.81910E-03  1936   0.163E-01    0.153E-01
DAV:  12    -0.193537352767E+04   -0.48413E-03   -0.14678E-03  1912   0.740E-02    0.769E-02
DAV:  13    -0.193537379995E+04   -0.27228E-03   -0.32518E-04  1304   0.374E-02    0.394E-02
DAV:  14    -0.193537390076E+04   -0.10081E-03   -0.11715E-04  1024   0.228E-02    0.162E-02
DAV:  15    -0.193537391134E+04   -0.10577E-04   -0.34717E-05   992   0.105E-02
   1 F= -.19353739E+04 E0= -.19353430E+04  d E =-.617479E-01  mag=     2.0000
 writing wavefunctions
 running on  128 total cores
 distrk:  each k-point on  128 cores,    1 groups
 distr:  one band on   16 cores,    8 groups
 using from now: INCAR     
 vasp.5.4.1 05Feb16 (build Jun 30 2016 18:30:42) gamma-only                     
  
 POSCAR found :  2 types and     215 ions
 scaLAPACK will be used

 ----------------------------------------------------------------------------- 
|                                                                             |
|  ADVICE TO THIS USER RUNNING 'VASP/VAMP'   (HEAR YOUR MASTER'S VOICE ...):  |
|                                                                             |
|      You have a (more or less) 'large supercell' and for larger cells       |
|      it might be more efficient to use real space projection opertators     |
|      So try LREAL= Auto  in the INCAR   file.                               |
|      Mind: At the moment your POTCAR file does not contain real space       |
|       projectors, and has to be modified,  BUT if you                       |
|      want to do an extremely  accurate calculation you might also keep the  |
|      reciprocal projection scheme          (i.e. LREAL=.FALSE.)             |
|                                                                             |
 ----------------------------------------------------------------------------- 

 WARNING: for PREC=h ENMAX is automatically increase by 25 %
        this was not the case for versions prior to vasp.4.4
 WARNING: for PREC=h ENMAX is automatically increase by 25 %
        this was not the case for versions prior to vasp.4.4
 LDA part: xc-table for Pade appr. of Perdew
 POSCAR, INCAR and KPOINTS ok, starting setup
 FFT: planning ...
 WAVECAR not read
 entering main loop
       N       E                     dE             d eps       ncg     rms          rms(c)
DAV:   1     0.722743637430E+04    0.72274E+04   -0.53125E+05  1792   0.195E+03
DAV:   2    -0.130325481059E+04   -0.85307E+04   -0.84283E+04  2376   0.421E+02
DAV:   3    -0.198629721775E+04   -0.68304E+03   -0.67932E+03  1984   0.116E+02
DAV:   4    -0.200319404640E+04   -0.16897E+02   -0.16843E+02  1888   0.225E+01
DAV:   5    -0.200373250124E+04   -0.53845E+00   -0.53726E+00  1992   0.361E+00BRMIX: very serious problems
 the old and the new charge density differ
 old charge density:   861.00000 new  861.99988
    0.577E+01
DAV:   6    -0.195217085782E+04    0.51562E+02   -0.42650E+01  1864   0.101E+01    0.344E+01
DAV:   7    -0.193509109545E+04    0.17080E+02   -0.49313E+01  1856   0.109E+01    0.808E+00
DAV:   8    -0.193536412330E+04   -0.27303E+00   -0.19968E+00  1896   0.229E+00    0.395E+00
DAV:   9    -0.193536947589E+04   -0.53526E-02   -0.28027E-01  1864   0.107E+00    0.109E+00
DAV:  10    -0.193537280664E+04   -0.33308E-02   -0.67631E-02  1888   0.471E-01    0.434E-01
DAV:  11    -0.193537305031E+04   -0.24366E-03   -0.82092E-03  1944   0.163E-01    0.153E-01
DAV:  12    -0.193537353412E+04   -0.48381E-03   -0.14678E-03  1904   0.740E-02    0.769E-02
DAV:  13    -0.193537380641E+04   -0.27229E-03   -0.32605E-04  1304   0.375E-02    0.394E-02
DAV:  14    -0.193537390729E+04   -0.10088E-03   -0.11820E-04  1024   0.228E-02    0.163E-02
DAV:  15    -0.193537391785E+04   -0.10555E-04   -0.34992E-05   992   0.105E-02
   1 F= -.19353739E+04 E0= -.19353431E+04  d E =-.616339E-01  mag=     2.0000
 writing wavefunctions
