 running on  128 total cores
 distrk:  each k-point on  128 cores,    1 groups
 distr:  one band on   16 cores,    8 groups
 using from now: INCAR     
 vasp.5.4.1 05Feb16 (build Jun 30 2016 18:30:42) gamma-only                     
  
 POSCAR found :  2 types and     215 ions
 scaLAPACK will be used

 ----------------------------------------------------------------------------- 
|                                                                             |
|  ADVICE TO THIS USER RUNNING 'VASP/VAMP'   (HEAR YOUR MASTER'S VOICE ...):  |
|                                                                             |
|      You have a (more or less) 'large supercell' and for larger cells       |
|      it might be more efficient to use real space projection opertators     |
|      So try LREAL= Auto  in the INCAR   file.                               |
|      Mind: At the moment your POTCAR file does not contain real space       |
|       projectors, and has to be modified,  BUT if you                       |
|      want to do an extremely  accurate calculation you might also keep the  |
|      reciprocal projection scheme          (i.e. LREAL=.FALSE.)             |
|                                                                             |
 ----------------------------------------------------------------------------- 

 WARNING: for PREC=h ENMAX is automatically increase by 25 %
        this was not the case for versions prior to vasp.4.4
 WARNING: for PREC=h ENMAX is automatically increase by 25 %
        this was not the case for versions prior to vasp.4.4
 LDA part: xc-table for Pade appr. of Perdew
 POSCAR, INCAR and KPOINTS ok, starting setup
 FFT: planning ...
 WAVECAR not read
 entering main loop
       N       E                     dE             d eps       ncg     rms          rms(c)
DAV:   1     0.722747738452E+04    0.72275E+04   -0.53125E+05  1792   0.195E+03
DAV:   2    -0.130327247317E+04   -0.85307E+04   -0.84282E+04  2376   0.421E+02
DAV:   3    -0.198629640515E+04   -0.68302E+03   -0.67928E+03  1984   0.116E+02
DAV:   4    -0.200319606167E+04   -0.16900E+02   -0.16845E+02  1888   0.225E+01
DAV:   5    -0.200373500664E+04   -0.53894E+00   -0.53776E+00  2000   0.361E+00BRMIX: very serious problems
 the old and the new charge density differ
 old charge density:   861.00000 new  861.99988
    0.577E+01
DAV:   6    -0.195217146695E+04    0.51564E+02   -0.42649E+01  1864   0.101E+01    0.344E+01
DAV:   7    -0.193509133180E+04    0.17080E+02   -0.49313E+01  1856   0.109E+01    0.808E+00
DAV:   8    -0.193536399288E+04   -0.27266E+00   -0.19947E+00  1888   0.229E+00    0.395E+00
DAV:   9    -0.193536951328E+04   -0.55204E-02   -0.27915E-01  1864   0.107E+00    0.109E+00
DAV:  10    -0.193537275937E+04   -0.32461E-02   -0.67118E-02  1888   0.470E-01    0.434E-01
DAV:  11    -0.193537300946E+04   -0.25009E-03   -0.81953E-03  1928   0.163E-01    0.153E-01
DAV:  12    -0.193537349510E+04   -0.48564E-03   -0.14562E-03  1912   0.736E-02    0.768E-02
DAV:  13    -0.193537376705E+04   -0.27195E-03   -0.31961E-04  1304   0.370E-02    0.394E-02
DAV:  14    -0.193537386786E+04   -0.10081E-03   -0.11485E-04  1008   0.226E-02    0.161E-02
DAV:  15    -0.193537387856E+04   -0.10700E-04   -0.34955E-05   992   0.105E-02
   1 F= -.19353739E+04 E0= -.19353430E+04  d E =-.617419E-01  mag=     2.0000
 writing wavefunctions
 running on  128 total cores
 distrk:  each k-point on  128 cores,    1 groups
 distr:  one band on   16 cores,    8 groups
 using from now: INCAR     
 vasp.5.4.1 05Feb16 (build Jun 30 2016 18:30:42) gamma-only                     
  
 POSCAR found :  2 types and     215 ions
 scaLAPACK will be used

 ----------------------------------------------------------------------------- 
|                                                                             |
|  ADVICE TO THIS USER RUNNING 'VASP/VAMP'   (HEAR YOUR MASTER'S VOICE ...):  |
|                                                                             |
|      You have a (more or less) 'large supercell' and for larger cells       |
|      it might be more efficient to use real space projection opertators     |
|      So try LREAL= Auto  in the INCAR   file.                               |
|      Mind: At the moment your POTCAR file does not contain real space       |
|       projectors, and has to be modified,  BUT if you                       |
|      want to do an extremely  accurate calculation you might also keep the  |
|      reciprocal projection scheme          (i.e. LREAL=.FALSE.)             |
|                                                                             |
 ----------------------------------------------------------------------------- 

 WARNING: for PREC=h ENMAX is automatically increase by 25 %
        this was not the case for versions prior to vasp.4.4
 WARNING: for PREC=h ENMAX is automatically increase by 25 %
        this was not the case for versions prior to vasp.4.4
 LDA part: xc-table for Pade appr. of Perdew
 POSCAR, INCAR and KPOINTS ok, starting setup
 FFT: planning ...
 WAVECAR not read
 entering main loop
       N       E                     dE             d eps       ncg     rms          rms(c)
DAV:   1     0.722742189929E+04    0.72274E+04   -0.53125E+05  1792   0.195E+03
DAV:   2    -0.130333885065E+04   -0.85308E+04   -0.84283E+04  2376   0.421E+02
DAV:   3    -0.198630644734E+04   -0.68297E+03   -0.67925E+03  1984   0.116E+02
DAV:   4    -0.200320954230E+04   -0.16903E+02   -0.16850E+02  1896   0.225E+01
DAV:   5    -0.200373454112E+04   -0.52500E+00   -0.52385E+00  2000   0.358E+00BRMIX: very serious problems
 the old and the new charge density differ
 old charge density:   861.00000 new  861.99988
    0.577E+01
DAV:   6    -0.195217171410E+04    0.51563E+02   -0.42641E+01  1864   0.101E+01    0.344E+01
DAV:   7    -0.193509128037E+04    0.17080E+02   -0.49309E+01  1856   0.109E+01    0.808E+00
DAV:   8    -0.193536408881E+04   -0.27281E+00   -0.19952E+00  1896   0.229E+00    0.395E+00
DAV:   9    -0.193536945335E+04   -0.53645E-02   -0.27979E-01  1864   0.107E+00    0.109E+00
DAV:  10    -0.193537276540E+04   -0.33120E-02   -0.67457E-02  1888   0.470E-01    0.434E-01
DAV:  11    -0.193537300757E+04   -0.24217E-03   -0.81841E-03  1936   0.163E-01    0.153E-01
DAV:  12    -0.193537349191E+04   -0.48435E-03   -0.14674E-03  1920   0.740E-02    0.769E-02
DAV:  13    -0.193537376405E+04   -0.27213E-03   -0.32467E-04  1304   0.374E-02    0.394E-02
DAV:  14    -0.193537386475E+04   -0.10070E-03   -0.11621E-04  1032   0.227E-02    0.162E-02
DAV:  15    -0.193537387537E+04   -0.10617E-04   -0.34312E-05   992   0.104E-02
   1 F= -.19353739E+04 E0= -.19353430E+04  d E =-.617125E-01  mag=     2.0000
 writing wavefunctions
