 running on  128 total cores
 distrk:  each k-point on  128 cores,    1 groups
 distr:  one band on   16 cores,    8 groups
 using from now: INCAR     
 vasp.5.4.1 05Feb16 (build Jun 30 2016 18:30:42) gamma-only                     
  
 POSCAR found :  2 types and     215 ions
 scaLAPACK will be used

 ----------------------------------------------------------------------------- 
|                                                                             |
|  ADVICE TO THIS USER RUNNING 'VASP/VAMP'   (HEAR YOUR MASTER'S VOICE ...):  |
|                                                                             |
|      You have a (more or less) 'large supercell' and for larger cells       |
|      it might be more efficient to use real space projection opertators     |
|      So try LREAL= Auto  in the INCAR   file.                               |
|      Mind: At the moment your POTCAR file does not contain real space       |
|       projectors, and has to be modified,  BUT if you                       |
|      want to do an extremely  accurate calculation you might also keep the  |
|      reciprocal projection scheme          (i.e. LREAL=.FALSE.)             |
|                                                                             |
 ----------------------------------------------------------------------------- 

 WARNING: for PREC=h ENMAX is automatically increase by 25 %
        this was not the case for versions prior to vasp.4.4
 WARNING: for PREC=h ENMAX is automatically increase by 25 %
        this was not the case for versions prior to vasp.4.4
 LDA part: xc-table for Pade appr. of Perdew
 POSCAR, INCAR and KPOINTS ok, starting setup
 FFT: planning ...
 WAVECAR not read
 entering main loop
       N       E                     dE             d eps       ncg     rms          rms(c)
DAV:   1     0.722740705228E+04    0.72274E+04   -0.53125E+05  1792   0.195E+03
DAV:   2    -0.130334722451E+04   -0.85308E+04   -0.84283E+04  2376   0.421E+02
DAV:   3    -0.198629851622E+04   -0.68295E+03   -0.67924E+03  1984   0.116E+02
DAV:   4    -0.200319133879E+04   -0.16893E+02   -0.16839E+02  1888   0.225E+01
DAV:   5    -0.200373003400E+04   -0.53870E+00   -0.53751E+00  2000   0.361E+00BRMIX: very serious problems
 the old and the new charge density differ
 old charge density:   861.00000 new  861.99988
    0.577E+01
DAV:   6    -0.195217130579E+04    0.51559E+02   -0.42647E+01  1864   0.101E+01    0.344E+01
DAV:   7    -0.193509094809E+04    0.17080E+02   -0.49294E+01  1856   0.109E+01    0.808E+00
DAV:   8    -0.193536411573E+04   -0.27317E+00   -0.19947E+00  1896   0.229E+00    0.395E+00
DAV:   9    -0.193536944481E+04   -0.53291E-02   -0.27946E-01  1864   0.107E+00    0.109E+00
DAV:  10    -0.193537276053E+04   -0.33157E-02   -0.67391E-02  1888   0.470E-01    0.434E-01
DAV:  11    -0.193537300188E+04   -0.24134E-03   -0.81593E-03  1936   0.163E-01    0.153E-01
DAV:  12    -0.193537348638E+04   -0.48450E-03   -0.14676E-03  1920   0.740E-02    0.769E-02
DAV:  13    -0.193537375844E+04   -0.27206E-03   -0.32394E-04  1296   0.374E-02    0.394E-02
DAV:  14    -0.193537385916E+04   -0.10072E-03   -0.11670E-04  1024   0.228E-02    0.162E-02
DAV:  15    -0.193537386991E+04   -0.10749E-04   -0.35819E-05   992   0.105E-02
   1 F= -.19353739E+04 E0= -.19353430E+04  d E =-.618336E-01  mag=     2.0000
 writing wavefunctions
 running on  128 total cores
 distrk:  each k-point on  128 cores,    1 groups
 distr:  one band on   16 cores,    8 groups
 using from now: INCAR     
 vasp.5.4.1 05Feb16 (build Jun 30 2016 18:30:42) gamma-only                     
  
 POSCAR found :  2 types and     215 ions
 scaLAPACK will be used

 ----------------------------------------------------------------------------- 
|                                                                             |
|  ADVICE TO THIS USER RUNNING 'VASP/VAMP'   (HEAR YOUR MASTER'S VOICE ...):  |
|                                                                             |
|      You have a (more or less) 'large supercell' and for larger cells       |
|      it might be more efficient to use real space projection opertators     |
|      So try LREAL= Auto  in the INCAR   file.                               |
|      Mind: At the moment your POTCAR file does not contain real space       |
|       projectors, and has to be modified,  BUT if you                       |
|      want to do an extremely  accurate calculation you might also keep the  |
|      reciprocal projection scheme          (i.e. LREAL=.FALSE.)             |
|                                                                             |
 ----------------------------------------------------------------------------- 

 WARNING: for PREC=h ENMAX is automatically increase by 25 %
        this was not the case for versions prior to vasp.4.4
 WARNING: for PREC=h ENMAX is automatically increase by 25 %
        this was not the case for versions prior to vasp.4.4
 LDA part: xc-table for Pade appr. of Perdew
 POSCAR, INCAR and KPOINTS ok, starting setup
 FFT: planning ...
 WAVECAR not read
 entering main loop
       N       E                     dE             d eps       ncg     rms          rms(c)
DAV:   1     0.722746709330E+04    0.72275E+04   -0.53125E+05  1792   0.195E+03
DAV:   2    -0.130332233571E+04   -0.85308E+04   -0.84284E+04  2376   0.421E+02
DAV:   3    -0.198630145441E+04   -0.68298E+03   -0.67926E+03  1984   0.116E+02
DAV:   4    -0.200319580989E+04   -0.16894E+02   -0.16840E+02  1888   0.225E+01
DAV:   5    -0.200373302722E+04   -0.53722E+00   -0.53601E+00  1976   0.361E+00BRMIX: very serious problems
 the old and the new charge density differ
 old charge density:   861.00000 new  861.99988
    0.577E+01
DAV:   6    -0.195217181298E+04    0.51561E+02   -0.42653E+01  1864   0.101E+01    0.344E+01
DAV:   7    -0.193509127522E+04    0.17081E+02   -0.49312E+01  1856   0.109E+01    0.808E+00
DAV:   8    -0.193536406099E+04   -0.27279E+00   -0.19960E+00  1896   0.229E+00    0.395E+00
DAV:   9    -0.193536943285E+04   -0.53719E-02   -0.28011E-01  1864   0.107E+00    0.109E+00
DAV:  10    -0.193537275576E+04   -0.33229E-02   -0.67551E-02  1888   0.471E-01    0.434E-01
DAV:  11    -0.193537299782E+04   -0.24206E-03   -0.81941E-03  1936   0.163E-01    0.153E-01
DAV:  12    -0.193537348213E+04   -0.48431E-03   -0.14684E-03  1912   0.740E-02    0.769E-02
DAV:  13    -0.193537375418E+04   -0.27206E-03   -0.32540E-04  1304   0.374E-02    0.394E-02
DAV:  14    -0.193537385501E+04   -0.10082E-03   -0.11653E-04  1016   0.227E-02    0.162E-02
DAV:  15    -0.193537386568E+04   -0.10670E-04   -0.34700E-05   992   0.104E-02
   1 F= -.19353739E+04 E0= -.19353430E+04  d E =-.617177E-01  mag=     2.0000
 writing wavefunctions
