 running on  128 total cores
 distrk:  each k-point on  128 cores,    1 groups
 distr:  one band on   16 cores,    8 groups
 using from now: INCAR     
 vasp.5.4.1 05Feb16 (build Jun 30 2016 18:30:42) gamma-only                     
  
 POSCAR found :  2 types and     215 ions
 scaLAPACK will be used

 ----------------------------------------------------------------------------- 
|                                                                             |
|  ADVICE TO THIS USER RUNNING 'VASP/VAMP'   (HEAR YOUR MASTER'S VOICE ...):  |
|                                                                             |
|      You have a (more or less) 'large supercell' and for larger cells       |
|      it might be more efficient to use real space projection opertators     |
|      So try LREAL= Auto  in the INCAR   file.                               |
|      Mind: At the moment your POTCAR file does not contain real space       |
|       projectors, and has to be modified,  BUT if you                       |
|      want to do an extremely  accurate calculation you might also keep the  |
|      reciprocal projection scheme          (i.e. LREAL=.FALSE.)             |
|                                                                             |
 ----------------------------------------------------------------------------- 

 WARNING: for PREC=h ENMAX is automatically increase by 25 %
        this was not the case for versions prior to vasp.4.4
 WARNING: for PREC=h ENMAX is automatically increase by 25 %
        this was not the case for versions prior to vasp.4.4
 LDA part: xc-table for Pade appr. of Perdew
 POSCAR, INCAR and KPOINTS ok, starting setup
 FFT: planning ...
 WAVECAR not read
 entering main loop
       N       E                     dE             d eps       ncg     rms          rms(c)
DAV:   1     0.722744577218E+04    0.72274E+04   -0.53125E+05  1792   0.195E+03
DAV:   2    -0.130336606066E+04   -0.85308E+04   -0.84283E+04  2376   0.421E+02
DAV:   3    -0.198629948985E+04   -0.68293E+03   -0.67920E+03  1984   0.116E+02
DAV:   4    -0.200319585898E+04   -0.16896E+02   -0.16842E+02  1888   0.225E+01
DAV:   5    -0.200373560324E+04   -0.53974E+00   -0.53858E+00  2016   0.361E+00BRMIX: very serious problems
 the old and the new charge density differ
 old charge density:   861.00000 new  861.99988
    0.577E+01
DAV:   6    -0.195217138590E+04    0.51564E+02   -0.42643E+01  1864   0.101E+01    0.344E+01
DAV:   7    -0.193509121408E+04    0.17080E+02   -0.49311E+01  1856   0.109E+01    0.808E+00
DAV:   8    -0.193536406179E+04   -0.27285E+00   -0.19954E+00  1896   0.229E+00    0.395E+00
DAV:   9    -0.193536945960E+04   -0.53978E-02   -0.27999E-01  1864   0.107E+00    0.109E+00
DAV:  10    -0.193537278939E+04   -0.33298E-02   -0.67535E-02  1888   0.471E-01    0.434E-01
DAV:  11    -0.193537303403E+04   -0.24464E-03   -0.81904E-03  1944   0.163E-01    0.153E-01
DAV:  12    -0.193537351805E+04   -0.48402E-03   -0.14647E-03  1904   0.740E-02    0.769E-02
DAV:  13    -0.193537379027E+04   -0.27222E-03   -0.32571E-04  1296   0.375E-02    0.394E-02
DAV:  14    -0.193537389113E+04   -0.10086E-03   -0.11847E-04  1024   0.229E-02    0.162E-02
DAV:  15    -0.193537390165E+04   -0.10526E-04   -0.35061E-05   992   0.105E-02
   1 F= -.19353739E+04 E0= -.19353430E+04  d E =-.617136E-01  mag=     2.0000
 writing wavefunctions
 running on  128 total cores
 distrk:  each k-point on  128 cores,    1 groups
 distr:  one band on   16 cores,    8 groups
 using from now: INCAR     
 vasp.5.4.1 05Feb16 (build Jun 30 2016 18:30:42) gamma-only                     
  
 POSCAR found :  2 types and     215 ions
 scaLAPACK will be used

 ----------------------------------------------------------------------------- 
|                                                                             |
|  ADVICE TO THIS USER RUNNING 'VASP/VAMP'   (HEAR YOUR MASTER'S VOICE ...):  |
|                                                                             |
|      You have a (more or less) 'large supercell' and for larger cells       |
|      it might be more efficient to use real space projection opertators     |
|      So try LREAL= Auto  in the INCAR   file.                               |
|      Mind: At the moment your POTCAR file does not contain real space       |
|       projectors, and has to be modified,  BUT if you                       |
|      want to do an extremely  accurate calculation you might also keep the  |
|      reciprocal projection scheme          (i.e. LREAL=.FALSE.)             |
|                                                                             |
 ----------------------------------------------------------------------------- 

 WARNING: for PREC=h ENMAX is automatically increase by 25 %
        this was not the case for versions prior to vasp.4.4
 WARNING: for PREC=h ENMAX is automatically increase by 25 %
        this was not the case for versions prior to vasp.4.4
 LDA part: xc-table for Pade appr. of Perdew
 POSCAR, INCAR and KPOINTS ok, starting setup
 FFT: planning ...
 WAVECAR not read
 entering main loop
       N       E                     dE             d eps       ncg     rms          rms(c)
DAV:   1     0.722749271495E+04    0.72275E+04   -0.53125E+05  1792   0.195E+03
DAV:   2    -0.130334183569E+04   -0.85308E+04   -0.84284E+04  2376   0.421E+02
DAV:   3    -0.198630344115E+04   -0.68296E+03   -0.67924E+03  1984   0.116E+02
DAV:   4    -0.200319588146E+04   -0.16892E+02   -0.16838E+02  1888   0.225E+01
DAV:   5    -0.200373446653E+04   -0.53859E+00   -0.53742E+00  2000   0.361E+00BRMIX: very serious problems
 the old and the new charge density differ
 old charge density:   861.00000 new  861.99988
    0.577E+01
DAV:   6    -0.195217149705E+04    0.51563E+02   -0.42646E+01  1864   0.101E+01    0.344E+01
DAV:   7    -0.193509125371E+04    0.17080E+02   -0.49311E+01  1856   0.109E+01    0.808E+00
DAV:   8    -0.193536407592E+04   -0.27282E+00   -0.19955E+00  1896   0.229E+00    0.395E+00
DAV:   9    -0.193536943222E+04   -0.53563E-02   -0.28000E-01  1864   0.107E+00    0.109E+00
DAV:  10    -0.193537275155E+04   -0.33193E-02   -0.67537E-02  1888   0.471E-01    0.434E-01
DAV:  11    -0.193537299376E+04   -0.24222E-03   -0.81896E-03  1936   0.163E-01    0.153E-01
DAV:  12    -0.193537347802E+04   -0.48426E-03   -0.14678E-03  1904   0.740E-02    0.769E-02
DAV:  13    -0.193537375020E+04   -0.27217E-03   -0.32602E-04  1304   0.374E-02    0.394E-02
DAV:  14    -0.193537385098E+04   -0.10078E-03   -0.11690E-04  1016   0.227E-02    0.162E-02
DAV:  15    -0.193537386163E+04   -0.10649E-04   -0.34637E-05   992   0.104E-02
   1 F= -.19353739E+04 E0= -.19353430E+04  d E =-.617213E-01  mag=     2.0000
 writing wavefunctions
