 running on  128 total cores
 distrk:  each k-point on  128 cores,    1 groups
 distr:  one band on   16 cores,    8 groups
 using from now: INCAR     
 vasp.5.4.1 05Feb16 (build Jun 30 2016 18:30:42) gamma-only                     
  
 POSCAR found :  2 types and     215 ions
 scaLAPACK will be used

 ----------------------------------------------------------------------------- 
|                                                                             |
|  ADVICE TO THIS USER RUNNING 'VASP/VAMP'   (HEAR YOUR MASTER'S VOICE ...):  |
|                                                                             |
|      You have a (more or less) 'large supercell' and for larger cells       |
|      it might be more efficient to use real space projection opertators     |
|      So try LREAL= Auto  in the INCAR   file.                               |
|      Mind: At the moment your POTCAR file does not contain real space       |
|       projectors, and has to be modified,  BUT if you                       |
|      want to do an extremely  accurate calculation you might also keep the  |
|      reciprocal projection scheme          (i.e. LREAL=.FALSE.)             |
|                                                                             |
 ----------------------------------------------------------------------------- 

 WARNING: for PREC=h ENMAX is automatically increase by 25 %
        this was not the case for versions prior to vasp.4.4
 WARNING: for PREC=h ENMAX is automatically increase by 25 %
        this was not the case for versions prior to vasp.4.4
 LDA part: xc-table for Pade appr. of Perdew
 POSCAR, INCAR and KPOINTS ok, starting setup
 FFT: planning ...
 WAVECAR not read
 entering main loop
       N       E                     dE             d eps       ncg     rms          rms(c)
DAV:   1     0.722749561527E+04    0.72275E+04   -0.53125E+05  1792   0.195E+03
DAV:   2    -0.130327051288E+04   -0.85308E+04   -0.84283E+04  2376   0.421E+02
DAV:   3    -0.198630279667E+04   -0.68303E+03   -0.67932E+03  1984   0.116E+02
DAV:   4    -0.200319569546E+04   -0.16893E+02   -0.16839E+02  1888   0.225E+01
DAV:   5    -0.200373487249E+04   -0.53918E+00   -0.53800E+00  2008   0.361E+00BRMIX: very serious problems
 the old and the new charge density differ
 old charge density:   861.00000 new  861.99988
    0.577E+01
DAV:   6    -0.195217121496E+04    0.51564E+02   -0.42647E+01  1864   0.101E+01    0.344E+01
DAV:   7    -0.193509116063E+04    0.17080E+02   -0.49311E+01  1856   0.109E+01    0.808E+00
DAV:   8    -0.193536405201E+04   -0.27289E+00   -0.19958E+00  1896   0.229E+00    0.395E+00
DAV:   9    -0.193536942921E+04   -0.53772E-02   -0.27985E-01  1864   0.107E+00    0.109E+00
DAV:  10    -0.193537275017E+04   -0.33210E-02   -0.67488E-02  1888   0.470E-01    0.434E-01
DAV:  11    -0.193537299380E+04   -0.24363E-03   -0.81831E-03  1944   0.163E-01    0.153E-01
DAV:  12    -0.193537347787E+04   -0.48408E-03   -0.14624E-03  1904   0.739E-02    0.769E-02
DAV:  13    -0.193537375016E+04   -0.27229E-03   -0.32626E-04  1312   0.375E-02    0.394E-02
DAV:  14    -0.193537385079E+04   -0.10063E-03   -0.11665E-04  1016   0.227E-02    0.162E-02
DAV:  15    -0.193537386140E+04   -0.10609E-04   -0.34620E-05   992   0.104E-02
   1 F= -.19353739E+04 E0= -.19353430E+04  d E =-.617074E-01  mag=     2.0000
 writing wavefunctions
 running on  128 total cores
 distrk:  each k-point on  128 cores,    1 groups
 distr:  one band on   16 cores,    8 groups
 using from now: INCAR     
 vasp.5.4.1 05Feb16 (build Jun 30 2016 18:30:42) gamma-only                     
  
 POSCAR found :  2 types and     215 ions
 scaLAPACK will be used

 ----------------------------------------------------------------------------- 
|                                                                             |
|  ADVICE TO THIS USER RUNNING 'VASP/VAMP'   (HEAR YOUR MASTER'S VOICE ...):  |
|                                                                             |
|      You have a (more or less) 'large supercell' and for larger cells       |
|      it might be more efficient to use real space projection opertators     |
|      So try LREAL= Auto  in the INCAR   file.                               |
|      Mind: At the moment your POTCAR file does not contain real space       |
|       projectors, and has to be modified,  BUT if you                       |
|      want to do an extremely  accurate calculation you might also keep the  |
|      reciprocal projection scheme          (i.e. LREAL=.FALSE.)             |
|                                                                             |
 ----------------------------------------------------------------------------- 

 WARNING: for PREC=h ENMAX is automatically increase by 25 %
        this was not the case for versions prior to vasp.4.4
 WARNING: for PREC=h ENMAX is automatically increase by 25 %
        this was not the case for versions prior to vasp.4.4
 LDA part: xc-table for Pade appr. of Perdew
 POSCAR, INCAR and KPOINTS ok, starting setup
 FFT: planning ...
 WAVECAR not read
 entering main loop
       N       E                     dE             d eps       ncg     rms          rms(c)
DAV:   1     0.722748144830E+04    0.72275E+04   -0.53125E+05  1792   0.195E+03
DAV:   2    -0.130331009178E+04   -0.85308E+04   -0.84283E+04  2376   0.421E+02
DAV:   3    -0.198630117837E+04   -0.68299E+03   -0.67928E+03  1984   0.116E+02
DAV:   4    -0.200319601981E+04   -0.16895E+02   -0.16841E+02  1888   0.225E+01
DAV:   5    -0.200373444999E+04   -0.53843E+00   -0.53725E+00  2000   0.361E+00BRMIX: very serious problems
 the old and the new charge density differ
 old charge density:   861.00000 new  861.99988
    0.577E+01
DAV:   6    -0.195217166227E+04    0.51563E+02   -0.42645E+01  1864   0.101E+01    0.344E+01
DAV:   7    -0.193509119629E+04    0.17080E+02   -0.49310E+01  1856   0.109E+01    0.808E+00
DAV:   8    -0.193536409520E+04   -0.27290E+00   -0.19962E+00  1896   0.229E+00    0.395E+00
DAV:   9    -0.193536944559E+04   -0.53504E-02   -0.27987E-01  1864   0.107E+00    0.109E+00
DAV:  10    -0.193537275966E+04   -0.33141E-02   -0.67520E-02  1888   0.471E-01    0.434E-01
DAV:  11    -0.193537300168E+04   -0.24203E-03   -0.81889E-03  1936   0.163E-01    0.153E-01
DAV:  12    -0.193537348582E+04   -0.48414E-03   -0.14665E-03  1904   0.740E-02    0.769E-02
DAV:  13    -0.193537375792E+04   -0.27210E-03   -0.32534E-04  1304   0.374E-02    0.394E-02
DAV:  14    -0.193537385874E+04   -0.10082E-03   -0.11705E-04  1024   0.228E-02    0.162E-02
DAV:  15    -0.193537386940E+04   -0.10651E-04   -0.34826E-05   992   0.104E-02
   1 F= -.19353739E+04 E0= -.19353430E+04  d E =-.617131E-01  mag=     2.0000
 writing wavefunctions
