 running on  384 total cores
 distrk:  each k-point on  384 cores,    1 groups
 distr:  one band on   24 cores,   16 groups
 using from now: INCAR     
 vasp.5.4.1 05Feb16 (build Jun 30 2016 18:21:48) complex                        
  
 POSCAR found :  2 types and     511 ions
 scaLAPACK will be used

 ----------------------------------------------------------------------------- 
|                                                                             |
|  ADVICE TO THIS USER RUNNING 'VASP/VAMP'   (HEAR YOUR MASTER'S VOICE ...):  |
|                                                                             |
|      You have a (more or less) 'large supercell' and for larger cells       |
|      it might be more efficient to use real space projection opertators     |
|      So try LREAL= Auto  in the INCAR   file.                               |
|      Mind: At the moment your POTCAR file does not contain real space       |
|       projectors, and has to be modified,  BUT if you                       |
|      want to do an extremely  accurate calculation you might also keep the  |
|      reciprocal projection scheme          (i.e. LREAL=.FALSE.)             |
|                                                                             |
 ----------------------------------------------------------------------------- 

 WARNING: for PREC=h ENMAX is automatically increase by 25 %
        this was not the case for versions prior to vasp.4.4
 WARNING: for PREC=h ENMAX is automatically increase by 25 %
        this was not the case for versions prior to vasp.4.4
 LDA part: xc-table for Pade appr. of Perdew
 POSCAR, INCAR and KPOINTS ok, starting setup
 FFT: planning ...
 WAVECAR not read
 entering main loop
       N       E                     dE             d eps       ncg     rms          rms(c)
DAV:   1     0.938377205255E+04    0.93838E+04   -0.11030E+06  4224   0.185E+03
DAV:   2    -0.372775400200E+04   -0.13112E+05   -0.12976E+05  5152   0.347E+02
DAV:   3    -0.454703489572E+04   -0.81928E+03   -0.81676E+03  4496   0.854E+01
DAV:   4    -0.456897653065E+04   -0.21942E+02   -0.21871E+02  4512   0.158E+01
DAV:   5    -0.456977196275E+04   -0.79543E+00   -0.79404E+00  4576   0.266E+00BRMIX: very serious problems
 the old and the new charge density differ
 old charge density:  2045.00000 new 2045.99970
    0.141E+02
DAV:   6    -0.448324362713E+04    0.86528E+02   -0.28152E+02  4352   0.159E+01    0.897E+01
DAV:   7    -0.457022708739E+04   -0.86983E+02   -0.11582E+02  4400   0.111E+01    0.535E+01
DAV:   8    -0.461657389245E+04   -0.46347E+02   -0.42583E+01  4320   0.660E+00    0.196E+01
DAV:   9    -0.462435047060E+04   -0.77766E+01   -0.42985E+00  4336   0.248E+00    0.121E+01
DAV:  10    -0.462757407532E+04   -0.32236E+01   -0.52107E+00  4432   0.212E+00    0.413E+00
DAV:  11    -0.462788400808E+04   -0.30993E+00   -0.49507E-01  4400   0.825E-01    0.221E+00
DAV:  12    -0.462797319436E+04   -0.89186E-01   -0.11598E-01  4352   0.496E-01    0.586E-01
DAV:  13    -0.462797951851E+04   -0.63242E-02   -0.24935E-02  4384   0.192E-01    0.167E-01
DAV:  14    -0.462798005405E+04   -0.53555E-03   -0.25132E-03  4416   0.731E-02    0.653E-02
DAV:  15    -0.462798016552E+04   -0.11147E-03   -0.49705E-04  4112   0.309E-02    0.278E-02
DAV:  16    -0.462798020962E+04   -0.44099E-04   -0.10018E-04  2528   0.132E-02
   1 F= -.46279802E+04 E0= -.46279802E+04  d E =0.000000E+00  mag=    -1.9987
 writing wavefunctions
 running on  384 total cores
 distrk:  each k-point on  384 cores,    1 groups
 distr:  one band on   24 cores,   16 groups
 using from now: INCAR     
 vasp.5.4.1 05Feb16 (build Jun 30 2016 18:21:48) complex                        
  
 POSCAR found :  2 types and     511 ions
 scaLAPACK will be used

 ----------------------------------------------------------------------------- 
|                                                                             |
|  ADVICE TO THIS USER RUNNING 'VASP/VAMP'   (HEAR YOUR MASTER'S VOICE ...):  |
|                                                                             |
|      You have a (more or less) 'large supercell' and for larger cells       |
|      it might be more efficient to use real space projection opertators     |
|      So try LREAL= Auto  in the INCAR   file.                               |
|      Mind: At the moment your POTCAR file does not contain real space       |
|       projectors, and has to be modified,  BUT if you                       |
|      want to do an extremely  accurate calculation you might also keep the  |
|      reciprocal projection scheme          (i.e. LREAL=.FALSE.)             |
|                                                                             |
 ----------------------------------------------------------------------------- 

 WARNING: for PREC=h ENMAX is automatically increase by 25 %
        this was not the case for versions prior to vasp.4.4
 WARNING: for PREC=h ENMAX is automatically increase by 25 %
        this was not the case for versions prior to vasp.4.4
 LDA part: xc-table for Pade appr. of Perdew
 POSCAR, INCAR and KPOINTS ok, starting setup
 FFT: planning ...
 WAVECAR not read
 entering main loop
       N       E                     dE             d eps       ncg     rms          rms(c)
DAV:   1     0.938376194638E+04    0.93838E+04   -0.11030E+06  4224   0.185E+03
DAV:   2    -0.372779188534E+04   -0.13112E+05   -0.12976E+05  5152   0.347E+02
DAV:   3    -0.454703763433E+04   -0.81925E+03   -0.81673E+03  4496   0.854E+01
DAV:   4    -0.456897606225E+04   -0.21938E+02   -0.21868E+02  4512   0.158E+01
DAV:   5    -0.456977064741E+04   -0.79459E+00   -0.79317E+00  4576   0.266E+00BRMIX: very serious problems
 the old and the new charge density differ
 old charge density:  2045.00000 new 2045.99970
    0.141E+02
DAV:   6    -0.448323891413E+04    0.86532E+02   -0.28153E+02  4352   0.159E+01    0.897E+01
DAV:   7    -0.457022627433E+04   -0.86987E+02   -0.11582E+02  4400   0.111E+01    0.535E+01
DAV:   8    -0.461657417555E+04   -0.46348E+02   -0.42583E+01  4320   0.660E+00    0.196E+01
DAV:   9    -0.462435021550E+04   -0.77760E+01   -0.42973E+00  4336   0.248E+00    0.121E+01
DAV:  10    -0.462757406875E+04   -0.32239E+01   -0.52105E+00  4432   0.212E+00    0.413E+00
DAV:  11    -0.462788403458E+04   -0.30997E+00   -0.49495E-01  4400   0.824E-01    0.221E+00
DAV:  12    -0.462797320555E+04   -0.89171E-01   -0.11595E-01  4352   0.496E-01    0.586E-01
DAV:  13    -0.462797952240E+04   -0.63168E-02   -0.24902E-02  4384   0.192E-01    0.167E-01
DAV:  14    -0.462798005787E+04   -0.53547E-03   -0.25102E-03  4416   0.730E-02    0.653E-02
DAV:  15    -0.462798016925E+04   -0.11137E-03   -0.49655E-04  4128   0.309E-02    0.278E-02
DAV:  16    -0.462798021331E+04   -0.44062E-04   -0.99864E-05  2544   0.132E-02
   1 F= -.46279802E+04 E0= -.46279802E+04  d E =0.000000E+00  mag=    -1.9987
 writing wavefunctions
