 running on  384 total cores
 distrk:  each k-point on  384 cores,    1 groups
 distr:  one band on   24 cores,   16 groups
 using from now: INCAR     
 vasp.5.4.1 05Feb16 (build Jun 30 2016 18:21:48) complex                        
  
 POSCAR found :  2 types and     511 ions
 scaLAPACK will be used

 ----------------------------------------------------------------------------- 
|                                                                             |
|  ADVICE TO THIS USER RUNNING 'VASP/VAMP'   (HEAR YOUR MASTER'S VOICE ...):  |
|                                                                             |
|      You have a (more or less) 'large supercell' and for larger cells       |
|      it might be more efficient to use real space projection opertators     |
|      So try LREAL= Auto  in the INCAR   file.                               |
|      Mind: At the moment your POTCAR file does not contain real space       |
|       projectors, and has to be modified,  BUT if you                       |
|      want to do an extremely  accurate calculation you might also keep the  |
|      reciprocal projection scheme          (i.e. LREAL=.FALSE.)             |
|                                                                             |
 ----------------------------------------------------------------------------- 

 WARNING: for PREC=h ENMAX is automatically increase by 25 %
        this was not the case for versions prior to vasp.4.4
 WARNING: for PREC=h ENMAX is automatically increase by 25 %
        this was not the case for versions prior to vasp.4.4
 LDA part: xc-table for Pade appr. of Perdew
 POSCAR, INCAR and KPOINTS ok, starting setup
 FFT: planning ...
 WAVECAR not read
 entering main loop
       N       E                     dE             d eps       ncg     rms          rms(c)
DAV:   1     0.938376013310E+04    0.93838E+04   -0.11030E+06  4224   0.185E+03
DAV:   2    -0.372774690972E+04   -0.13112E+05   -0.12976E+05  5152   0.347E+02
DAV:   3    -0.454703526037E+04   -0.81929E+03   -0.81677E+03  4496   0.854E+01
DAV:   4    -0.456895459520E+04   -0.21919E+02   -0.21847E+02  4496   0.158E+01
DAV:   5    -0.456976951764E+04   -0.81492E+00   -0.81347E+00  4544   0.268E+00BRMIX: very serious problems
 the old and the new charge density differ
 old charge density:  2045.00000 new 2045.99970
    0.141E+02
DAV:   6    -0.448324011600E+04    0.86529E+02   -0.28156E+02  4352   0.159E+01    0.897E+01
DAV:   7    -0.457022724402E+04   -0.86987E+02   -0.11582E+02  4400   0.111E+01    0.535E+01
DAV:   8    -0.461657340183E+04   -0.46346E+02   -0.42580E+01  4320   0.660E+00    0.196E+01
DAV:   9    -0.462435011268E+04   -0.77767E+01   -0.42975E+00  4336   0.248E+00    0.121E+01
DAV:  10    -0.462757403079E+04   -0.32239E+01   -0.52105E+00  4432   0.212E+00    0.413E+00
DAV:  11    -0.462788404297E+04   -0.31001E+00   -0.49502E-01  4400   0.824E-01    0.221E+00
DAV:  12    -0.462797321225E+04   -0.89169E-01   -0.11598E-01  4368   0.496E-01    0.586E-01
DAV:  13    -0.462797952730E+04   -0.63150E-02   -0.24868E-02  4384   0.191E-01    0.167E-01
DAV:  14    -0.462798006308E+04   -0.53578E-03   -0.25070E-03  4416   0.729E-02    0.652E-02
DAV:  15    -0.462798017492E+04   -0.11184E-03   -0.49346E-04  4096   0.308E-02    0.277E-02
DAV:  16    -0.462798021895E+04   -0.44029E-04   -0.99680E-05  2528   0.132E-02
   1 F= -.46279802E+04 E0= -.46279802E+04  d E =0.000000E+00  mag=    -1.9987
 writing wavefunctions
 running on  384 total cores
 distrk:  each k-point on  384 cores,    1 groups
 distr:  one band on   24 cores,   16 groups
 using from now: INCAR     
 vasp.5.4.1 05Feb16 (build Jun 30 2016 18:21:48) complex                        
  
 POSCAR found :  2 types and     511 ions
 scaLAPACK will be used

 ----------------------------------------------------------------------------- 
|                                                                             |
|  ADVICE TO THIS USER RUNNING 'VASP/VAMP'   (HEAR YOUR MASTER'S VOICE ...):  |
|                                                                             |
|      You have a (more or less) 'large supercell' and for larger cells       |
|      it might be more efficient to use real space projection opertators     |
|      So try LREAL= Auto  in the INCAR   file.                               |
|      Mind: At the moment your POTCAR file does not contain real space       |
|       projectors, and has to be modified,  BUT if you                       |
|      want to do an extremely  accurate calculation you might also keep the  |
|      reciprocal projection scheme          (i.e. LREAL=.FALSE.)             |
|                                                                             |
 ----------------------------------------------------------------------------- 

 WARNING: for PREC=h ENMAX is automatically increase by 25 %
        this was not the case for versions prior to vasp.4.4
 WARNING: for PREC=h ENMAX is automatically increase by 25 %
        this was not the case for versions prior to vasp.4.4
 LDA part: xc-table for Pade appr. of Perdew
 POSCAR, INCAR and KPOINTS ok, starting setup
 FFT: planning ...
 WAVECAR not read
 entering main loop
       N       E                     dE             d eps       ncg     rms          rms(c)
DAV:   1     0.938375761030E+04    0.93838E+04   -0.11030E+06  4224   0.185E+03
DAV:   2    -0.372776623103E+04   -0.13112E+05   -0.12976E+05  5152   0.347E+02
DAV:   3    -0.454703654749E+04   -0.81927E+03   -0.81675E+03  4496   0.854E+01
DAV:   4    -0.456895607506E+04   -0.21920E+02   -0.21848E+02  4496   0.158E+01
DAV:   5    -0.456976832811E+04   -0.81225E+00   -0.81078E+00  4560   0.268E+00BRMIX: very serious problems
 the old and the new charge density differ
 old charge density:  2045.00000 new 2045.99970
    0.141E+02
DAV:   6    -0.448324027992E+04    0.86528E+02   -0.28158E+02  4352   0.159E+01    0.897E+01
DAV:   7    -0.457022760399E+04   -0.86987E+02   -0.11582E+02  4400   0.111E+01    0.535E+01
DAV:   8    -0.461657326883E+04   -0.46346E+02   -0.42579E+01  4320   0.660E+00    0.196E+01
DAV:   9    -0.462434989529E+04   -0.77766E+01   -0.42974E+00  4336   0.248E+00    0.121E+01
DAV:  10    -0.462757406863E+04   -0.32242E+01   -0.52112E+00  4432   0.212E+00    0.413E+00
DAV:  11    -0.462788403185E+04   -0.30996E+00   -0.49507E-01  4400   0.825E-01    0.221E+00
DAV:  12    -0.462797320698E+04   -0.89175E-01   -0.11595E-01  4352   0.496E-01    0.586E-01
DAV:  13    -0.462797952570E+04   -0.63187E-02   -0.24913E-02  4384   0.192E-01    0.167E-01
DAV:  14    -0.462798006154E+04   -0.53585E-03   -0.25113E-03  4416   0.730E-02    0.653E-02
DAV:  15    -0.462798017283E+04   -0.11129E-03   -0.49640E-04  4112   0.309E-02    0.278E-02
DAV:  16    -0.462798021691E+04   -0.44079E-04   -0.10013E-04  2544   0.132E-02
   1 F= -.46279802E+04 E0= -.46279802E+04  d E =0.000000E+00  mag=    -1.9987
 writing wavefunctions
