 running on  384 total cores
 distrk:  each k-point on  384 cores,    1 groups
 distr:  one band on   24 cores,   16 groups
 using from now: INCAR     
 vasp.5.4.1 05Feb16 (build Jun 30 2016 18:21:48) complex                        
  
 POSCAR found :  2 types and     511 ions
 scaLAPACK will be used

 ----------------------------------------------------------------------------- 
|                                                                             |
|  ADVICE TO THIS USER RUNNING 'VASP/VAMP'   (HEAR YOUR MASTER'S VOICE ...):  |
|                                                                             |
|      You have a (more or less) 'large supercell' and for larger cells       |
|      it might be more efficient to use real space projection opertators     |
|      So try LREAL= Auto  in the INCAR   file.                               |
|      Mind: At the moment your POTCAR file does not contain real space       |
|       projectors, and has to be modified,  BUT if you                       |
|      want to do an extremely  accurate calculation you might also keep the  |
|      reciprocal projection scheme          (i.e. LREAL=.FALSE.)             |
|                                                                             |
 ----------------------------------------------------------------------------- 

 WARNING: for PREC=h ENMAX is automatically increase by 25 %
        this was not the case for versions prior to vasp.4.4
 WARNING: for PREC=h ENMAX is automatically increase by 25 %
        this was not the case for versions prior to vasp.4.4
 LDA part: xc-table for Pade appr. of Perdew
 POSCAR, INCAR and KPOINTS ok, starting setup
 FFT: planning ...
 WAVECAR not read
 entering main loop
       N       E                     dE             d eps       ncg     rms          rms(c)
DAV:   1     0.938376646668E+04    0.93838E+04   -0.11030E+06  4224   0.185E+03
DAV:   2    -0.372779190144E+04   -0.13112E+05   -0.12976E+05  5152   0.347E+02
DAV:   3    -0.454703707722E+04   -0.81925E+03   -0.81673E+03  4496   0.854E+01
DAV:   4    -0.456894906841E+04   -0.21912E+02   -0.21840E+02  4496   0.158E+01
DAV:   5    -0.456977019499E+04   -0.82113E+00   -0.81968E+00  4560   0.268E+00BRMIX: very serious problems
 the old and the new charge density differ
 old charge density:  2045.00000 new 2045.99970
    0.141E+02
DAV:   6    -0.448324273286E+04    0.86527E+02   -0.28154E+02  4352   0.159E+01    0.897E+01
DAV:   7    -0.457022700870E+04   -0.86984E+02   -0.11581E+02  4400   0.111E+01    0.535E+01
DAV:   8    -0.461657361100E+04   -0.46347E+02   -0.42581E+01  4320   0.660E+00    0.196E+01
DAV:   9    -0.462435005684E+04   -0.77764E+01   -0.42975E+00  4336   0.248E+00    0.121E+01
DAV:  10    -0.462757406033E+04   -0.32240E+01   -0.52110E+00  4432   0.212E+00    0.413E+00
DAV:  11    -0.462788403637E+04   -0.30998E+00   -0.49503E-01  4400   0.824E-01    0.221E+00
DAV:  12    -0.462797320295E+04   -0.89167E-01   -0.11593E-01  4352   0.496E-01    0.586E-01
DAV:  13    -0.462797952029E+04   -0.63173E-02   -0.24906E-02  4400   0.192E-01    0.167E-01
DAV:  14    -0.462798005589E+04   -0.53560E-03   -0.25036E-03  4400   0.730E-02    0.653E-02
DAV:  15    -0.462798016716E+04   -0.11127E-03   -0.49766E-04  4096   0.309E-02    0.278E-02
DAV:  16    -0.462798021123E+04   -0.44077E-04   -0.10059E-04  2560   0.132E-02
   1 F= -.46279802E+04 E0= -.46279802E+04  d E =0.000000E+00  mag=    -1.9987
 writing wavefunctions
 running on  384 total cores
 distrk:  each k-point on  384 cores,    1 groups
 distr:  one band on   24 cores,   16 groups
 using from now: INCAR     
 vasp.5.4.1 05Feb16 (build Jun 30 2016 18:21:48) complex                        
  
 POSCAR found :  2 types and     511 ions
 scaLAPACK will be used

 ----------------------------------------------------------------------------- 
|                                                                             |
|  ADVICE TO THIS USER RUNNING 'VASP/VAMP'   (HEAR YOUR MASTER'S VOICE ...):  |
|                                                                             |
|      You have a (more or less) 'large supercell' and for larger cells       |
|      it might be more efficient to use real space projection opertators     |
|      So try LREAL= Auto  in the INCAR   file.                               |
|      Mind: At the moment your POTCAR file does not contain real space       |
|       projectors, and has to be modified,  BUT if you                       |
|      want to do an extremely  accurate calculation you might also keep the  |
|      reciprocal projection scheme          (i.e. LREAL=.FALSE.)             |
|                                                                             |
 ----------------------------------------------------------------------------- 

 WARNING: for PREC=h ENMAX is automatically increase by 25 %
        this was not the case for versions prior to vasp.4.4
 WARNING: for PREC=h ENMAX is automatically increase by 25 %
        this was not the case for versions prior to vasp.4.4
 LDA part: xc-table for Pade appr. of Perdew
 POSCAR, INCAR and KPOINTS ok, starting setup
 FFT: planning ...
 WAVECAR not read
 entering main loop
       N       E                     dE             d eps       ncg     rms          rms(c)
DAV:   1     0.938377054198E+04    0.93838E+04   -0.11030E+06  4224   0.185E+03
DAV:   2    -0.372777510562E+04   -0.13112E+05   -0.12976E+05  5152   0.347E+02
DAV:   3    -0.454703641571E+04   -0.81926E+03   -0.81674E+03  4496   0.854E+01
DAV:   4    -0.456898141836E+04   -0.21945E+02   -0.21875E+02  4512   0.158E+01
DAV:   5    -0.456977111453E+04   -0.78970E+00   -0.78828E+00  4560   0.266E+00BRMIX: very serious problems
 the old and the new charge density differ
 old charge density:  2045.00000 new 2045.99970
    0.141E+02
DAV:   6    -0.448324084193E+04    0.86530E+02   -0.28153E+02  4352   0.159E+01    0.897E+01
DAV:   7    -0.457022638306E+04   -0.86986E+02   -0.11580E+02  4400   0.111E+01    0.535E+01
DAV:   8    -0.461657497900E+04   -0.46349E+02   -0.42584E+01  4320   0.660E+00    0.196E+01
DAV:   9    -0.462435144410E+04   -0.77765E+01   -0.42985E+00  4336   0.248E+00    0.121E+01
DAV:  10    -0.462757411756E+04   -0.32227E+01   -0.52086E+00  4432   0.212E+00    0.413E+00
DAV:  11    -0.462788411019E+04   -0.30999E+00   -0.49478E-01  4400   0.824E-01    0.221E+00
DAV:  12    -0.462797325683E+04   -0.89147E-01   -0.11591E-01  4352   0.496E-01    0.586E-01
DAV:  13    -0.462797956846E+04   -0.63116E-02   -0.24875E-02  4384   0.192E-01    0.167E-01
DAV:  14    -0.462798010416E+04   -0.53570E-03   -0.25068E-03  4416   0.730E-02    0.652E-02
DAV:  15    -0.462798021533E+04   -0.11117E-03   -0.49555E-04  4112   0.309E-02    0.278E-02
DAV:  16    -0.462798025939E+04   -0.44066E-04   -0.99987E-05  2544   0.132E-02
   1 F= -.46279803E+04 E0= -.46279803E+04  d E =0.000000E+00  mag=    -1.9987
 writing wavefunctions
