 running on  384 total cores
 distrk:  each k-point on  384 cores,    1 groups
 distr:  one band on   24 cores,   16 groups
 using from now: INCAR     
 vasp.5.4.1 05Feb16 (build Jun 30 2016 18:21:48) complex                        
  
 POSCAR found :  2 types and     511 ions
 scaLAPACK will be used

 ----------------------------------------------------------------------------- 
|                                                                             |
|  ADVICE TO THIS USER RUNNING 'VASP/VAMP'   (HEAR YOUR MASTER'S VOICE ...):  |
|                                                                             |
|      You have a (more or less) 'large supercell' and for larger cells       |
|      it might be more efficient to use real space projection opertators     |
|      So try LREAL= Auto  in the INCAR   file.                               |
|      Mind: At the moment your POTCAR file does not contain real space       |
|       projectors, and has to be modified,  BUT if you                       |
|      want to do an extremely  accurate calculation you might also keep the  |
|      reciprocal projection scheme          (i.e. LREAL=.FALSE.)             |
|                                                                             |
 ----------------------------------------------------------------------------- 

 WARNING: for PREC=h ENMAX is automatically increase by 25 %
        this was not the case for versions prior to vasp.4.4
 WARNING: for PREC=h ENMAX is automatically increase by 25 %
        this was not the case for versions prior to vasp.4.4
 LDA part: xc-table for Pade appr. of Perdew
 POSCAR, INCAR and KPOINTS ok, starting setup
 FFT: planning ...
 WAVECAR not read
 entering main loop
       N       E                     dE             d eps       ncg     rms          rms(c)
DAV:   1     0.938377615085E+04    0.93838E+04   -0.11030E+06  4224   0.185E+03
DAV:   2    -0.372775891862E+04   -0.13112E+05   -0.12976E+05  5152   0.347E+02
DAV:   3    -0.454703519218E+04   -0.81928E+03   -0.81676E+03  4496   0.854E+01
DAV:   4    -0.456898083444E+04   -0.21946E+02   -0.21875E+02  4512   0.158E+01
DAV:   5    -0.456977035455E+04   -0.78952E+00   -0.78810E+00  4560   0.266E+00BRMIX: very serious problems
 the old and the new charge density differ
 old charge density:  2045.00000 new 2045.99970
    0.141E+02
DAV:   6    -0.448324064081E+04    0.86530E+02   -0.28155E+02  4352   0.159E+01    0.897E+01
DAV:   7    -0.457022617478E+04   -0.86986E+02   -0.11581E+02  4400   0.111E+01    0.535E+01
DAV:   8    -0.461657297696E+04   -0.46347E+02   -0.42581E+01  4320   0.660E+00    0.196E+01
DAV:   9    -0.462434941880E+04   -0.77764E+01   -0.42969E+00  4336   0.248E+00    0.121E+01
DAV:  10    -0.462757407504E+04   -0.32247E+01   -0.52120E+00  4432   0.212E+00    0.413E+00
DAV:  11    -0.462788402494E+04   -0.30995E+00   -0.49505E-01  4400   0.825E-01    0.221E+00
DAV:  12    -0.462797319616E+04   -0.89171E-01   -0.11595E-01  4352   0.496E-01    0.586E-01
DAV:  13    -0.462797951548E+04   -0.63193E-02   -0.24913E-02  4384   0.192E-01    0.167E-01
DAV:  14    -0.462798005121E+04   -0.53573E-03   -0.25118E-03  4416   0.730E-02    0.653E-02
DAV:  15    -0.462798016262E+04   -0.11141E-03   -0.49660E-04  4112   0.309E-02    0.278E-02
DAV:  16    -0.462798020670E+04   -0.44075E-04   -0.10010E-04  2528   0.132E-02
   1 F= -.46279802E+04 E0= -.46279802E+04  d E =0.000000E+00  mag=    -1.9987
 writing wavefunctions
 running on  384 total cores
 distrk:  each k-point on  384 cores,    1 groups
 distr:  one band on   24 cores,   16 groups
 using from now: INCAR     
 vasp.5.4.1 05Feb16 (build Jun 30 2016 18:21:48) complex                        
  
 POSCAR found :  2 types and     511 ions
 scaLAPACK will be used

 ----------------------------------------------------------------------------- 
|                                                                             |
|  ADVICE TO THIS USER RUNNING 'VASP/VAMP'   (HEAR YOUR MASTER'S VOICE ...):  |
|                                                                             |
|      You have a (more or less) 'large supercell' and for larger cells       |
|      it might be more efficient to use real space projection opertators     |
|      So try LREAL= Auto  in the INCAR   file.                               |
|      Mind: At the moment your POTCAR file does not contain real space       |
|       projectors, and has to be modified,  BUT if you                       |
|      want to do an extremely  accurate calculation you might also keep the  |
|      reciprocal projection scheme          (i.e. LREAL=.FALSE.)             |
|                                                                             |
 ----------------------------------------------------------------------------- 

 WARNING: for PREC=h ENMAX is automatically increase by 25 %
        this was not the case for versions prior to vasp.4.4
 WARNING: for PREC=h ENMAX is automatically increase by 25 %
        this was not the case for versions prior to vasp.4.4
 LDA part: xc-table for Pade appr. of Perdew
 POSCAR, INCAR and KPOINTS ok, starting setup
 FFT: planning ...
 WAVECAR not read
 entering main loop
       N       E                     dE             d eps       ncg     rms          rms(c)
DAV:   1     0.938376841535E+04    0.93838E+04   -0.11030E+06  4224   0.185E+03
DAV:   2    -0.372776600036E+04   -0.13112E+05   -0.12976E+05  5152   0.347E+02
DAV:   3    -0.454703614198E+04   -0.81927E+03   -0.81675E+03  4496   0.854E+01
DAV:   4    -0.456890542976E+04   -0.21869E+02   -0.21795E+02  4464   0.158E+01
DAV:   5    -0.456976870190E+04   -0.86327E+00   -0.86177E+00  4576   0.273E+00BRMIX: very serious problems
 the old and the new charge density differ
 old charge density:  2045.00000 new 2045.99970
    0.141E+02
DAV:   6    -0.448324029618E+04    0.86528E+02   -0.28157E+02  4352   0.159E+01    0.897E+01
DAV:   7    -0.457022699371E+04   -0.86987E+02   -0.11581E+02  4400   0.111E+01    0.535E+01
DAV:   8    -0.461657393225E+04   -0.46347E+02   -0.42581E+01  4320   0.660E+00    0.196E+01
DAV:   9    -0.462435069252E+04   -0.77768E+01   -0.42980E+00  4336   0.248E+00    0.121E+01
DAV:  10    -0.462757403004E+04   -0.32233E+01   -0.52097E+00  4432   0.212E+00    0.413E+00
DAV:  11    -0.462788404428E+04   -0.31001E+00   -0.49494E-01  4400   0.824E-01    0.221E+00
DAV:  12    -0.462797320070E+04   -0.89156E-01   -0.11595E-01  4352   0.496E-01    0.586E-01
DAV:  13    -0.462797951604E+04   -0.63153E-02   -0.24897E-02  4384   0.192E-01    0.167E-01
DAV:  14    -0.462798005154E+04   -0.53551E-03   -0.25101E-03  4416   0.730E-02    0.652E-02
DAV:  15    -0.462798016275E+04   -0.11121E-03   -0.49506E-04  4080   0.309E-02    0.278E-02
DAV:  16    -0.462798020694E+04   -0.44191E-04   -0.10129E-04  2544   0.133E-02
   1 F= -.46279802E+04 E0= -.46279802E+04  d E =0.000000E+00  mag=    -1.9987
 writing wavefunctions
