 running on  384 total cores
 distrk:  each k-point on  384 cores,    1 groups
 distr:  one band on   24 cores,   16 groups
 using from now: INCAR     
 vasp.5.4.1 05Feb16 (build Jun 30 2016 18:21:48) complex                        
  
 POSCAR found :  2 types and     511 ions
 scaLAPACK will be used

 ----------------------------------------------------------------------------- 
|                                                                             |
|  ADVICE TO THIS USER RUNNING 'VASP/VAMP'   (HEAR YOUR MASTER'S VOICE ...):  |
|                                                                             |
|      You have a (more or less) 'large supercell' and for larger cells       |
|      it might be more efficient to use real space projection opertators     |
|      So try LREAL= Auto  in the INCAR   file.                               |
|      Mind: At the moment your POTCAR file does not contain real space       |
|       projectors, and has to be modified,  BUT if you                       |
|      want to do an extremely  accurate calculation you might also keep the  |
|      reciprocal projection scheme          (i.e. LREAL=.FALSE.)             |
|                                                                             |
 ----------------------------------------------------------------------------- 

 WARNING: for PREC=h ENMAX is automatically increase by 25 %
        this was not the case for versions prior to vasp.4.4
 WARNING: for PREC=h ENMAX is automatically increase by 25 %
        this was not the case for versions prior to vasp.4.4
 LDA part: xc-table for Pade appr. of Perdew
 POSCAR, INCAR and KPOINTS ok, starting setup
 FFT: planning ...
 WAVECAR not read
 entering main loop
       N       E                     dE             d eps       ncg     rms          rms(c)
DAV:   1     0.938376729606E+04    0.93838E+04   -0.11030E+06  4224   0.185E+03
DAV:   2    -0.372776607544E+04   -0.13112E+05   -0.12976E+05  5152   0.347E+02
DAV:   3    -0.454703527818E+04   -0.81927E+03   -0.81675E+03  4496   0.854E+01
DAV:   4    -0.456897580206E+04   -0.21941E+02   -0.21870E+02  4512   0.158E+01
DAV:   5    -0.456977165607E+04   -0.79585E+00   -0.79447E+00  4576   0.266E+00BRMIX: very serious problems
 the old and the new charge density differ
 old charge density:  2045.00000 new 2045.99970
    0.141E+02
DAV:   6    -0.448323897557E+04    0.86533E+02   -0.28151E+02  4352   0.159E+01    0.897E+01
DAV:   7    -0.457022620590E+04   -0.86987E+02   -0.11582E+02  4400   0.111E+01    0.535E+01
DAV:   8    -0.461657436826E+04   -0.46348E+02   -0.42584E+01  4320   0.660E+00    0.196E+01
DAV:   9    -0.462435085655E+04   -0.77765E+01   -0.42982E+00  4336   0.248E+00    0.121E+01
DAV:  10    -0.462757404147E+04   -0.32232E+01   -0.52095E+00  4432   0.212E+00    0.413E+00
DAV:  11    -0.462788403522E+04   -0.30999E+00   -0.49491E-01  4400   0.824E-01    0.221E+00
DAV:  12    -0.462797320245E+04   -0.89167E-01   -0.11595E-01  4352   0.496E-01    0.586E-01
DAV:  13    -0.462797951822E+04   -0.63158E-02   -0.24896E-02  4384   0.192E-01    0.167E-01
DAV:  14    -0.462798005385E+04   -0.53563E-03   -0.25101E-03  4416   0.730E-02    0.652E-02
DAV:  15    -0.462798016524E+04   -0.11139E-03   -0.49638E-04  4112   0.309E-02    0.278E-02
DAV:  16    -0.462798020931E+04   -0.44066E-04   -0.99988E-05  2544   0.132E-02
   1 F= -.46279802E+04 E0= -.46279802E+04  d E =0.000000E+00  mag=    -1.9987
 writing wavefunctions
 running on  384 total cores
 distrk:  each k-point on  384 cores,    1 groups
 distr:  one band on   24 cores,   16 groups
 using from now: INCAR     
 vasp.5.4.1 05Feb16 (build Jun 30 2016 18:21:48) complex                        
  
 POSCAR found :  2 types and     511 ions
 scaLAPACK will be used

 ----------------------------------------------------------------------------- 
|                                                                             |
|  ADVICE TO THIS USER RUNNING 'VASP/VAMP'   (HEAR YOUR MASTER'S VOICE ...):  |
|                                                                             |
|      You have a (more or less) 'large supercell' and for larger cells       |
|      it might be more efficient to use real space projection opertators     |
|      So try LREAL= Auto  in the INCAR   file.                               |
|      Mind: At the moment your POTCAR file does not contain real space       |
|       projectors, and has to be modified,  BUT if you                       |
|      want to do an extremely  accurate calculation you might also keep the  |
|      reciprocal projection scheme          (i.e. LREAL=.FALSE.)             |
|                                                                             |
 ----------------------------------------------------------------------------- 

 WARNING: for PREC=h ENMAX is automatically increase by 25 %
        this was not the case for versions prior to vasp.4.4
 WARNING: for PREC=h ENMAX is automatically increase by 25 %
        this was not the case for versions prior to vasp.4.4
 LDA part: xc-table for Pade appr. of Perdew
 POSCAR, INCAR and KPOINTS ok, starting setup
 FFT: planning ...
 WAVECAR not read
 entering main loop
       N       E                     dE             d eps       ncg     rms          rms(c)
DAV:   1     0.938376506630E+04    0.93838E+04   -0.11030E+06  4224   0.185E+03
DAV:   2    -0.372774909804E+04   -0.13112E+05   -0.12976E+05  5152   0.347E+02
DAV:   3    -0.454703638032E+04   -0.81929E+03   -0.81677E+03  4496   0.854E+01
DAV:   4    -0.456895609210E+04   -0.21920E+02   -0.21848E+02  4496   0.158E+01
DAV:   5    -0.456976929206E+04   -0.81320E+00   -0.81175E+00  4576   0.268E+00BRMIX: very serious problems
 the old and the new charge density differ
 old charge density:  2045.00000 new 2045.99970
    0.141E+02
DAV:   6    -0.448323908198E+04    0.86530E+02   -0.28155E+02  4352   0.159E+01    0.897E+01
DAV:   7    -0.457022518013E+04   -0.86986E+02   -0.11581E+02  4400   0.111E+01    0.535E+01
DAV:   8    -0.461657455500E+04   -0.46349E+02   -0.42585E+01  4320   0.660E+00    0.196E+01
DAV:   9    -0.462435085120E+04   -0.77763E+01   -0.42982E+00  4336   0.248E+00    0.121E+01
DAV:  10    -0.462757405927E+04   -0.32232E+01   -0.52096E+00  4432   0.212E+00    0.413E+00
DAV:  11    -0.462788405011E+04   -0.30999E+00   -0.49492E-01  4400   0.824E-01    0.221E+00
DAV:  12    -0.462797320263E+04   -0.89153E-01   -0.11593E-01  4352   0.496E-01    0.586E-01
DAV:  13    -0.462797951820E+04   -0.63156E-02   -0.24899E-02  4384   0.192E-01    0.167E-01
DAV:  14    -0.462798005394E+04   -0.53574E-03   -0.25099E-03  4416   0.730E-02    0.652E-02
DAV:  15    -0.462798016526E+04   -0.11133E-03   -0.49621E-04  4112   0.309E-02    0.278E-02
DAV:  16    -0.462798020933E+04   -0.44072E-04   -0.10004E-04  2544   0.132E-02
   1 F= -.46279802E+04 E0= -.46279802E+04  d E =0.000000E+00  mag=    -1.9987
 writing wavefunctions
