 running on  384 total cores
 distrk:  each k-point on  384 cores,    1 groups
 distr:  one band on   24 cores,   16 groups
 using from now: INCAR     
 vasp.5.4.1 05Feb16 (build Jun 30 2016 18:21:48) complex                        
  
 POSCAR found :  2 types and     511 ions
 scaLAPACK will be used

 ----------------------------------------------------------------------------- 
|                                                                             |
|  ADVICE TO THIS USER RUNNING 'VASP/VAMP'   (HEAR YOUR MASTER'S VOICE ...):  |
|                                                                             |
|      You have a (more or less) 'large supercell' and for larger cells       |
|      it might be more efficient to use real space projection opertators     |
|      So try LREAL= Auto  in the INCAR   file.                               |
|      Mind: At the moment your POTCAR file does not contain real space       |
|       projectors, and has to be modified,  BUT if you                       |
|      want to do an extremely  accurate calculation you might also keep the  |
|      reciprocal projection scheme          (i.e. LREAL=.FALSE.)             |
|                                                                             |
 ----------------------------------------------------------------------------- 

 WARNING: for PREC=h ENMAX is automatically increase by 25 %
        this was not the case for versions prior to vasp.4.4
 WARNING: for PREC=h ENMAX is automatically increase by 25 %
        this was not the case for versions prior to vasp.4.4
 LDA part: xc-table for Pade appr. of Perdew
 POSCAR, INCAR and KPOINTS ok, starting setup
 FFT: planning ...
 WAVECAR not read
 entering main loop
       N       E                     dE             d eps       ncg     rms          rms(c)
DAV:   1     0.938375527477E+04    0.93838E+04   -0.11030E+06  4224   0.185E+03
DAV:   2    -0.372776897713E+04   -0.13112E+05   -0.12976E+05  5152   0.347E+02
DAV:   3    -0.454703578014E+04   -0.81927E+03   -0.81675E+03  4496   0.854E+01
DAV:   4    -0.456897613319E+04   -0.21940E+02   -0.21870E+02  4512   0.158E+01
DAV:   5    -0.456977035085E+04   -0.79422E+00   -0.79280E+00  4560   0.266E+00BRMIX: very serious problems
 the old and the new charge density differ
 old charge density:  2045.00000 new 2045.99970
    0.141E+02
DAV:   6    -0.448324063427E+04    0.86530E+02   -0.28153E+02  4352   0.159E+01    0.897E+01
DAV:   7    -0.457022671369E+04   -0.86986E+02   -0.11581E+02  4400   0.111E+01    0.535E+01
DAV:   8    -0.461657382338E+04   -0.46347E+02   -0.42582E+01  4320   0.660E+00    0.196E+01
DAV:   9    -0.462435001929E+04   -0.77762E+01   -0.42973E+00  4336   0.248E+00    0.121E+01
DAV:  10    -0.462757404871E+04   -0.32240E+01   -0.52110E+00  4432   0.212E+00    0.413E+00
DAV:  11    -0.462788402923E+04   -0.30998E+00   -0.49498E-01  4400   0.824E-01    0.221E+00
DAV:  12    -0.462797319758E+04   -0.89168E-01   -0.11595E-01  4352   0.496E-01    0.586E-01
DAV:  13    -0.462797951596E+04   -0.63184E-02   -0.24909E-02  4400   0.192E-01    0.167E-01
DAV:  14    -0.462798005105E+04   -0.53510E-03   -0.25037E-03  4400   0.730E-02    0.653E-02
DAV:  15    -0.462798016243E+04   -0.11138E-03   -0.49823E-04  4096   0.309E-02    0.278E-02
DAV:  16    -0.462798020651E+04   -0.44081E-04   -0.10059E-04  2544   0.132E-02
   1 F= -.46279802E+04 E0= -.46279802E+04  d E =0.000000E+00  mag=    -1.9987
 writing wavefunctions
 running on  384 total cores
 distrk:  each k-point on  384 cores,    1 groups
 distr:  one band on   24 cores,   16 groups
 using from now: INCAR     
 vasp.5.4.1 05Feb16 (build Jun 30 2016 18:21:48) complex                        
  
 POSCAR found :  2 types and     511 ions
 scaLAPACK will be used

 ----------------------------------------------------------------------------- 
|                                                                             |
|  ADVICE TO THIS USER RUNNING 'VASP/VAMP'   (HEAR YOUR MASTER'S VOICE ...):  |
|                                                                             |
|      You have a (more or less) 'large supercell' and for larger cells       |
|      it might be more efficient to use real space projection opertators     |
|      So try LREAL= Auto  in the INCAR   file.                               |
|      Mind: At the moment your POTCAR file does not contain real space       |
|       projectors, and has to be modified,  BUT if you                       |
|      want to do an extremely  accurate calculation you might also keep the  |
|      reciprocal projection scheme          (i.e. LREAL=.FALSE.)             |
|                                                                             |
 ----------------------------------------------------------------------------- 

 WARNING: for PREC=h ENMAX is automatically increase by 25 %
        this was not the case for versions prior to vasp.4.4
 WARNING: for PREC=h ENMAX is automatically increase by 25 %
        this was not the case for versions prior to vasp.4.4
 LDA part: xc-table for Pade appr. of Perdew
 POSCAR, INCAR and KPOINTS ok, starting setup
 FFT: planning ...
 WAVECAR not read
 entering main loop
       N       E                     dE             d eps       ncg     rms          rms(c)
DAV:   1     0.938376837961E+04    0.93838E+04   -0.11030E+06  4224   0.185E+03
DAV:   2    -0.372775820462E+04   -0.13112E+05   -0.12976E+05  5152   0.347E+02
DAV:   3    -0.454703545233E+04   -0.81928E+03   -0.81676E+03  4496   0.854E+01
DAV:   4    -0.456897620213E+04   -0.21941E+02   -0.21870E+02  4512   0.158E+01
DAV:   5    -0.456977207514E+04   -0.79587E+00   -0.79449E+00  4576   0.266E+00BRMIX: very serious problems
 the old and the new charge density differ
 old charge density:  2045.00000 new 2045.99970
    0.141E+02
DAV:   6    -0.448323697717E+04    0.86535E+02   -0.28153E+02  4352   0.159E+01    0.897E+01
DAV:   7    -0.457022267607E+04   -0.86986E+02   -0.11582E+02  4400   0.111E+01    0.535E+01
DAV:   8    -0.461657356196E+04   -0.46351E+02   -0.42587E+01  4320   0.660E+00    0.196E+01
DAV:   9    -0.462435044065E+04   -0.77769E+01   -0.42982E+00  4336   0.248E+00    0.121E+01
DAV:  10    -0.462757393360E+04   -0.32235E+01   -0.52090E+00  4432   0.212E+00    0.413E+00
DAV:  11    -0.462788403491E+04   -0.31010E+00   -0.49496E-01  4400   0.824E-01    0.221E+00
DAV:  12    -0.462797319401E+04   -0.89159E-01   -0.11588E-01  4352   0.496E-01    0.586E-01
DAV:  13    -0.462797951468E+04   -0.63207E-02   -0.24915E-02  4384   0.192E-01    0.168E-01
DAV:  14    -0.462798005018E+04   -0.53550E-03   -0.25135E-03  4416   0.731E-02    0.653E-02
DAV:  15    -0.462798016182E+04   -0.11164E-03   -0.49688E-04  4112   0.309E-02    0.278E-02
DAV:  16    -0.462798020589E+04   -0.44072E-04   -0.99970E-05  2544   0.132E-02
   1 F= -.46279802E+04 E0= -.46279802E+04  d E =0.000000E+00  mag=    -1.9987
 writing wavefunctions
