 running on  384 total cores
 distrk:  each k-point on  384 cores,    1 groups
 distr:  one band on   24 cores,   16 groups
 using from now: INCAR     
 vasp.5.4.1 05Feb16 (build Jun 30 2016 18:21:48) complex                        
  
 POSCAR found :  2 types and     511 ions
 scaLAPACK will be used

 ----------------------------------------------------------------------------- 
|                                                                             |
|  ADVICE TO THIS USER RUNNING 'VASP/VAMP'   (HEAR YOUR MASTER'S VOICE ...):  |
|                                                                             |
|      You have a (more or less) 'large supercell' and for larger cells       |
|      it might be more efficient to use real space projection opertators     |
|      So try LREAL= Auto  in the INCAR   file.                               |
|      Mind: At the moment your POTCAR file does not contain real space       |
|       projectors, and has to be modified,  BUT if you                       |
|      want to do an extremely  accurate calculation you might also keep the  |
|      reciprocal projection scheme          (i.e. LREAL=.FALSE.)             |
|                                                                             |
 ----------------------------------------------------------------------------- 

 WARNING: for PREC=h ENMAX is automatically increase by 25 %
        this was not the case for versions prior to vasp.4.4
 WARNING: for PREC=h ENMAX is automatically increase by 25 %
        this was not the case for versions prior to vasp.4.4
 LDA part: xc-table for Pade appr. of Perdew
 POSCAR, INCAR and KPOINTS ok, starting setup
 FFT: planning ...
 WAVECAR not read
 entering main loop
       N       E                     dE             d eps       ncg     rms          rms(c)
DAV:   1     0.938378134284E+04    0.93838E+04   -0.11030E+06  4224   0.185E+03
DAV:   2    -0.372776858161E+04   -0.13112E+05   -0.12976E+05  5152   0.347E+02
DAV:   3    -0.454703646989E+04   -0.81927E+03   -0.81675E+03  4496   0.854E+01
DAV:   4    -0.456897400935E+04   -0.21938E+02   -0.21866E+02  4512   0.158E+01
DAV:   5    -0.456977166237E+04   -0.79765E+00   -0.79624E+00  4560   0.266E+00BRMIX: very serious problems
 the old and the new charge density differ
 old charge density:  2045.00000 new 2045.99970
    0.141E+02
DAV:   6    -0.448324214231E+04    0.86530E+02   -0.28153E+02  4352   0.159E+01    0.897E+01
DAV:   7    -0.457022723295E+04   -0.86985E+02   -0.11582E+02  4400   0.111E+01    0.535E+01
DAV:   8    -0.461657268183E+04   -0.46345E+02   -0.42580E+01  4320   0.660E+00    0.196E+01
DAV:   9    -0.462434909724E+04   -0.77764E+01   -0.42965E+00  4336   0.248E+00    0.121E+01
DAV:  10    -0.462757407918E+04   -0.32250E+01   -0.52126E+00  4432   0.212E+00    0.413E+00
DAV:  11    -0.462788401544E+04   -0.30994E+00   -0.49507E-01  4400   0.825E-01    0.221E+00
DAV:  12    -0.462797319533E+04   -0.89180E-01   -0.11596E-01  4352   0.496E-01    0.586E-01
DAV:  13    -0.462797951545E+04   -0.63201E-02   -0.24911E-02  4384   0.192E-01    0.167E-01
DAV:  14    -0.462798005114E+04   -0.53569E-03   -0.25120E-03  4416   0.730E-02    0.653E-02
DAV:  15    -0.462798016252E+04   -0.11138E-03   -0.49663E-04  4112   0.309E-02    0.278E-02
DAV:  16    -0.462798020659E+04   -0.44071E-04   -0.10008E-04  2528   0.132E-02
   1 F= -.46279802E+04 E0= -.46279802E+04  d E =0.000000E+00  mag=    -1.9987
 writing wavefunctions
 running on  384 total cores
 distrk:  each k-point on  384 cores,    1 groups
 distr:  one band on   24 cores,   16 groups
 using from now: INCAR     
 vasp.5.4.1 05Feb16 (build Jun 30 2016 18:21:48) complex                        
  
 POSCAR found :  2 types and     511 ions
 scaLAPACK will be used

 ----------------------------------------------------------------------------- 
|                                                                             |
|  ADVICE TO THIS USER RUNNING 'VASP/VAMP'   (HEAR YOUR MASTER'S VOICE ...):  |
|                                                                             |
|      You have a (more or less) 'large supercell' and for larger cells       |
|      it might be more efficient to use real space projection opertators     |
|      So try LREAL= Auto  in the INCAR   file.                               |
|      Mind: At the moment your POTCAR file does not contain real space       |
|       projectors, and has to be modified,  BUT if you                       |
|      want to do an extremely  accurate calculation you might also keep the  |
|      reciprocal projection scheme          (i.e. LREAL=.FALSE.)             |
|                                                                             |
 ----------------------------------------------------------------------------- 

 WARNING: for PREC=h ENMAX is automatically increase by 25 %
        this was not the case for versions prior to vasp.4.4
 WARNING: for PREC=h ENMAX is automatically increase by 25 %
        this was not the case for versions prior to vasp.4.4
 LDA part: xc-table for Pade appr. of Perdew
 POSCAR, INCAR and KPOINTS ok, starting setup
 FFT: planning ...
 WAVECAR not read
 entering main loop
       N       E                     dE             d eps       ncg     rms          rms(c)
DAV:   1     0.938376432187E+04    0.93838E+04   -0.11030E+06  4224   0.185E+03
DAV:   2    -0.372774695800E+04   -0.13112E+05   -0.12976E+05  5152   0.347E+02
DAV:   3    -0.454703334509E+04   -0.81929E+03   -0.81677E+03  4496   0.854E+01
DAV:   4    -0.456897619731E+04   -0.21943E+02   -0.21872E+02  4512   0.158E+01
DAV:   5    -0.456976925883E+04   -0.79306E+00   -0.79161E+00  4544   0.266E+00BRMIX: very serious problems
 the old and the new charge density differ
 old charge density:  2045.00000 new 2045.99970
    0.141E+02
DAV:   6    -0.448324145749E+04    0.86528E+02   -0.28157E+02  4352   0.159E+01    0.897E+01
DAV:   7    -0.457022886423E+04   -0.86987E+02   -0.11582E+02  4400   0.111E+01    0.535E+01
DAV:   8    -0.461657184101E+04   -0.46343E+02   -0.42575E+01  4320   0.660E+00    0.196E+01
DAV:   9    -0.462434878224E+04   -0.77769E+01   -0.42965E+00  4336   0.248E+00    0.121E+01
DAV:  10    -0.462757402917E+04   -0.32252E+01   -0.52126E+00  4432   0.212E+00    0.413E+00
DAV:  11    -0.462788400868E+04   -0.30998E+00   -0.49513E-01  4400   0.825E-01    0.221E+00
DAV:  12    -0.462797319679E+04   -0.89188E-01   -0.11595E-01  4352   0.496E-01    0.586E-01
DAV:  13    -0.462797951777E+04   -0.63210E-02   -0.24910E-02  4384   0.192E-01    0.167E-01
DAV:  14    -0.462798005349E+04   -0.53572E-03   -0.25116E-03  4416   0.730E-02    0.653E-02
DAV:  15    -0.462798016485E+04   -0.11136E-03   -0.49674E-04  4112   0.309E-02    0.278E-02
DAV:  16    -0.462798020892E+04   -0.44073E-04   -0.10011E-04  2544   0.132E-02
   1 F= -.46279802E+04 E0= -.46279802E+04  d E =0.000000E+00  mag=    -1.9987
 writing wavefunctions
