 running on  384 total cores
 distrk:  each k-point on  384 cores,    1 groups
 distr:  one band on   24 cores,   16 groups
 using from now: INCAR     
 vasp.5.4.1 05Feb16 (build Jun 30 2016 18:21:48) complex                        
  
 POSCAR found :  2 types and     511 ions
 scaLAPACK will be used

 ----------------------------------------------------------------------------- 
|                                                                             |
|  ADVICE TO THIS USER RUNNING 'VASP/VAMP'   (HEAR YOUR MASTER'S VOICE ...):  |
|                                                                             |
|      You have a (more or less) 'large supercell' and for larger cells       |
|      it might be more efficient to use real space projection opertators     |
|      So try LREAL= Auto  in the INCAR   file.                               |
|      Mind: At the moment your POTCAR file does not contain real space       |
|       projectors, and has to be modified,  BUT if you                       |
|      want to do an extremely  accurate calculation you might also keep the  |
|      reciprocal projection scheme          (i.e. LREAL=.FALSE.)             |
|                                                                             |
 ----------------------------------------------------------------------------- 

 WARNING: for PREC=h ENMAX is automatically increase by 25 %
        this was not the case for versions prior to vasp.4.4
 WARNING: for PREC=h ENMAX is automatically increase by 25 %
        this was not the case for versions prior to vasp.4.4
 LDA part: xc-table for Pade appr. of Perdew
 POSCAR, INCAR and KPOINTS ok, starting setup
 FFT: planning ...
 WAVECAR not read
 entering main loop
       N       E                     dE             d eps       ncg     rms          rms(c)
DAV:   1     0.938376282629E+04    0.93838E+04   -0.11030E+06  4224   0.185E+03
DAV:   2    -0.372775117718E+04   -0.13112E+05   -0.12976E+05  5152   0.347E+02
DAV:   3    -0.454703677867E+04   -0.81929E+03   -0.81677E+03  4496   0.854E+01
DAV:   4    -0.456897494470E+04   -0.21938E+02   -0.21867E+02  4512   0.158E+01
DAV:   5    -0.456977127835E+04   -0.79633E+00   -0.79489E+00  4544   0.266E+00BRMIX: very serious problems
 the old and the new charge density differ
 old charge density:  2045.00000 new 2045.99970
    0.141E+02
DAV:   6    -0.448324026711E+04    0.86531E+02   -0.28156E+02  4352   0.159E+01    0.897E+01
DAV:   7    -0.457022547171E+04   -0.86985E+02   -0.11581E+02  4400   0.111E+01    0.535E+01
DAV:   8    -0.461657355325E+04   -0.46348E+02   -0.42583E+01  4320   0.660E+00    0.196E+01
DAV:   9    -0.462435022243E+04   -0.77767E+01   -0.42977E+00  4336   0.248E+00    0.121E+01
DAV:  10    -0.462757405991E+04   -0.32238E+01   -0.52105E+00  4432   0.212E+00    0.413E+00
DAV:  11    -0.462788403000E+04   -0.30997E+00   -0.49502E-01  4400   0.825E-01    0.221E+00
DAV:  12    -0.462797320543E+04   -0.89175E-01   -0.11598E-01  4352   0.496E-01    0.586E-01
DAV:  13    -0.462797952504E+04   -0.63196E-02   -0.24929E-02  4400   0.192E-01    0.167E-01
DAV:  14    -0.462798006008E+04   -0.53504E-03   -0.25067E-03  4400   0.730E-02    0.653E-02
DAV:  15    -0.462798017159E+04   -0.11151E-03   -0.49870E-04  4096   0.309E-02    0.278E-02
DAV:  16    -0.462798021569E+04   -0.44097E-04   -0.10065E-04  2544   0.132E-02
   1 F= -.46279802E+04 E0= -.46279802E+04  d E =0.000000E+00  mag=    -1.9987
 writing wavefunctions
 running on  384 total cores
 distrk:  each k-point on  384 cores,    1 groups
 distr:  one band on   24 cores,   16 groups
 using from now: INCAR     
 vasp.5.4.1 05Feb16 (build Jun 30 2016 18:21:48) complex                        
  
 POSCAR found :  2 types and     511 ions
 scaLAPACK will be used

 ----------------------------------------------------------------------------- 
|                                                                             |
|  ADVICE TO THIS USER RUNNING 'VASP/VAMP'   (HEAR YOUR MASTER'S VOICE ...):  |
|                                                                             |
|      You have a (more or less) 'large supercell' and for larger cells       |
|      it might be more efficient to use real space projection opertators     |
|      So try LREAL= Auto  in the INCAR   file.                               |
|      Mind: At the moment your POTCAR file does not contain real space       |
|       projectors, and has to be modified,  BUT if you                       |
|      want to do an extremely  accurate calculation you might also keep the  |
|      reciprocal projection scheme          (i.e. LREAL=.FALSE.)             |
|                                                                             |
 ----------------------------------------------------------------------------- 

 WARNING: for PREC=h ENMAX is automatically increase by 25 %
        this was not the case for versions prior to vasp.4.4
 WARNING: for PREC=h ENMAX is automatically increase by 25 %
        this was not the case for versions prior to vasp.4.4
 LDA part: xc-table for Pade appr. of Perdew
 POSCAR, INCAR and KPOINTS ok, starting setup
 FFT: planning ...
 WAVECAR not read
 entering main loop
       N       E                     dE             d eps       ncg     rms          rms(c)
DAV:   1     0.938375568401E+04    0.93838E+04   -0.11030E+06  4224   0.185E+03
DAV:   2    -0.372775627990E+04   -0.13112E+05   -0.12976E+05  5152   0.347E+02
DAV:   3    -0.454703412068E+04   -0.81928E+03   -0.81676E+03  4496   0.854E+01
DAV:   4    -0.456897622349E+04   -0.21942E+02   -0.21871E+02  4512   0.158E+01
DAV:   5    -0.456977184272E+04   -0.79562E+00   -0.79422E+00  4560   0.266E+00BRMIX: very serious problems
 the old and the new charge density differ
 old charge density:  2045.00000 new 2045.99970
    0.141E+02
DAV:   6    -0.448324033153E+04    0.86532E+02   -0.28152E+02  4352   0.159E+01    0.897E+01
DAV:   7    -0.457022628330E+04   -0.86986E+02   -0.11581E+02  4400   0.111E+01    0.535E+01
DAV:   8    -0.461657396046E+04   -0.46348E+02   -0.42583E+01  4320   0.660E+00    0.196E+01
DAV:   9    -0.462435034244E+04   -0.77764E+01   -0.42975E+00  4336   0.248E+00    0.121E+01
DAV:  10    -0.462757407825E+04   -0.32237E+01   -0.52102E+00  4432   0.212E+00    0.413E+00
DAV:  11    -0.462788406647E+04   -0.30999E+00   -0.49488E-01  4400   0.824E-01    0.221E+00
DAV:  12    -0.462797322608E+04   -0.89160E-01   -0.11583E-01  4352   0.496E-01    0.586E-01
DAV:  13    -0.462797953993E+04   -0.63139E-02   -0.24873E-02  4384   0.192E-01    0.167E-01
DAV:  14    -0.462798007685E+04   -0.53692E-03   -0.25037E-03  4416   0.730E-02    0.652E-02
DAV:  15    -0.462798018768E+04   -0.11083E-03   -0.49452E-04  4112   0.308E-02    0.278E-02
DAV:  16    -0.462798023175E+04   -0.44067E-04   -0.10002E-04  2544   0.132E-02
   1 F= -.46279802E+04 E0= -.46279802E+04  d E =0.000000E+00  mag=    -1.9987
 writing wavefunctions
