 running on  384 total cores
 distrk:  each k-point on  384 cores,    1 groups
 distr:  one band on   24 cores,   16 groups
 using from now: INCAR     
 vasp.5.4.1 05Feb16 (build Jun 30 2016 18:21:48) complex                        
  
 POSCAR found :  2 types and     511 ions
 scaLAPACK will be used

 ----------------------------------------------------------------------------- 
|                                                                             |
|  ADVICE TO THIS USER RUNNING 'VASP/VAMP'   (HEAR YOUR MASTER'S VOICE ...):  |
|                                                                             |
|      You have a (more or less) 'large supercell' and for larger cells       |
|      it might be more efficient to use real space projection opertators     |
|      So try LREAL= Auto  in the INCAR   file.                               |
|      Mind: At the moment your POTCAR file does not contain real space       |
|       projectors, and has to be modified,  BUT if you                       |
|      want to do an extremely  accurate calculation you might also keep the  |
|      reciprocal projection scheme          (i.e. LREAL=.FALSE.)             |
|                                                                             |
 ----------------------------------------------------------------------------- 

 WARNING: for PREC=h ENMAX is automatically increase by 25 %
        this was not the case for versions prior to vasp.4.4
 WARNING: for PREC=h ENMAX is automatically increase by 25 %
        this was not the case for versions prior to vasp.4.4
 LDA part: xc-table for Pade appr. of Perdew
 POSCAR, INCAR and KPOINTS ok, starting setup
 FFT: planning ...
 WAVECAR not read
 entering main loop
       N       E                     dE             d eps       ncg     rms          rms(c)
DAV:   1     0.938376560395E+04    0.93838E+04   -0.11030E+06  4224   0.185E+03
DAV:   2    -0.372775532501E+04   -0.13112E+05   -0.12976E+05  5152   0.347E+02
DAV:   3    -0.454703536482E+04   -0.81928E+03   -0.81676E+03  4496   0.854E+01
DAV:   4    -0.456900082063E+04   -0.21965E+02   -0.21896E+02  4528   0.158E+01
DAV:   5    -0.456977033693E+04   -0.76952E+00   -0.76810E+00  4544   0.263E+00BRMIX: very serious problems
 the old and the new charge density differ
 old charge density:  2045.00000 new 2045.99970
    0.141E+02
DAV:   6    -0.448324024163E+04    0.86530E+02   -0.28155E+02  4352   0.159E+01    0.897E+01
DAV:   7    -0.457022710766E+04   -0.86987E+02   -0.11581E+02  4400   0.111E+01    0.535E+01
DAV:   8    -0.461657360218E+04   -0.46346E+02   -0.42581E+01  4320   0.660E+00    0.196E+01
DAV:   9    -0.462435027641E+04   -0.77767E+01   -0.42978E+00  4336   0.248E+00    0.121E+01
DAV:  10    -0.462757405995E+04   -0.32238E+01   -0.52105E+00  4432   0.212E+00    0.413E+00
DAV:  11    -0.462788403492E+04   -0.30997E+00   -0.49498E-01  4400   0.824E-01    0.221E+00
DAV:  12    -0.462797320338E+04   -0.89168E-01   -0.11596E-01  4352   0.496E-01    0.586E-01
DAV:  13    -0.462797952091E+04   -0.63175E-02   -0.24903E-02  4384   0.192E-01    0.167E-01
DAV:  14    -0.462798005650E+04   -0.53558E-03   -0.25116E-03  4416   0.730E-02    0.653E-02
DAV:  15    -0.462798016793E+04   -0.11143E-03   -0.49656E-04  4112   0.309E-02    0.278E-02
DAV:  16    -0.462798021200E+04   -0.44065E-04   -0.99995E-05  2528   0.132E-02
   1 F= -.46279802E+04 E0= -.46279802E+04  d E =0.000000E+00  mag=    -1.9987
 writing wavefunctions
 running on  384 total cores
 distrk:  each k-point on  384 cores,    1 groups
 distr:  one band on   24 cores,   16 groups
 using from now: INCAR     
 vasp.5.4.1 05Feb16 (build Jun 30 2016 18:21:48) complex                        
  
 POSCAR found :  2 types and     511 ions
 scaLAPACK will be used

 ----------------------------------------------------------------------------- 
|                                                                             |
|  ADVICE TO THIS USER RUNNING 'VASP/VAMP'   (HEAR YOUR MASTER'S VOICE ...):  |
|                                                                             |
|      You have a (more or less) 'large supercell' and for larger cells       |
|      it might be more efficient to use real space projection opertators     |
|      So try LREAL= Auto  in the INCAR   file.                               |
|      Mind: At the moment your POTCAR file does not contain real space       |
|       projectors, and has to be modified,  BUT if you                       |
|      want to do an extremely  accurate calculation you might also keep the  |
|      reciprocal projection scheme          (i.e. LREAL=.FALSE.)             |
|                                                                             |
 ----------------------------------------------------------------------------- 

 WARNING: for PREC=h ENMAX is automatically increase by 25 %
        this was not the case for versions prior to vasp.4.4
 WARNING: for PREC=h ENMAX is automatically increase by 25 %
        this was not the case for versions prior to vasp.4.4
 LDA part: xc-table for Pade appr. of Perdew
 POSCAR, INCAR and KPOINTS ok, starting setup
 FFT: planning ...
 WAVECAR not read
 entering main loop
       N       E                     dE             d eps       ncg     rms          rms(c)
DAV:   1     0.938375390507E+04    0.93838E+04   -0.11030E+06  4224   0.185E+03
DAV:   2    -0.372775340704E+04   -0.13112E+05   -0.12976E+05  5152   0.347E+02
DAV:   3    -0.454703401450E+04   -0.81928E+03   -0.81676E+03  4496   0.854E+01
DAV:   4    -0.456897596368E+04   -0.21942E+02   -0.21871E+02  4512   0.158E+01
DAV:   5    -0.456977239049E+04   -0.79643E+00   -0.79505E+00  4592   0.266E+00BRMIX: very serious problems
 the old and the new charge density differ
 old charge density:  2045.00000 new 2045.99970
    0.141E+02
DAV:   6    -0.448324051051E+04    0.86532E+02   -0.28150E+02  4352   0.159E+01    0.897E+01
DAV:   7    -0.457022597127E+04   -0.86985E+02   -0.11581E+02  4400   0.111E+01    0.535E+01
DAV:   8    -0.461657410291E+04   -0.46348E+02   -0.42584E+01  4320   0.660E+00    0.196E+01
DAV:   9    -0.462435011254E+04   -0.77760E+01   -0.42973E+00  4336   0.248E+00    0.121E+01
DAV:  10    -0.462757405913E+04   -0.32239E+01   -0.52109E+00  4432   0.212E+00    0.413E+00
DAV:  11    -0.462788403737E+04   -0.30998E+00   -0.49496E-01  4400   0.824E-01    0.221E+00
DAV:  12    -0.462797320140E+04   -0.89164E-01   -0.11595E-01  4352   0.496E-01    0.586E-01
DAV:  13    -0.462797951940E+04   -0.63180E-02   -0.24908E-02  4384   0.192E-01    0.167E-01
DAV:  14    -0.462798005501E+04   -0.53561E-03   -0.25108E-03  4416   0.730E-02    0.653E-02
DAV:  15    -0.462798016637E+04   -0.11136E-03   -0.49659E-04  4112   0.309E-02    0.278E-02
DAV:  16    -0.462798021046E+04   -0.44086E-04   -0.10010E-04  2544   0.132E-02
   1 F= -.46279802E+04 E0= -.46279802E+04  d E =0.000000E+00  mag=    -1.9987
 writing wavefunctions
