 running on  384 total cores
 distrk:  each k-point on  384 cores,    1 groups
 distr:  one band on   24 cores,   16 groups
 using from now: INCAR     
 vasp.5.4.1 05Feb16 (build Jun 30 2016 18:21:48) complex                        
  
 POSCAR found :  2 types and     511 ions
 scaLAPACK will be used

 ----------------------------------------------------------------------------- 
|                                                                             |
|  ADVICE TO THIS USER RUNNING 'VASP/VAMP'   (HEAR YOUR MASTER'S VOICE ...):  |
|                                                                             |
|      You have a (more or less) 'large supercell' and for larger cells       |
|      it might be more efficient to use real space projection opertators     |
|      So try LREAL= Auto  in the INCAR   file.                               |
|      Mind: At the moment your POTCAR file does not contain real space       |
|       projectors, and has to be modified,  BUT if you                       |
|      want to do an extremely  accurate calculation you might also keep the  |
|      reciprocal projection scheme          (i.e. LREAL=.FALSE.)             |
|                                                                             |
 ----------------------------------------------------------------------------- 

 WARNING: for PREC=h ENMAX is automatically increase by 25 %
        this was not the case for versions prior to vasp.4.4
 WARNING: for PREC=h ENMAX is automatically increase by 25 %
        this was not the case for versions prior to vasp.4.4
 LDA part: xc-table for Pade appr. of Perdew
 POSCAR, INCAR and KPOINTS ok, starting setup
 FFT: planning ...
 WAVECAR not read
 entering main loop
       N       E                     dE             d eps       ncg     rms          rms(c)
DAV:   1     0.938375548835E+04    0.93838E+04   -0.11030E+06  4224   0.185E+03
DAV:   2    -0.372774926463E+04   -0.13112E+05   -0.12976E+05  5152   0.347E+02
DAV:   3    -0.454703465790E+04   -0.81929E+03   -0.81677E+03  4496   0.854E+01
DAV:   4    -0.456895635546E+04   -0.21922E+02   -0.21850E+02  4496   0.158E+01
DAV:   5    -0.456977223576E+04   -0.81588E+00   -0.81448E+00  4576   0.268E+00BRMIX: very serious problems
 the old and the new charge density differ
 old charge density:  2045.00000 new 2045.99970
    0.141E+02
DAV:   6    -0.448324051939E+04    0.86532E+02   -0.28152E+02  4352   0.159E+01    0.897E+01
DAV:   7    -0.457022588960E+04   -0.86985E+02   -0.11582E+02  4400   0.111E+01    0.535E+01
DAV:   8    -0.461657459478E+04   -0.46349E+02   -0.42585E+01  4320   0.660E+00    0.196E+01
DAV:   9    -0.462435128325E+04   -0.77767E+01   -0.42991E+00  4336   0.248E+00    0.121E+01
DAV:  10    -0.462757404372E+04   -0.32228E+01   -0.52091E+00  4432   0.212E+00    0.413E+00
DAV:  11    -0.462788403130E+04   -0.30999E+00   -0.49495E-01  4400   0.824E-01    0.221E+00
DAV:  12    -0.462797320500E+04   -0.89174E-01   -0.11600E-01  4368   0.496E-01    0.586E-01
DAV:  13    -0.462797952103E+04   -0.63160E-02   -0.24879E-02  4384   0.192E-01    0.167E-01
DAV:  14    -0.462798005687E+04   -0.53584E-03   -0.25081E-03  4416   0.729E-02    0.652E-02
DAV:  15    -0.462798016886E+04   -0.11199E-03   -0.49433E-04  4112   0.308E-02    0.277E-02
DAV:  16    -0.462798021284E+04   -0.43984E-04   -0.98982E-05  2528   0.131E-02
   1 F= -.46279802E+04 E0= -.46279802E+04  d E =0.000000E+00  mag=    -1.9987
 writing wavefunctions
 running on  384 total cores
 distrk:  each k-point on  384 cores,    1 groups
 distr:  one band on   24 cores,   16 groups
 using from now: INCAR     
 vasp.5.4.1 05Feb16 (build Jun 30 2016 18:21:48) complex                        
  
 POSCAR found :  2 types and     511 ions
 scaLAPACK will be used

 ----------------------------------------------------------------------------- 
|                                                                             |
|  ADVICE TO THIS USER RUNNING 'VASP/VAMP'   (HEAR YOUR MASTER'S VOICE ...):  |
|                                                                             |
|      You have a (more or less) 'large supercell' and for larger cells       |
|      it might be more efficient to use real space projection opertators     |
|      So try LREAL= Auto  in the INCAR   file.                               |
|      Mind: At the moment your POTCAR file does not contain real space       |
|       projectors, and has to be modified,  BUT if you                       |
|      want to do an extremely  accurate calculation you might also keep the  |
|      reciprocal projection scheme          (i.e. LREAL=.FALSE.)             |
|                                                                             |
 ----------------------------------------------------------------------------- 

 WARNING: for PREC=h ENMAX is automatically increase by 25 %
        this was not the case for versions prior to vasp.4.4
 WARNING: for PREC=h ENMAX is automatically increase by 25 %
        this was not the case for versions prior to vasp.4.4
 LDA part: xc-table for Pade appr. of Perdew
 POSCAR, INCAR and KPOINTS ok, starting setup
 FFT: planning ...
 WAVECAR not read
 entering main loop
       N       E                     dE             d eps       ncg     rms          rms(c)
DAV:   1     0.938376739370E+04    0.93838E+04   -0.11030E+06  4224   0.185E+03
DAV:   2    -0.372777665986E+04   -0.13112E+05   -0.12976E+05  5152   0.347E+02
DAV:   3    -0.454703596654E+04   -0.81926E+03   -0.81674E+03  4496   0.854E+01
DAV:   4    -0.456893458836E+04   -0.21899E+02   -0.21826E+02  4480   0.158E+01
DAV:   5    -0.456977146536E+04   -0.83688E+00   -0.83545E+00  4592   0.271E+00BRMIX: very serious problems
 the old and the new charge density differ
 old charge density:  2045.00000 new 2045.99970
    0.141E+02
DAV:   6    -0.448324233932E+04    0.86529E+02   -0.28153E+02  4352   0.159E+01    0.897E+01
DAV:   7    -0.457022705481E+04   -0.86985E+02   -0.11582E+02  4400   0.111E+01    0.535E+01
DAV:   8    -0.461657266444E+04   -0.46346E+02   -0.42580E+01  4320   0.660E+00    0.196E+01
DAV:   9    -0.462434907585E+04   -0.77764E+01   -0.42967E+00  4336   0.248E+00    0.121E+01
DAV:  10    -0.462757409781E+04   -0.32250E+01   -0.52127E+00  4432   0.212E+00    0.413E+00
DAV:  11    -0.462788402188E+04   -0.30992E+00   -0.49510E-01  4400   0.825E-01    0.221E+00
DAV:  12    -0.462797320624E+04   -0.89184E-01   -0.11595E-01  4352   0.496E-01    0.586E-01
DAV:  13    -0.462797952715E+04   -0.63209E-02   -0.24914E-02  4384   0.192E-01    0.167E-01
DAV:  14    -0.462798006305E+04   -0.53590E-03   -0.25121E-03  4416   0.730E-02    0.653E-02
DAV:  15    -0.462798017435E+04   -0.11130E-03   -0.49580E-04  4096   0.309E-02    0.278E-02
DAV:  16    -0.462798021848E+04   -0.44130E-04   -0.10069E-04  2544   0.132E-02
   1 F= -.46279802E+04 E0= -.46279802E+04  d E =0.000000E+00  mag=    -1.9987
 writing wavefunctions
