 running on  384 total cores
 distrk:  each k-point on  384 cores,    1 groups
 distr:  one band on   24 cores,   16 groups
 using from now: INCAR     
 vasp.5.4.1 05Feb16 (build Jun 30 2016 18:21:48) complex                        
  
 POSCAR found :  2 types and     511 ions
 scaLAPACK will be used

 ----------------------------------------------------------------------------- 
|                                                                             |
|  ADVICE TO THIS USER RUNNING 'VASP/VAMP'   (HEAR YOUR MASTER'S VOICE ...):  |
|                                                                             |
|      You have a (more or less) 'large supercell' and for larger cells       |
|      it might be more efficient to use real space projection opertators     |
|      So try LREAL= Auto  in the INCAR   file.                               |
|      Mind: At the moment your POTCAR file does not contain real space       |
|       projectors, and has to be modified,  BUT if you                       |
|      want to do an extremely  accurate calculation you might also keep the  |
|      reciprocal projection scheme          (i.e. LREAL=.FALSE.)             |
|                                                                             |
 ----------------------------------------------------------------------------- 

 WARNING: for PREC=h ENMAX is automatically increase by 25 %
        this was not the case for versions prior to vasp.4.4
 WARNING: for PREC=h ENMAX is automatically increase by 25 %
        this was not the case for versions prior to vasp.4.4
 LDA part: xc-table for Pade appr. of Perdew
 POSCAR, INCAR and KPOINTS ok, starting setup
 FFT: planning ...
 WAVECAR not read
 entering main loop
       N       E                     dE             d eps       ncg     rms          rms(c)
DAV:   1     0.938376855078E+04    0.93838E+04   -0.11030E+06  4224   0.185E+03
DAV:   2    -0.372777030373E+04   -0.13112E+05   -0.12976E+05  5152   0.347E+02
DAV:   3    -0.454703602284E+04   -0.81927E+03   -0.81675E+03  4496   0.854E+01
DAV:   4    -0.456900105531E+04   -0.21965E+02   -0.21896E+02  4528   0.158E+01
DAV:   5    -0.456977183022E+04   -0.77077E+00   -0.76939E+00  4560   0.263E+00BRMIX: very serious problems
 the old and the new charge density differ
 old charge density:  2045.00000 new 2045.99970
    0.141E+02
DAV:   6    -0.448324134025E+04    0.86530E+02   -0.28152E+02  4352   0.159E+01    0.897E+01
DAV:   7    -0.457022768023E+04   -0.86986E+02   -0.11582E+02  4400   0.111E+01    0.535E+01
DAV:   8    -0.461657307938E+04   -0.46345E+02   -0.42580E+01  4320   0.660E+00    0.196E+01
DAV:   9    -0.462434957506E+04   -0.77765E+01   -0.42972E+00  4336   0.248E+00    0.121E+01
DAV:  10    -0.462757404709E+04   -0.32245E+01   -0.52118E+00  4432   0.212E+00    0.413E+00
DAV:  11    -0.462788401641E+04   -0.30997E+00   -0.49511E-01  4400   0.825E-01    0.221E+00
DAV:  12    -0.462797319805E+04   -0.89182E-01   -0.11595E-01  4352   0.496E-01    0.586E-01
DAV:  13    -0.462797951893E+04   -0.63209E-02   -0.24915E-02  4384   0.192E-01    0.167E-01
DAV:  14    -0.462798005474E+04   -0.53581E-03   -0.25120E-03  4416   0.730E-02    0.653E-02
DAV:  15    -0.462798016610E+04   -0.11137E-03   -0.49688E-04  4128   0.309E-02    0.278E-02
DAV:  16    -0.462798021017E+04   -0.44064E-04   -0.99967E-05  2528   0.132E-02
   1 F= -.46279802E+04 E0= -.46279802E+04  d E =0.000000E+00  mag=    -1.9987
 writing wavefunctions
 running on  384 total cores
 distrk:  each k-point on  384 cores,    1 groups
 distr:  one band on   24 cores,   16 groups
 using from now: INCAR     
 vasp.5.4.1 05Feb16 (build Jun 30 2016 18:21:48) complex                        
  
 POSCAR found :  2 types and     511 ions
 scaLAPACK will be used

 ----------------------------------------------------------------------------- 
|                                                                             |
|  ADVICE TO THIS USER RUNNING 'VASP/VAMP'   (HEAR YOUR MASTER'S VOICE ...):  |
|                                                                             |
|      You have a (more or less) 'large supercell' and for larger cells       |
|      it might be more efficient to use real space projection opertators     |
|      So try LREAL= Auto  in the INCAR   file.                               |
|      Mind: At the moment your POTCAR file does not contain real space       |
|       projectors, and has to be modified,  BUT if you                       |
|      want to do an extremely  accurate calculation you might also keep the  |
|      reciprocal projection scheme          (i.e. LREAL=.FALSE.)             |
|                                                                             |
 ----------------------------------------------------------------------------- 

 WARNING: for PREC=h ENMAX is automatically increase by 25 %
        this was not the case for versions prior to vasp.4.4
 WARNING: for PREC=h ENMAX is automatically increase by 25 %
        this was not the case for versions prior to vasp.4.4
 LDA part: xc-table for Pade appr. of Perdew
 POSCAR, INCAR and KPOINTS ok, starting setup
 FFT: planning ...
 WAVECAR not read
 entering main loop
       N       E                     dE             d eps       ncg     rms          rms(c)
DAV:   1     0.938375960322E+04    0.93838E+04   -0.11030E+06  4224   0.185E+03
DAV:   2    -0.372775933166E+04   -0.13112E+05   -0.12976E+05  5152   0.347E+02
DAV:   3    -0.454703596828E+04   -0.81928E+03   -0.81676E+03  4496   0.854E+01
DAV:   4    -0.456895635227E+04   -0.21920E+02   -0.21849E+02  4496   0.158E+01
DAV:   5    -0.456976711363E+04   -0.81076E+00   -0.80925E+00  4544   0.268E+00BRMIX: very serious problems
 the old and the new charge density differ
 old charge density:  2045.00000 new 2045.99970
    0.141E+02
DAV:   6    -0.448323937131E+04    0.86528E+02   -0.28159E+02  4352   0.159E+01    0.897E+01
DAV:   7    -0.457022637884E+04   -0.86987E+02   -0.11581E+02  4400   0.111E+01    0.535E+01
DAV:   8    -0.461657358325E+04   -0.46347E+02   -0.42581E+01  4320   0.660E+00    0.196E+01
DAV:   9    -0.462435002905E+04   -0.77764E+01   -0.42974E+00  4336   0.248E+00    0.121E+01
DAV:  10    -0.462757404250E+04   -0.32240E+01   -0.52107E+00  4432   0.212E+00    0.413E+00
DAV:  11    -0.462788404634E+04   -0.31000E+00   -0.49502E-01  4400   0.824E-01    0.221E+00
DAV:  12    -0.462797320230E+04   -0.89156E-01   -0.11595E-01  4352   0.496E-01    0.586E-01
DAV:  13    -0.462797951931E+04   -0.63170E-02   -0.24907E-02  4384   0.192E-01    0.167E-01
DAV:  14    -0.462798005483E+04   -0.53553E-03   -0.25109E-03  4416   0.730E-02    0.653E-02
DAV:  15    -0.462798016622E+04   -0.11139E-03   -0.49662E-04  4112   0.309E-02    0.278E-02
DAV:  16    -0.462798021031E+04   -0.44089E-04   -0.10012E-04  2544   0.132E-02
   1 F= -.46279802E+04 E0= -.46279802E+04  d E =0.000000E+00  mag=    -1.9987
 writing wavefunctions
