 running on  384 total cores
 distrk:  each k-point on  384 cores,    1 groups
 distr:  one band on   24 cores,   16 groups
 using from now: INCAR     
 vasp.5.4.1 05Feb16 (build Jun 30 2016 18:21:48) complex                        
  
 POSCAR found :  2 types and     511 ions
 scaLAPACK will be used

 ----------------------------------------------------------------------------- 
|                                                                             |
|  ADVICE TO THIS USER RUNNING 'VASP/VAMP'   (HEAR YOUR MASTER'S VOICE ...):  |
|                                                                             |
|      You have a (more or less) 'large supercell' and for larger cells       |
|      it might be more efficient to use real space projection opertators     |
|      So try LREAL= Auto  in the INCAR   file.                               |
|      Mind: At the moment your POTCAR file does not contain real space       |
|       projectors, and has to be modified,  BUT if you                       |
|      want to do an extremely  accurate calculation you might also keep the  |
|      reciprocal projection scheme          (i.e. LREAL=.FALSE.)             |
|                                                                             |
 ----------------------------------------------------------------------------- 

 WARNING: for PREC=h ENMAX is automatically increase by 25 %
        this was not the case for versions prior to vasp.4.4
 WARNING: for PREC=h ENMAX is automatically increase by 25 %
        this was not the case for versions prior to vasp.4.4
 LDA part: xc-table for Pade appr. of Perdew
 POSCAR, INCAR and KPOINTS ok, starting setup
 FFT: planning ...
 WAVECAR not read
 entering main loop
       N       E                     dE             d eps       ncg     rms          rms(c)
DAV:   1     0.938376863490E+04    0.93838E+04   -0.11030E+06  4224   0.185E+03
DAV:   2    -0.372778727219E+04   -0.13112E+05   -0.12976E+05  5152   0.347E+02
DAV:   3    -0.454703767738E+04   -0.81925E+03   -0.81673E+03  4496   0.854E+01
DAV:   4    -0.456895461018E+04   -0.21917E+02   -0.21845E+02  4496   0.158E+01
DAV:   5    -0.456977198924E+04   -0.81738E+00   -0.81598E+00  4608   0.268E+00BRMIX: very serious problems
 the old and the new charge density differ
 old charge density:  2045.00000 new 2045.99970
    0.141E+02
DAV:   6    -0.448324389732E+04    0.86528E+02   -0.28150E+02  4352   0.159E+01    0.897E+01
DAV:   7    -0.457022732408E+04   -0.86983E+02   -0.11582E+02  4400   0.111E+01    0.535E+01
DAV:   8    -0.461657330281E+04   -0.46346E+02   -0.42582E+01  4320   0.660E+00    0.196E+01
DAV:   9    -0.462434943779E+04   -0.77761E+01   -0.42972E+00  4336   0.248E+00    0.121E+01
DAV:  10    -0.462757405391E+04   -0.32246E+01   -0.52123E+00  4432   0.212E+00    0.413E+00
DAV:  11    -0.462788401553E+04   -0.30996E+00   -0.49518E-01  4400   0.825E-01    0.221E+00
DAV:  12    -0.462797319564E+04   -0.89180E-01   -0.11594E-01  4352   0.496E-01    0.586E-01
DAV:  13    -0.462797952296E+04   -0.63273E-02   -0.24940E-02  4384   0.192E-01    0.167E-01
DAV:  14    -0.462798005866E+04   -0.53570E-03   -0.25115E-03  4416   0.731E-02    0.653E-02
DAV:  15    -0.462798016990E+04   -0.11124E-03   -0.49742E-04  4112   0.309E-02    0.278E-02
DAV:  16    -0.462798021402E+04   -0.44121E-04   -0.10041E-04  2528   0.132E-02
   1 F= -.46279802E+04 E0= -.46279802E+04  d E =0.000000E+00  mag=    -1.9987
 writing wavefunctions
 running on  384 total cores
 distrk:  each k-point on  384 cores,    1 groups
 distr:  one band on   24 cores,   16 groups
 using from now: INCAR     
 vasp.5.4.1 05Feb16 (build Jun 30 2016 18:21:48) complex                        
  
 POSCAR found :  2 types and     511 ions
 scaLAPACK will be used

 ----------------------------------------------------------------------------- 
|                                                                             |
|  ADVICE TO THIS USER RUNNING 'VASP/VAMP'   (HEAR YOUR MASTER'S VOICE ...):  |
|                                                                             |
|      You have a (more or less) 'large supercell' and for larger cells       |
|      it might be more efficient to use real space projection opertators     |
|      So try LREAL= Auto  in the INCAR   file.                               |
|      Mind: At the moment your POTCAR file does not contain real space       |
|       projectors, and has to be modified,  BUT if you                       |
|      want to do an extremely  accurate calculation you might also keep the  |
|      reciprocal projection scheme          (i.e. LREAL=.FALSE.)             |
|                                                                             |
 ----------------------------------------------------------------------------- 

 WARNING: for PREC=h ENMAX is automatically increase by 25 %
        this was not the case for versions prior to vasp.4.4
 WARNING: for PREC=h ENMAX is automatically increase by 25 %
        this was not the case for versions prior to vasp.4.4
 LDA part: xc-table for Pade appr. of Perdew
 POSCAR, INCAR and KPOINTS ok, starting setup
 FFT: planning ...
 WAVECAR not read
 entering main loop
       N       E                     dE             d eps       ncg     rms          rms(c)
DAV:   1     0.938376890403E+04    0.93838E+04   -0.11030E+06  4224   0.185E+03
DAV:   2    -0.372776794673E+04   -0.13112E+05   -0.12976E+05  5152   0.347E+02
DAV:   3    -0.454703605141E+04   -0.81927E+03   -0.81675E+03  4496   0.854E+01
DAV:   4    -0.456897641900E+04   -0.21940E+02   -0.21870E+02  4512   0.158E+01
DAV:   5    -0.456977059558E+04   -0.79418E+00   -0.79275E+00  4560   0.266E+00BRMIX: very serious problems
 the old and the new charge density differ
 old charge density:  2045.00000 new 2045.99970
    0.141E+02
DAV:   6    -0.448323699552E+04    0.86534E+02   -0.28154E+02  4352   0.159E+01    0.897E+01
DAV:   7    -0.457022624643E+04   -0.86989E+02   -0.11582E+02  4400   0.111E+01    0.535E+01
DAV:   8    -0.461657376708E+04   -0.46348E+02   -0.42582E+01  4320   0.660E+00    0.196E+01
DAV:   9    -0.462434997007E+04   -0.77762E+01   -0.42972E+00  4336   0.248E+00    0.121E+01
DAV:  10    -0.462757406273E+04   -0.32241E+01   -0.52111E+00  4432   0.212E+00    0.413E+00
DAV:  11    -0.462788403731E+04   -0.30997E+00   -0.49503E-01  4400   0.825E-01    0.221E+00
DAV:  12    -0.462797320112E+04   -0.89164E-01   -0.11596E-01  4352   0.496E-01    0.586E-01
DAV:  13    -0.462797951983E+04   -0.63187E-02   -0.24912E-02  4384   0.192E-01    0.167E-01
DAV:  14    -0.462798005546E+04   -0.53563E-03   -0.25118E-03  4416   0.730E-02    0.653E-02
DAV:  15    -0.462798016688E+04   -0.11141E-03   -0.49662E-04  4112   0.309E-02    0.278E-02
DAV:  16    -0.462798021095E+04   -0.44078E-04   -0.10008E-04  2544   0.132E-02
   1 F= -.46279802E+04 E0= -.46279802E+04  d E =0.000000E+00  mag=    -1.9987
 writing wavefunctions
