     Mode Nr,  Freq (1/cm),   Freq (meV),        IPR,  IRREP,     e,   C3+,   C3-,  sig2,  sig1,  sig3
          61,      586.333,       72.694,     24.815,     A1,   1.0, 0.998, 0.998, 0.999, 0.998,   1.0
          62,      586.628,       72.731,     34.123,     Ex,   1.0,  -0.5,  -0.5, -0.374,  0.99, -0.616
          63,      586.645,       72.733,     34.428,     Ey,   1.0, -0.498, -0.498, 0.375, -0.988, 0.616
          67,      605.332,       75.050,     20.574,     A1,   1.0,   1.0,   1.0,   1.0,   1.0,   1.0
         608,     1265.899,      156.947,     32.883,     A2,   1.0,   1.0,   1.0,  -1.0,  -1.0,  -1.0
         609,     1267.685,      157.169,     26.825,    Exy,   1.0,  -0.5,  -0.5, 0.916, -0.11, -0.806
         610,     1267.686,      157.169,     26.792,    Exy,   1.0,  -0.5,  -0.5, -0.916,  0.11, 0.806
