	511
"Unknown, cubic"
C    0.000000000     0.000000000     0.000000000
X    1.786846088     1.786846088     0.000000000
X    0.000000000     1.786846088     1.786846088
C    1.786846088     0.000000000     1.786846088
C    0.893423044     0.893423044     0.893423044
X    2.680269132     2.680269132     0.893423044
C    2.680269132     0.893423044     2.680269132
X    0.893423044     2.680269132     2.680269132
C    0.000000000     0.000000000     3.573692175
X    1.786846088     1.786846088     3.573692175
X    0.000000000     1.786846088     5.360538263
C    1.786846088     0.000000000     5.360538263
C    0.893423044     0.893423044     4.467115219
X    2.680269132     2.680269132     4.467115219
C    2.680269132     0.893423044     6.253961307
X    0.893423044     2.680269132     6.253961307
C    0.000000000     0.000000000     7.147384351
X    1.786846088     1.786846088     7.147384351
X    0.000000000     1.786846088     8.934230438
C    1.786846088     0.000000000     8.934230438
C    0.893423044     0.893423044     8.040807395
X    2.680269132     2.680269132     8.040807395
C    2.680269132     0.893423044     9.827653482
X    0.893423044     2.680269132     9.827653482
C    0.000000000     0.000000000    10.721076526
X    1.786846088     1.786846088    10.721076526
X    0.000000000     1.786846088    12.507922614
C    1.786846088     0.000000000    12.507922614
C    0.893423044     0.893423044    11.614499570
X    2.680269132     2.680269132    11.614499570
C    2.680269132     0.893423044    13.401345658
X    0.893423044     2.680269132    13.401345658
C    0.000000000     3.573692175     0.000000000
X    1.786846088     5.360538263     0.000000000
X    0.000000000     5.360538263     1.786846088
C    1.786846088     3.573692175     1.786846088
C    0.893423044     4.467115219     0.893423044
X    2.680269132     6.253961307     0.893423044
C    2.680269132     4.467115219     2.680269132
X    0.893423044     6.253961307     2.680269132
C    0.000000000     3.573692175     3.573692175
X    1.786846088     5.360538263     3.573692175
X    0.000000000     5.360538263     5.360538263
C    1.786846088     3.573692175     5.360538263
C    0.893423044     4.467115219     4.467115219
X    2.680269132     6.253961307     4.467115219
C    2.680269132     4.467115219     6.253961307
X    0.893423044     6.253961307     6.253961307
C    0.000000000     3.573692175     7.147384351
X    1.786846088     5.360538263     7.147384351
X    0.000000000     5.360538263     8.934230438
C    1.786846088     3.573692175     8.934230438
C    0.893423044     4.467115219     8.040807395
X    2.680269132     6.253961307     8.040807395
C    2.680269132     4.467115219     9.827653482
X    0.893423044     6.253961307     9.827653482
C    0.000000000     3.573692175    10.721076526
X    1.786846088     5.360538263    10.721076526
X    0.000000000     5.360538263    12.507922614
C    1.786846088     3.573692175    12.507922614
C    0.893423044     4.467115219    11.614499570
X    2.680269132     6.253961307    11.614499570
C    2.680269132     4.467115219    13.401345658
X    0.893423044     6.253961307    13.401345658
C    0.000000000     7.147384351     0.000000000
X    1.786846088     8.934230438     0.000000000
X    0.000000000     8.934230438     1.786846088
C    1.786846088     7.147384351     1.786846088
C    0.893423044     8.040807395     0.893423044
X    2.680269132     9.827653482     0.893423044
C    2.680269132     8.040807395     2.680269132
X    0.893423044     9.827653482     2.680269132
C    0.000000000     7.147384351     3.573692175
X    1.786846088     8.934230438     3.573692175
X    0.000000000     8.934230438     5.360538263
C    1.786846088     7.147384351     5.360538263
C    0.893423044     8.040807395     4.467115219
X    2.680269132     9.827653482     4.467115219
C    2.680269132     8.040807395     6.253961307
X    0.893423044     9.827653482     6.253961307
C    0.000000000     7.147384351     7.147384351
X    1.786846088     8.934230438     7.147384351
X    0.000000000     8.934230438     8.934230438
C    1.786846088     7.147384351     8.934230438
C    0.893423044     8.040807395     8.040807395
X    2.680269132     9.827653482     8.040807395
C    2.680269132     8.040807395     9.827653482
X    0.893423044     9.827653482     9.827653482
C    0.000000000     7.147384351    10.721076526
X    1.786846088     8.934230438    10.721076526
X    0.000000000     8.934230438    12.507922614
C    1.786846088     7.147384351    12.507922614
C    0.893423044     8.040807395    11.614499570
X    2.680269132     9.827653482    11.614499570
C    2.680269132     8.040807395    13.401345658
X    0.893423044     9.827653482    13.401345658
C    0.000000000    10.721076526     0.000000000
X    1.786846088    12.507922614     0.000000000
X    0.000000000    12.507922614     1.786846088
C    1.786846088    10.721076526     1.786846088
C    0.893423044    11.614499570     0.893423044
X    2.680269132    13.401345658     0.893423044
C    2.680269132    11.614499570     2.680269132
X    0.893423044    13.401345658     2.680269132
C    0.000000000    10.721076526     3.573692175
X    1.786846088    12.507922614     3.573692175
X    0.000000000    12.507922614     5.360538263
C    1.786846088    10.721076526     5.360538263
C    0.893423044    11.614499570     4.467115219
X    2.680269132    13.401345658     4.467115219
C    2.680269132    11.614499570     6.253961307
X    0.893423044    13.401345658     6.253961307
C    0.000000000    10.721076526     7.147384351
X    1.786846088    12.507922614     7.147384351
X    0.000000000    12.507922614     8.934230438
C    1.786846088    10.721076526     8.934230438
C    0.893423044    11.614499570     8.040807395
X    2.680269132    13.401345658     8.040807395
C    2.680269132    11.614499570     9.827653482
X    0.893423044    13.401345658     9.827653482
C    0.000000000    10.721076526    10.721076526
X    1.786846088    12.507922614    10.721076526
X    0.000000000    12.507922614    12.507922614
C    1.786846088    10.721076526    12.507922614
C    0.893423044    11.614499570    11.614499570
X    2.680269132    13.401345658    11.614499570
C    2.680269132    11.614499570    13.401345658
X    0.893423044    13.401345658    13.401345658
C    3.573692175     0.000000000     0.000000000
X    5.360538263     1.786846088     0.000000000
X    3.573692175     1.786846088     1.786846088
C    5.360538263     0.000000000     1.786846088
C    4.467115219     0.893423044     0.893423044
X    6.253961307     2.680269132     0.893423044
C    6.253961307     0.893423044     2.680269132
X    4.467115219     2.680269132     2.680269132
C    3.573692175     0.000000000     3.573692175
X    5.360538263     1.786846088     3.573692175
X    3.573692175     1.786846088     5.360538263
C    5.360538263     0.000000000     5.360538263
C    4.467115219     0.893423044     4.467115219
X    6.253961307     2.680269132     4.467115219
C    6.253961307     0.893423044     6.253961307
X    4.467115219     2.680269132     6.253961307
C    3.573692175     0.000000000     7.147384351
X    5.360538263     1.786846088     7.147384351
X    3.573692175     1.786846088     8.934230438
C    5.360538263     0.000000000     8.934230438
C    4.467115219     0.893423044     8.040807395
X    6.253961307     2.680269132     8.040807395
C    6.253961307     0.893423044     9.827653482
X    4.467115219     2.680269132     9.827653482
C    3.573692175     0.000000000    10.721076526
X    5.360538263     1.786846088    10.721076526
X    3.573692175     1.786846088    12.507922614
C    5.360538263     0.000000000    12.507922614
C    4.467115219     0.893423044    11.614499570
X    6.253961307     2.680269132    11.614499570
C    6.253961307     0.893423044    13.401345658
X    4.467115219     2.680269132    13.401345658
C    3.573692175     3.573692175     0.000000000
X    5.360538263     5.360538263     0.000000000
X    3.573692175     5.360538263     1.786846088
C    5.360538263     3.573692175     1.786846088
C    4.467115219     4.467115219     0.893423044
X    6.253961307     6.253961307     0.893423044
C    6.253961307     4.467115219     2.680269132
X    4.467115219     6.253961307     2.680269132
N    3.573692175     3.573692175     3.573692175
X    5.360538263     5.360538263     3.573692175
X    3.573692175     5.360538263     5.360538263
C    5.360538263     3.573692175     5.360538263
X    6.253961307     6.253961307     4.467115219
C    6.253961307     4.467115219     6.253961307
X    4.467115219     6.253961307     6.253961307
C    3.573692175     3.573692175     7.147384351
X    5.360538263     5.360538263     7.147384351
X    3.573692175     5.360538263     8.934230438
C    5.360538263     3.573692175     8.934230438
C    4.467115219     4.467115219     8.040807395
X    6.253961307     6.253961307     8.040807395
C    6.253961307     4.467115219     9.827653482
X    4.467115219     6.253961307     9.827653482
C    3.573692175     3.573692175    10.721076526
X    5.360538263     5.360538263    10.721076526
X    3.573692175     5.360538263    12.507922614
C    5.360538263     3.573692175    12.507922614
C    4.467115219     4.467115219    11.614499570
X    6.253961307     6.253961307    11.614499570
C    6.253961307     4.467115219    13.401345658
X    4.467115219     6.253961307    13.401345658
C    3.573692175     7.147384351     0.000000000
X    5.360538263     8.934230438     0.000000000
X    3.573692175     8.934230438     1.786846088
C    5.360538263     7.147384351     1.786846088
C    4.467115219     8.040807395     0.893423044
X    6.253961307     9.827653482     0.893423044
C    6.253961307     8.040807395     2.680269132
X    4.467115219     9.827653482     2.680269132
C    3.573692175     7.147384351     3.573692175
X    5.360538263     8.934230438     3.573692175
X    3.573692175     8.934230438     5.360538263
C    5.360538263     7.147384351     5.360538263
C    4.467115219     8.040807395     4.467115219
X    6.253961307     9.827653482     4.467115219
C    6.253961307     8.040807395     6.253961307
X    4.467115219     9.827653482     6.253961307
C    3.573692175     7.147384351     7.147384351
X    5.360538263     8.934230438     7.147384351
X    3.573692175     8.934230438     8.934230438
C    5.360538263     7.147384351     8.934230438
C    4.467115219     8.040807395     8.040807395
X    6.253961307     9.827653482     8.040807395
C    6.253961307     8.040807395     9.827653482
X    4.467115219     9.827653482     9.827653482
C    3.573692175     7.147384351    10.721076526
X    5.360538263     8.934230438    10.721076526
X    3.573692175     8.934230438    12.507922614
C    5.360538263     7.147384351    12.507922614
C    4.467115219     8.040807395    11.614499570
X    6.253961307     9.827653482    11.614499570
C    6.253961307     8.040807395    13.401345658
X    4.467115219     9.827653482    13.401345658
C    3.573692175    10.721076526     0.000000000
X    5.360538263    12.507922614     0.000000000
X    3.573692175    12.507922614     1.786846088
C    5.360538263    10.721076526     1.786846088
C    4.467115219    11.614499570     0.893423044
X    6.253961307    13.401345658     0.893423044
C    6.253961307    11.614499570     2.680269132
X    4.467115219    13.401345658     2.680269132
C    3.573692175    10.721076526     3.573692175
X    5.360538263    12.507922614     3.573692175
X    3.573692175    12.507922614     5.360538263
C    5.360538263    10.721076526     5.360538263
C    4.467115219    11.614499570     4.467115219
X    6.253961307    13.401345658     4.467115219
C    6.253961307    11.614499570     6.253961307
X    4.467115219    13.401345658     6.253961307
C    3.573692175    10.721076526     7.147384351
X    5.360538263    12.507922614     7.147384351
X    3.573692175    12.507922614     8.934230438
C    5.360538263    10.721076526     8.934230438
C    4.467115219    11.614499570     8.040807395
X    6.253961307    13.401345658     8.040807395
C    6.253961307    11.614499570     9.827653482
X    4.467115219    13.401345658     9.827653482
C    3.573692175    10.721076526    10.721076526
X    5.360538263    12.507922614    10.721076526
X    3.573692175    12.507922614    12.507922614
C    5.360538263    10.721076526    12.507922614
C    4.467115219    11.614499570    11.614499570
X    6.253961307    13.401345658    11.614499570
C    6.253961307    11.614499570    13.401345658
X    4.467115219    13.401345658    13.401345658
C    7.147384351     0.000000000     0.000000000
X    8.934230438     1.786846088     0.000000000
X    7.147384351     1.786846088     1.786846088
C    8.934230438     0.000000000     1.786846088
C    8.040807395     0.893423044     0.893423044
X    9.827653482     2.680269132     0.893423044
C    9.827653482     0.893423044     2.680269132
X    8.040807395     2.680269132     2.680269132
C    7.147384351     0.000000000     3.573692175
X    8.934230438     1.786846088     3.573692175
X    7.147384351     1.786846088     5.360538263
C    8.934230438     0.000000000     5.360538263
C    8.040807395     0.893423044     4.467115219
X    9.827653482     2.680269132     4.467115219
C    9.827653482     0.893423044     6.253961307
X    8.040807395     2.680269132     6.253961307
C    7.147384351     0.000000000     7.147384351
X    8.934230438     1.786846088     7.147384351
X    7.147384351     1.786846088     8.934230438
C    8.934230438     0.000000000     8.934230438
C    8.040807395     0.893423044     8.040807395
X    9.827653482     2.680269132     8.040807395
C    9.827653482     0.893423044     9.827653482
X    8.040807395     2.680269132     9.827653482
C    7.147384351     0.000000000    10.721076526
X    8.934230438     1.786846088    10.721076526
X    7.147384351     1.786846088    12.507922614
C    8.934230438     0.000000000    12.507922614
C    8.040807395     0.893423044    11.614499570
X    9.827653482     2.680269132    11.614499570
C    9.827653482     0.893423044    13.401345658
X    8.040807395     2.680269132    13.401345658
C    7.147384351     3.573692175     0.000000000
X    8.934230438     5.360538263     0.000000000
X    7.147384351     5.360538263     1.786846088
C    8.934230438     3.573692175     1.786846088
C    8.040807395     4.467115219     0.893423044
X    9.827653482     6.253961307     0.893423044
C    9.827653482     4.467115219     2.680269132
X    8.040807395     6.253961307     2.680269132
C    7.147384351     3.573692175     3.573692175
X    8.934230438     5.360538263     3.573692175
X    7.147384351     5.360538263     5.360538263
C    8.934230438     3.573692175     5.360538263
C    8.040807395     4.467115219     4.467115219
X    9.827653482     6.253961307     4.467115219
C    9.827653482     4.467115219     6.253961307
X    8.040807395     6.253961307     6.253961307
C    7.147384351     3.573692175     7.147384351
X    8.934230438     5.360538263     7.147384351
X    7.147384351     5.360538263     8.934230438
C    8.934230438     3.573692175     8.934230438
C    8.040807395     4.467115219     8.040807395
X    9.827653482     6.253961307     8.040807395
C    9.827653482     4.467115219     9.827653482
X    8.040807395     6.253961307     9.827653482
C    7.147384351     3.573692175    10.721076526
X    8.934230438     5.360538263    10.721076526
X    7.147384351     5.360538263    12.507922614
C    8.934230438     3.573692175    12.507922614
C    8.040807395     4.467115219    11.614499570
X    9.827653482     6.253961307    11.614499570
C    9.827653482     4.467115219    13.401345658
X    8.040807395     6.253961307    13.401345658
C    7.147384351     7.147384351     0.000000000
X    8.934230438     8.934230438     0.000000000
X    7.147384351     8.934230438     1.786846088
C    8.934230438     7.147384351     1.786846088
C    8.040807395     8.040807395     0.893423044
X    9.827653482     9.827653482     0.893423044
C    9.827653482     8.040807395     2.680269132
X    8.040807395     9.827653482     2.680269132
C    7.147384351     7.147384351     3.573692175
X    8.934230438     8.934230438     3.573692175
X    7.147384351     8.934230438     5.360538263
C    8.934230438     7.147384351     5.360538263
C    8.040807395     8.040807395     4.467115219
X    9.827653482     9.827653482     4.467115219
C    9.827653482     8.040807395     6.253961307
X    8.040807395     9.827653482     6.253961307
C    7.147384351     7.147384351     7.147384351
X    8.934230438     8.934230438     7.147384351
X    7.147384351     8.934230438     8.934230438
C    8.934230438     7.147384351     8.934230438
C    8.040807395     8.040807395     8.040807395
X    9.827653482     9.827653482     8.040807395
C    9.827653482     8.040807395     9.827653482
X    8.040807395     9.827653482     9.827653482
C    7.147384351     7.147384351    10.721076526
X    8.934230438     8.934230438    10.721076526
X    7.147384351     8.934230438    12.507922614
C    8.934230438     7.147384351    12.507922614
C    8.040807395     8.040807395    11.614499570
X    9.827653482     9.827653482    11.614499570
C    9.827653482     8.040807395    13.401345658
X    8.040807395     9.827653482    13.401345658
C    7.147384351    10.721076526     0.000000000
X    8.934230438    12.507922614     0.000000000
X    7.147384351    12.507922614     1.786846088
C    8.934230438    10.721076526     1.786846088
C    8.040807395    11.614499570     0.893423044
X    9.827653482    13.401345658     0.893423044
C    9.827653482    11.614499570     2.680269132
X    8.040807395    13.401345658     2.680269132
C    7.147384351    10.721076526     3.573692175
X    8.934230438    12.507922614     3.573692175
X    7.147384351    12.507922614     5.360538263
C    8.934230438    10.721076526     5.360538263
C    8.040807395    11.614499570     4.467115219
X    9.827653482    13.401345658     4.467115219
C    9.827653482    11.614499570     6.253961307
X    8.040807395    13.401345658     6.253961307
C    7.147384351    10.721076526     7.147384351
X    8.934230438    12.507922614     7.147384351
X    7.147384351    12.507922614     8.934230438
C    8.934230438    10.721076526     8.934230438
C    8.040807395    11.614499570     8.040807395
X    9.827653482    13.401345658     8.040807395
C    9.827653482    11.614499570     9.827653482
X    8.040807395    13.401345658     9.827653482
C    7.147384351    10.721076526    10.721076526
X    8.934230438    12.507922614    10.721076526
X    7.147384351    12.507922614    12.507922614
C    8.934230438    10.721076526    12.507922614
C    8.040807395    11.614499570    11.614499570
X    9.827653482    13.401345658    11.614499570
C    9.827653482    11.614499570    13.401345658
X    8.040807395    13.401345658    13.401345658
C   10.721076526     0.000000000     0.000000000
X   12.507922614     1.786846088     0.000000000
X   10.721076526     1.786846088     1.786846088
C   12.507922614     0.000000000     1.786846088
C   11.614499570     0.893423044     0.893423044
X   13.401345658     2.680269132     0.893423044
C   13.401345658     0.893423044     2.680269132
X   11.614499570     2.680269132     2.680269132
C   10.721076526     0.000000000     3.573692175
X   12.507922614     1.786846088     3.573692175
X   10.721076526     1.786846088     5.360538263
C   12.507922614     0.000000000     5.360538263
C   11.614499570     0.893423044     4.467115219
X   13.401345658     2.680269132     4.467115219
C   13.401345658     0.893423044     6.253961307
X   11.614499570     2.680269132     6.253961307
C   10.721076526     0.000000000     7.147384351
X   12.507922614     1.786846088     7.147384351
X   10.721076526     1.786846088     8.934230438
C   12.507922614     0.000000000     8.934230438
C   11.614499570     0.893423044     8.040807395
X   13.401345658     2.680269132     8.040807395
C   13.401345658     0.893423044     9.827653482
X   11.614499570     2.680269132     9.827653482
C   10.721076526     0.000000000    10.721076526
X   12.507922614     1.786846088    10.721076526
X   10.721076526     1.786846088    12.507922614
C   12.507922614     0.000000000    12.507922614
C   11.614499570     0.893423044    11.614499570
X   13.401345658     2.680269132    11.614499570
C   13.401345658     0.893423044    13.401345658
X   11.614499570     2.680269132    13.401345658
C   10.721076526     3.573692175     0.000000000
X   12.507922614     5.360538263     0.000000000
X   10.721076526     5.360538263     1.786846088
C   12.507922614     3.573692175     1.786846088
C   11.614499570     4.467115219     0.893423044
X   13.401345658     6.253961307     0.893423044
C   13.401345658     4.467115219     2.680269132
X   11.614499570     6.253961307     2.680269132
C   10.721076526     3.573692175     3.573692175
X   12.507922614     5.360538263     3.573692175
X   10.721076526     5.360538263     5.360538263
C   12.507922614     3.573692175     5.360538263
C   11.614499570     4.467115219     4.467115219
X   13.401345658     6.253961307     4.467115219
C   13.401345658     4.467115219     6.253961307
X   11.614499570     6.253961307     6.253961307
C   10.721076526     3.573692175     7.147384351
X   12.507922614     5.360538263     7.147384351
X   10.721076526     5.360538263     8.934230438
C   12.507922614     3.573692175     8.934230438
C   11.614499570     4.467115219     8.040807395
X   13.401345658     6.253961307     8.040807395
C   13.401345658     4.467115219     9.827653482
X   11.614499570     6.253961307     9.827653482
C   10.721076526     3.573692175    10.721076526
X   12.507922614     5.360538263    10.721076526
X   10.721076526     5.360538263    12.507922614
C   12.507922614     3.573692175    12.507922614
C   11.614499570     4.467115219    11.614499570
X   13.401345658     6.253961307    11.614499570
C   13.401345658     4.467115219    13.401345658
X   11.614499570     6.253961307    13.401345658
C   10.721076526     7.147384351     0.000000000
X   12.507922614     8.934230438     0.000000000
X   10.721076526     8.934230438     1.786846088
C   12.507922614     7.147384351     1.786846088
C   11.614499570     8.040807395     0.893423044
X   13.401345658     9.827653482     0.893423044
C   13.401345658     8.040807395     2.680269132
X   11.614499570     9.827653482     2.680269132
C   10.721076526     7.147384351     3.573692175
X   12.507922614     8.934230438     3.573692175
X   10.721076526     8.934230438     5.360538263
C   12.507922614     7.147384351     5.360538263
C   11.614499570     8.040807395     4.467115219
X   13.401345658     9.827653482     4.467115219
C   13.401345658     8.040807395     6.253961307
X   11.614499570     9.827653482     6.253961307
C   10.721076526     7.147384351     7.147384351
X   12.507922614     8.934230438     7.147384351
X   10.721076526     8.934230438     8.934230438
C   12.507922614     7.147384351     8.934230438
C   11.614499570     8.040807395     8.040807395
X   13.401345658     9.827653482     8.040807395
C   13.401345658     8.040807395     9.827653482
X   11.614499570     9.827653482     9.827653482
C   10.721076526     7.147384351    10.721076526
X   12.507922614     8.934230438    10.721076526
X   10.721076526     8.934230438    12.507922614
C   12.507922614     7.147384351    12.507922614
C   11.614499570     8.040807395    11.614499570
X   13.401345658     9.827653482    11.614499570
C   13.401345658     8.040807395    13.401345658
X   11.614499570     9.827653482    13.401345658
C   10.721076526    10.721076526     0.000000000
X   12.507922614    12.507922614     0.000000000
X   10.721076526    12.507922614     1.786846088
C   12.507922614    10.721076526     1.786846088
C   11.614499570    11.614499570     0.893423044
X   13.401345658    13.401345658     0.893423044
C   13.401345658    11.614499570     2.680269132
X   11.614499570    13.401345658     2.680269132
C   10.721076526    10.721076526     3.573692175
X   12.507922614    12.507922614     3.573692175
X   10.721076526    12.507922614     5.360538263
C   12.507922614    10.721076526     5.360538263
C   11.614499570    11.614499570     4.467115219
X   13.401345658    13.401345658     4.467115219
C   13.401345658    11.614499570     6.253961307
X   11.614499570    13.401345658     6.253961307
C   10.721076526    10.721076526     7.147384351
X   12.507922614    12.507922614     7.147384351
X   10.721076526    12.507922614     8.934230438
C   12.507922614    10.721076526     8.934230438
C   11.614499570    11.614499570     8.040807395
X   13.401345658    13.401345658     8.040807395
C   13.401345658    11.614499570     9.827653482
X   11.614499570    13.401345658     9.827653482
C   10.721076526    10.721076526    10.721076526
X   12.507922614    12.507922614    10.721076526
X   10.721076526    12.507922614    12.507922614
C   12.507922614    10.721076526    12.507922614
C   11.614499570    11.614499570    11.614499570
X   13.401345658    13.401345658    11.614499570
C   13.401345658    11.614499570    13.401345658
X   11.614499570    13.401345658    13.401345658
