
     Program POST-PROC v.6.0 starts on  8Jan2017 at  2:30:37 

     This program is part of the open-source Quantum ESPRESSO suite
     for quantum simulation of materials; please cite
         "P. Giannozzi et al., J. Phys.:Condens. Matter 21 395502 (2009);
          URL http://www.quantum-espresso.org", 
     in publications or presentations arising from this work. More details at
     http://www.quantum-espresso.org/quote
 
           ARCH :    x86_64
             CC :    icc
            CPP :    cpp
            F90 :    ifort
            F77 :    ifort
         DFLAGS :    -D__INTEL -D__DFTI
      BLAS LIBS :    -lmkl_intel_lp64  -lmkl_sequential -lmkl_core
    LAPACK LIBS :    
       FFT LIBS :    
      MASS LIBS :    

     Parallel version (MPI & OpenMP), running on     384 processor cores
     Number of MPI processes:               192
     Threads/MPI process:                     2
     R & G space division:  proc/nbgrp/npool/nimage =     192

   Info: using nr1, nr2, nr3 values from input

   Info: using nr1, nr2, nr3 values from input

     IMPORTANT: XC functional enforced from input :
     Exchange-correlation      = PBE ( 1  4  3  4 0 0)
     Any further DFT definition will be discarded
     Please, verify this is what you really want

 
     Parallelization info
     --------------------
     sticks:   dense  smooth     PW     G-vecs:    dense   smooth      PW
     Min          96      96     23                 9896     9896    1228
     Max          98      98     26                 9914     9914    1248
     Sum       18545   18545   4645              1901441  1901441  237777
 
     Generating pointlists ...
     new r_m :   0.0447 (alat units)  1.2054 (a.u.) for type    1
     new r_m :   0.0447 (alat units)  1.2054 (a.u.) for type    2

     Calling punch_plot, plot_num =   0
     Writing data to file  plots/bulk_el_psch_den.dat
     Reading data from file  plots/bulk_el_psch_den.dat

     Writing data to be plotted to file plots/bulk_el_psch_den.xsf
     Plot Type: 3D                     Output format: XCrySDen     
 
     POST-PROC    :     7.01s CPU        10.25s WALL

 
   This run was terminated on:   2:30:47   8Jan2017            

=------------------------------------------------------------------------------=
   JOB DONE.
=------------------------------------------------------------------------------=
