
     Program PWSCF v.6.0 starts on 27Dec2016 at  0:48:48 

     This program is part of the open-source Quantum ESPRESSO suite
     for quantum simulation of materials; please cite
         "P. Giannozzi et al., J. Phys.:Condens. Matter 21 395502 (2009);
          URL http://www.quantum-espresso.org", 
     in publications or presentations arising from this work. More details at
     http://www.quantum-espresso.org/quote
 
           ARCH :    x86_64
             CC :    icc
            CPP :    cpp
            F90 :    ifort
            F77 :    ifort
         DFLAGS :    -D__INTEL -D__DFTI
      BLAS LIBS :    -lmkl_intel_lp64  -lmkl_sequential -lmkl_core
    LAPACK LIBS :    
       FFT LIBS :    
      MASS LIBS :    

     Parallel version (MPI & OpenMP), running on     128 processor cores
     Number of MPI processes:                64
     Threads/MPI process:                     2
     R & G space division:  proc/nbgrp/npool/nimage =      64
     Reading input from supercell-078.in

     Current dimensions of program PWSCF are:
     Max number of different atomic species (ntypx) = 10
     Max number of k-points (npk) =  40000
     Max angular momentum in pseudopotentials (lmaxx) =  3

     Subspace diagonalization in iterative solution of the eigenvalue problem:
     one sub-group per band group will be used
     scalapack distributed-memory algorithm (size of sub-group:  5*  5 procs)

 
     Parallelization info
     --------------------
     sticks:   dense  smooth     PW     G-vecs:    dense   smooth      PW
     Min          72      72     19                 3712     3712     527
     Max          73      73     20                 3719     3719     532
     Sum        4645    4645   1265               237777   237777   33881
 


     bravais-lattice index     =            0
     lattice parameter (alat)  =      13.4970  a.u.
     unit-cell volume          =    2458.7263 (a.u.)^3
     number of atoms/cell      =           63
     number of atomic types    =            2
     number of electrons       =       254.00 (up: 128.00, down: 126.00)
     number of Kohn-Sham states=          128
     kinetic-energy cutoff     =      80.0000  Ry
     charge density cutoff     =     320.0000  Ry
     convergence threshold     =      1.0E-08
     mixing beta               =       0.7000
     number of iterations used =            8  plain     mixing
     Exchange-correlation      = PBE ( 1  4  3  4 0 0)

     celldm(1)=  13.496984  celldm(2)=   0.000000  celldm(3)=   0.000000
     celldm(4)=   0.000000  celldm(5)=   0.000000  celldm(6)=   0.000000

     crystal axes: (cart. coord. in units of alat)
               a(1) = (   1.000000   0.000000   0.000000 )  
               a(2) = (   0.000000   1.000000   0.000000 )  
               a(3) = (   0.000000   0.000000   1.000000 )  

     reciprocal axes: (cart. coord. in units 2 pi/alat)
               b(1) = (  1.000000  0.000000  0.000000 )  
               b(2) = (  0.000000  1.000000  0.000000 )  
               b(3) = (  0.000000  0.000000  1.000000 )  


     PseudoPot. # 1 for C  read from file:
     ../../psps/C_pbe_v1.2.uspp.F.UPF
     MD5 check sum: d1aef80898a10debaa0f26306b886e00
     Pseudo is Ultrasoft + core correction, Zval =  4.0
     Generated by new atomic code, or converted to UPF format
     Using radial grid of  721 points,  4 beta functions with: 
                l(1) =   0
                l(2) =   0
                l(3) =   1
                l(4) =   1
     Q(r) pseudized with  8 coefficients,  rinner =    1.100   1.100   1.100


     PseudoPot. # 2 for  N read from file:
     ../../psps/N.pbe.theos.UPF
     MD5 check sum: 1fde47ee573fe9ed3106b9b4217eb757
     Pseudo is Ultrasoft + core correction, Zval =  5.0
     Generated using "atomic" code by A. Dal Corso  v.5.1
     Using radial grid of 1085 points,  4 beta functions with: 
                l(1) =   0
                l(2) =   0
                l(3) =   1
                l(4) =   1
     Q(r) pseudized with 0 coefficients 


     atomic species   valence    mass     pseudopotential
        C              4.00    12.01070     C ( 1.00)
        N              5.00    14.00670      N( 1.00)

     Starting magnetic structure 
     atomic species   magnetization
        C            0.000
        N            0.000

      2 Sym. Ops. (no inversion) found


                                    s                        frac. trans.

      isym =  1     identity                                     

 cryst.   s( 1) = (     1          0          0      )
                  (     0          1          0      )
                  (     0          0          1      )

 cart.    s( 1) = (  1.0000000  0.0000000  0.0000000 )
                  (  0.0000000  1.0000000  0.0000000 )
                  (  0.0000000  0.0000000  1.0000000 )


      isym =  2     inv. 180 deg rotation - cart. axis [1,-1,0]  

 cryst.   s( 2) = (     0          1          0      )
                  (     1          0          0      )
                  (     0          0          1      )

 cart.    s( 2) = (  0.0000000  1.0000000  0.0000000 )
                  (  1.0000000  0.0000000  0.0000000 )
                  (  0.0000000  0.0000000  1.0000000 )


   Cartesian axes

     site n.     atom                  positions (alat units)
         1           C   tau(   1) = (   0.9999240   0.9999240   0.9999240  )
         2           C   tau(   2) = (   0.5010187   0.0009765   0.0009765  )
         3           C   tau(   3) = (   0.0009765   0.5010187   0.0009765  )
         4           C   tau(   4) = (   0.5005495   0.5005495   0.9989103  )
         5           C   tau(   5) = (   0.0009765   0.0009765   0.5010187  )
         6           C   tau(   6) = (   0.5005495   0.9989103   0.5005495  )
         7           C   tau(   7) = (   0.9989103   0.5005495   0.5005495  )
         8           N   tau(   8) = (   0.4886469   0.4886469   0.4886469  )
         9           C   tau(   9) = (   0.2501784   0.2501784   0.9990836  )
        10           C   tau(  10) = (   0.7493271   0.2498095   0.0005958  )
        11           C   tau(  11) = (   0.2498095   0.7493271   0.0005958  )
        12           C   tau(  12) = (   0.7500802   0.7500802   0.9998954  )
        13           C   tau(  13) = (   0.2485154   0.2485154   0.4996594  )
        14           C   tau(  14) = (   0.7478087   0.2522378   0.5012677  )
        15           C   tau(  15) = (   0.2522378   0.7478087   0.5012677  )
        16           C   tau(  16) = (   0.7589111   0.7589111   0.4947246  )
        17           C   tau(  17) = (   0.9990836   0.2501784   0.2501784  )
        18           C   tau(  18) = (   0.4996594   0.2485154   0.2485154  )
        19           C   tau(  19) = (   0.0005958   0.7493271   0.2498095  )
        20           C   tau(  20) = (   0.5012677   0.7478087   0.2522378  )
        21           C   tau(  21) = (   0.0005958   0.2498095   0.7493271  )
        22           C   tau(  22) = (   0.5012677   0.2522378   0.7478087  )
        23           C   tau(  23) = (   0.9998954   0.7500802   0.7500802  )
        24           C   tau(  24) = (   0.4947246   0.7589111   0.7589111  )
        25           C   tau(  25) = (   0.2501784   0.9990836   0.2501784  )
        26           C   tau(  26) = (   0.7493271   0.0005958   0.2498095  )
        27           C   tau(  27) = (   0.2485154   0.4996594   0.2485154  )
        28           C   tau(  28) = (   0.7478087   0.5012677   0.2522378  )
        29           C   tau(  29) = (   0.2498095   0.0005958   0.7493271  )
        30           C   tau(  30) = (   0.7500802   0.9998954   0.7500802  )
        31           C   tau(  31) = (   0.2522378   0.5012677   0.7478087  )
        32           C   tau(  32) = (   0.7589111   0.4947246   0.7589111  )
        33           C   tau(  33) = (   0.1248604   0.1248604   0.1248604  )
        34           C   tau(  34) = (   0.6249567   0.1250370   0.1250370  )
        35           C   tau(  35) = (   0.1250370   0.6249567   0.1250370  )
        36           C   tau(  36) = (   0.6251416   0.6251416   0.1251297  )
        37           C   tau(  37) = (   0.1250370   0.1250370   0.6249567  )
        38           C   tau(  38) = (   0.6251416   0.1251297   0.6251416  )
        39           C   tau(  39) = (   0.1251297   0.6251416   0.6251416  )
        40           C   tau(  40) = (   0.3749530   0.3749530   0.1236879  )
        41           C   tau(  41) = (   0.8739188   0.3754093   0.1259121  )
        42           C   tau(  42) = (   0.3754093   0.8739188   0.1259121  )
        43           C   tau(  43) = (   0.8748955   0.8748955   0.1252650  )
        44           C   tau(  44) = (   0.3753579   0.3753579   0.6191599  )
        45           C   tau(  45) = (   0.8730563   0.3777595   0.6264949  )
        46           C   tau(  46) = (   0.3777595   0.8730563   0.6264949  )
        47           C   tau(  47) = (   0.8746529   0.8746529   0.6229026  )
        48           C   tau(  48) = (   0.3749530   0.1236879   0.3749530  )
        49           C   tau(  49) = (   0.8739188   0.1259121   0.3754093  )
        50           C   tau(  50) = (   0.3753579   0.6191599   0.3753579  )
        51           C   tau(  51) = (   0.8730563   0.6264949   0.3777595  )
        52           C   tau(  52) = (   0.3754093   0.1259121   0.8739188  )
        53           C   tau(  53) = (   0.8748955   0.1252650   0.8748955  )
        54           C   tau(  54) = (   0.3777595   0.6264949   0.8730563  )
        55           C   tau(  55) = (   0.8746529   0.6243844   0.8746529  )
        56           C   tau(  56) = (   0.1236879   0.3749530   0.3749530  )
        57           C   tau(  57) = (   0.6191599   0.3753579   0.3753579  )
        58           C   tau(  58) = (   0.1259121   0.8739188   0.3754093  )
        59           C   tau(  59) = (   0.6264949   0.8730563   0.3777595  )
        60           C   tau(  60) = (   0.1259121   0.3754093   0.8739188  )
        61           C   tau(  61) = (   0.6264949   0.3777595   0.8730563  )
        62           C   tau(  62) = (   0.1252650   0.8748955   0.8748955  )
        63           C   tau(  63) = (   0.6243844   0.8746529   0.8746529  )

   Crystallographic axes

     site n.     atom                  positions (cryst. coord.)
         1           C   tau(   1) = (  0.9999240  0.9999240  0.9999240  )
         2           C   tau(   2) = (  0.5010187  0.0009765  0.0009765  )
         3           C   tau(   3) = (  0.0009765  0.5010187  0.0009765  )
         4           C   tau(   4) = (  0.5005495  0.5005495  0.9989103  )
         5           C   tau(   5) = (  0.0009765  0.0009765  0.5010187  )
         6           C   tau(   6) = (  0.5005495  0.9989103  0.5005495  )
         7           C   tau(   7) = (  0.9989103  0.5005495  0.5005495  )
         8           N   tau(   8) = (  0.4886469  0.4886469  0.4886469  )
         9           C   tau(   9) = (  0.2501784  0.2501784  0.9990836  )
        10           C   tau(  10) = (  0.7493271  0.2498095  0.0005958  )
        11           C   tau(  11) = (  0.2498095  0.7493271  0.0005958  )
        12           C   tau(  12) = (  0.7500802  0.7500802  0.9998954  )
        13           C   tau(  13) = (  0.2485154  0.2485154  0.4996594  )
        14           C   tau(  14) = (  0.7478087  0.2522378  0.5012677  )
        15           C   tau(  15) = (  0.2522378  0.7478087  0.5012677  )
        16           C   tau(  16) = (  0.7589111  0.7589111  0.4947246  )
        17           C   tau(  17) = (  0.9990836  0.2501784  0.2501784  )
        18           C   tau(  18) = (  0.4996594  0.2485154  0.2485154  )
        19           C   tau(  19) = (  0.0005958  0.7493271  0.2498095  )
        20           C   tau(  20) = (  0.5012677  0.7478087  0.2522378  )
        21           C   tau(  21) = (  0.0005958  0.2498095  0.7493271  )
        22           C   tau(  22) = (  0.5012677  0.2522378  0.7478087  )
        23           C   tau(  23) = (  0.9998954  0.7500802  0.7500802  )
        24           C   tau(  24) = (  0.4947246  0.7589111  0.7589111  )
        25           C   tau(  25) = (  0.2501784  0.9990836  0.2501784  )
        26           C   tau(  26) = (  0.7493271  0.0005958  0.2498095  )
        27           C   tau(  27) = (  0.2485154  0.4996594  0.2485154  )
        28           C   tau(  28) = (  0.7478087  0.5012677  0.2522378  )
        29           C   tau(  29) = (  0.2498095  0.0005958  0.7493271  )
        30           C   tau(  30) = (  0.7500802  0.9998954  0.7500802  )
        31           C   tau(  31) = (  0.2522378  0.5012677  0.7478087  )
        32           C   tau(  32) = (  0.7589111  0.4947246  0.7589111  )
        33           C   tau(  33) = (  0.1248604  0.1248604  0.1248604  )
        34           C   tau(  34) = (  0.6249567  0.1250370  0.1250370  )
        35           C   tau(  35) = (  0.1250370  0.6249567  0.1250370  )
        36           C   tau(  36) = (  0.6251416  0.6251416  0.1251297  )
        37           C   tau(  37) = (  0.1250370  0.1250370  0.6249567  )
        38           C   tau(  38) = (  0.6251416  0.1251297  0.6251416  )
        39           C   tau(  39) = (  0.1251297  0.6251416  0.6251416  )
        40           C   tau(  40) = (  0.3749530  0.3749530  0.1236879  )
        41           C   tau(  41) = (  0.8739188  0.3754093  0.1259121  )
        42           C   tau(  42) = (  0.3754093  0.8739188  0.1259121  )
        43           C   tau(  43) = (  0.8748955  0.8748955  0.1252650  )
        44           C   tau(  44) = (  0.3753579  0.3753579  0.6191599  )
        45           C   tau(  45) = (  0.8730563  0.3777595  0.6264949  )
        46           C   tau(  46) = (  0.3777595  0.8730563  0.6264949  )
        47           C   tau(  47) = (  0.8746529  0.8746529  0.6229026  )
        48           C   tau(  48) = (  0.3749530  0.1236879  0.3749530  )
        49           C   tau(  49) = (  0.8739188  0.1259121  0.3754093  )
        50           C   tau(  50) = (  0.3753579  0.6191599  0.3753579  )
        51           C   tau(  51) = (  0.8730563  0.6264949  0.3777595  )
        52           C   tau(  52) = (  0.3754093  0.1259121  0.8739188  )
        53           C   tau(  53) = (  0.8748955  0.1252650  0.8748955  )
        54           C   tau(  54) = (  0.3777595  0.6264949  0.8730563  )
        55           C   tau(  55) = (  0.8746529  0.6243844  0.8746529  )
        56           C   tau(  56) = (  0.1236879  0.3749530  0.3749530  )
        57           C   tau(  57) = (  0.6191599  0.3753579  0.3753579  )
        58           C   tau(  58) = (  0.1259121  0.8739188  0.3754093  )
        59           C   tau(  59) = (  0.6264949  0.8730563  0.3777595  )
        60           C   tau(  60) = (  0.1259121  0.3754093  0.8739188  )
        61           C   tau(  61) = (  0.6264949  0.3777595  0.8730563  )
        62           C   tau(  62) = (  0.1252650  0.8748955  0.8748955  )
        63           C   tau(  63) = (  0.6243844  0.8746529  0.8746529  )

     number of k points=     6
                       cart. coord. in units 2pi/alat
        k(    1) = (   0.0000000   0.0000000   0.0000000), wk =   0.1250000
        k(    2) = (   0.0000000   0.0000000  -0.5000000), wk =   0.1250000
        k(    3) = (   0.0000000  -0.5000000  -0.5000000), wk =   0.2500000
        k(    4) = (  -0.5000000  -0.5000000  -0.5000000), wk =   0.1250000
        k(    5) = (  -0.5000000   0.0000000   0.0000000), wk =   0.2500000
        k(    6) = (  -0.5000000   0.5000000   0.0000000), wk =   0.1250000

                       cryst. coord.
        k(    1) = (   0.0000000   0.0000000   0.0000000), wk =   0.1250000
        k(    2) = (   0.0000000   0.0000000  -0.5000000), wk =   0.1250000
        k(    3) = (   0.0000000  -0.5000000  -0.5000000), wk =   0.2500000
        k(    4) = (  -0.5000000  -0.5000000  -0.5000000), wk =   0.1250000
        k(    5) = (  -0.5000000   0.0000000   0.0000000), wk =   0.2500000
        k(    6) = (  -0.5000000   0.5000000   0.0000000), wk =   0.1250000

     Dense  grid:   237777 G-vectors     FFT dimensions: (  80,  80,  80)

     Estimated max dynamical RAM per process >      27.95Mb

     Estimated total allocated dynamical RAM >    1788.57Mb
     Generating pointlists ...
     new r_m :   0.0852 (alat units)  1.1505 (a.u.) for type    1
     new r_m :   0.0852 (alat units)  1.1505 (a.u.) for type    2

     Initial potential from superposition of free atoms

     starting charge  252.99748, renormalised to  254.00000
     Starting wfc are  252 randomized atomic wfcs

     total cpu time spent up to now is        5.9 secs

     per-process dynamical memory:    36.0 Mb

     Self-consistent Calculation

     iteration #  1     ecut=    80.00 Ry     beta=0.70
     Davidson diagonalization with overlap
     ethr =  1.00E-02,  avg # of iterations =  2.0

     total cpu time spent up to now is       15.3 secs

     total energy              =    -730.15235928 Ry
     Harris-Foulkes estimate   =    -731.82815500 Ry
     estimated scf accuracy    <       3.71369413 Ry

     total magnetization       =     2.00 Bohr mag/cell
     absolute magnetization    =     2.00 Bohr mag/cell

     iteration #  2     ecut=    80.00 Ry     beta=0.70
     Davidson diagonalization with overlap
     ethr =  1.46E-03,  avg # of iterations =  3.0

     total cpu time spent up to now is       23.8 secs

     total energy              =    -730.36838018 Ry
     Harris-Foulkes estimate   =    -730.57222651 Ry
     estimated scf accuracy    <       0.31495333 Ry

     total magnetization       =     2.00 Bohr mag/cell
     absolute magnetization    =     2.05 Bohr mag/cell

     iteration #  3     ecut=    80.00 Ry     beta=0.70
     Davidson diagonalization with overlap
     ethr =  1.24E-04,  avg # of iterations =  3.9

     total cpu time spent up to now is       36.2 secs

     total energy              =    -730.38016802 Ry
     Harris-Foulkes estimate   =    -730.65149456 Ry
     estimated scf accuracy    <       0.61632939 Ry

     total magnetization       =     2.00 Bohr mag/cell
     absolute magnetization    =     2.11 Bohr mag/cell

     iteration #  4     ecut=    80.00 Ry     beta=0.70
     Davidson diagonalization with overlap
     ethr =  1.24E-04,  avg # of iterations =  3.1

     total cpu time spent up to now is       46.1 secs

     total energy              =    -730.50991168 Ry
     Harris-Foulkes estimate   =    -730.51710559 Ry
     estimated scf accuracy    <       0.01855142 Ry

     total magnetization       =     2.00 Bohr mag/cell
     absolute magnetization    =     2.15 Bohr mag/cell

     iteration #  5     ecut=    80.00 Ry     beta=0.70
     Davidson diagonalization with overlap
     ethr =  7.30E-06,  avg # of iterations =  3.0

     total cpu time spent up to now is       55.7 secs

     total energy              =    -730.51451651 Ry
     Harris-Foulkes estimate   =    -730.51540631 Ry
     estimated scf accuracy    <       0.00268371 Ry

     total magnetization       =     2.00 Bohr mag/cell
     absolute magnetization    =     2.17 Bohr mag/cell

     iteration #  6     ecut=    80.00 Ry     beta=0.70
     Davidson diagonalization with overlap
     ethr =  1.06E-06,  avg # of iterations =  3.1

     total cpu time spent up to now is       65.4 secs

     total energy              =    -730.51514283 Ry
     Harris-Foulkes estimate   =    -730.51522534 Ry
     estimated scf accuracy    <       0.00026752 Ry

     total magnetization       =     2.00 Bohr mag/cell
     absolute magnetization    =     2.19 Bohr mag/cell

     iteration #  7     ecut=    80.00 Ry     beta=0.70
     Davidson diagonalization with overlap
     ethr =  1.05E-07,  avg # of iterations =  3.0

     total cpu time spent up to now is       75.6 secs

     total energy              =    -730.51522982 Ry
     Harris-Foulkes estimate   =    -730.51524222 Ry
     estimated scf accuracy    <       0.00006448 Ry

     total magnetization       =     2.00 Bohr mag/cell
     absolute magnetization    =     2.21 Bohr mag/cell

     iteration #  8     ecut=    80.00 Ry     beta=0.70
     Davidson diagonalization with overlap
     ethr =  2.54E-08,  avg # of iterations =  3.3

     total cpu time spent up to now is       85.5 secs

     total energy              =    -730.51524969 Ry
     Harris-Foulkes estimate   =    -730.51525045 Ry
     estimated scf accuracy    <       0.00001360 Ry

     total magnetization       =     2.00 Bohr mag/cell
     absolute magnetization    =     2.21 Bohr mag/cell

     iteration #  9     ecut=    80.00 Ry     beta=0.70
     Davidson diagonalization with overlap
     ethr =  5.35E-09,  avg # of iterations =  3.0

     total cpu time spent up to now is       95.5 secs

     total energy              =    -730.51525438 Ry
     Harris-Foulkes estimate   =    -730.51525424 Ry
     estimated scf accuracy    <       0.00000206 Ry

     total magnetization       =     2.00 Bohr mag/cell
     absolute magnetization    =     2.22 Bohr mag/cell

     iteration # 10     ecut=    80.00 Ry     beta=0.70
     Davidson diagonalization with overlap
     ethr =  8.12E-10,  avg # of iterations =  3.2

     total cpu time spent up to now is      105.6 secs

     total energy              =    -730.51525510 Ry
     Harris-Foulkes estimate   =    -730.51525518 Ry
     estimated scf accuracy    <       0.00000093 Ry

     total magnetization       =     2.00 Bohr mag/cell
     absolute magnetization    =     2.22 Bohr mag/cell

     iteration # 11     ecut=    80.00 Ry     beta=0.70
     Davidson diagonalization with overlap
     ethr =  3.67E-10,  avg # of iterations =  3.2

     total cpu time spent up to now is      115.2 secs

     total energy              =    -730.51525540 Ry
     Harris-Foulkes estimate   =    -730.51525541 Ry
     estimated scf accuracy    <       0.00000016 Ry

     total magnetization       =     2.00 Bohr mag/cell
     absolute magnetization    =     2.23 Bohr mag/cell

     iteration # 12     ecut=    80.00 Ry     beta=0.70
     Davidson diagonalization with overlap
     ethr =  6.37E-11,  avg # of iterations =  3.5

     total cpu time spent up to now is      126.2 secs

     total energy              =    -730.51525547 Ry
     Harris-Foulkes estimate   =    -730.51525546 Ry
     estimated scf accuracy    <       0.00000001 Ry

     total magnetization       =     2.00 Bohr mag/cell
     absolute magnetization    =     2.23 Bohr mag/cell

     iteration # 13     ecut=    80.00 Ry     beta=0.70
     Davidson diagonalization with overlap
     ethr =  5.12E-12,  avg # of iterations =  3.0
 
     Magnetic moment per site:
     atom:    1    charge:    1.8114    magn:    0.0035    constr:    0.0000
     atom:    2    charge:    1.8094    magn:    0.0168    constr:    0.0000
     atom:    3    charge:    1.8094    magn:    0.0168    constr:    0.0000
     atom:    4    charge:    1.8113    magn:    0.0062    constr:    0.0000
     atom:    5    charge:    1.8114    magn:    0.0168    constr:    0.0000
     atom:    6    charge:    1.8113    magn:    0.0062    constr:    0.0000
     atom:    7    charge:    1.8113    magn:    0.0062    constr:    0.0000
     atom:    8    charge:    2.9033    magn:    0.0025    constr:    0.0000
     atom:    9    charge:    1.8129    magn:    0.0029    constr:    0.0000
     atom:   10    charge:    1.8096    magn:    0.0190    constr:    0.0000
     atom:   11    charge:    1.8096    magn:    0.0190    constr:    0.0000
     atom:   12    charge:    1.8098    magn:    0.0076    constr:    0.0000
     atom:   13    charge:    1.8220    magn:    0.0016    constr:    0.0000
     atom:   14    charge:    1.8067    magn:    0.0052    constr:    0.0000
     atom:   15    charge:    1.8067    magn:    0.0052    constr:    0.0000
     atom:   16    charge:    1.8184    magn:    0.2463    constr:    0.0000
     atom:   17    charge:    1.8129    magn:    0.0029    constr:    0.0000
     atom:   18    charge:    1.8220    magn:    0.0017    constr:    0.0000
     atom:   19    charge:    1.8096    magn:    0.0188    constr:    0.0000
     atom:   20    charge:    1.8067    magn:    0.0051    constr:    0.0000
     atom:   21    charge:    1.8096    magn:    0.0190    constr:    0.0000
     atom:   22    charge:    1.8067    magn:    0.0052    constr:    0.0000
     atom:   23    charge:    1.8079    magn:    0.0077    constr:    0.0000
     atom:   24    charge:    1.8156    magn:    0.2481    constr:    0.0000
     atom:   25    charge:    1.8129    magn:    0.0029    constr:    0.0000
     atom:   26    charge:    1.8096    magn:    0.0188    constr:    0.0000
     atom:   27    charge:    1.8220    magn:    0.0017    constr:    0.0000
     atom:   28    charge:    1.8067    magn:    0.0051    constr:    0.0000
     atom:   29    charge:    1.8096    magn:    0.0190    constr:    0.0000
     atom:   30    charge:    1.8079    magn:    0.0077    constr:    0.0000
     atom:   31    charge:    1.8067    magn:    0.0052    constr:    0.0000
     atom:   32    charge:    1.8156    magn:    0.2481    constr:    0.0000
     atom:   33    charge:    1.8072    magn:   -0.0001    constr:    0.0000
     atom:   34    charge:    1.8256    magn:    0.0076    constr:    0.0000
     atom:   35    charge:    1.8256    magn:    0.0076    constr:    0.0000
     atom:   36    charge:    1.8149    magn:   -0.0013    constr:    0.0000
     atom:   37    charge:    1.8256    magn:    0.0075    constr:    0.0000
     atom:   38    charge:    1.8150    magn:   -0.0014    constr:    0.0000
     atom:   39    charge:    1.8150    magn:   -0.0014    constr:    0.0000
     atom:   40    charge:    1.8108    magn:   -0.0010    constr:    0.0000
     atom:   41    charge:    1.8042    magn:   -0.0014    constr:    0.0000
     atom:   42    charge:    1.8042    magn:   -0.0014    constr:    0.0000
     atom:   43    charge:    1.8100    magn:   -0.0015    constr:    0.0000
     atom:   44    charge:    1.7925    magn:    0.0010    constr:    0.0000
     atom:   45    charge:    1.8151    magn:   -0.0031    constr:    0.0000
     atom:   46    charge:    1.8151    magn:   -0.0031    constr:    0.0000
     atom:   47    charge:    1.8216    magn:   -0.0075    constr:    0.0000
     atom:   48    charge:    1.8108    magn:   -0.0010    constr:    0.0000
     atom:   49    charge:    1.8043    magn:   -0.0014    constr:    0.0000
     atom:   50    charge:    1.7924    magn:    0.0010    constr:    0.0000
     atom:   51    charge:    1.8151    magn:   -0.0030    constr:    0.0000
     atom:   52    charge:    1.8042    magn:   -0.0014    constr:    0.0000
     atom:   53    charge:    1.8099    magn:   -0.0015    constr:    0.0000
     atom:   54    charge:    1.8151    magn:   -0.0031    constr:    0.0000
     atom:   55    charge:    1.8200    magn:   -0.0076    constr:    0.0000
     atom:   56    charge:    1.8108    magn:   -0.0010    constr:    0.0000
     atom:   57    charge:    1.7924    magn:    0.0010    constr:    0.0000
     atom:   58    charge:    1.8043    magn:   -0.0014    constr:    0.0000
     atom:   59    charge:    1.8151    magn:   -0.0030    constr:    0.0000
     atom:   60    charge:    1.8042    magn:   -0.0014    constr:    0.0000
     atom:   61    charge:    1.8151    magn:   -0.0031    constr:    0.0000
     atom:   62    charge:    1.8099    magn:   -0.0015    constr:    0.0000
     atom:   63    charge:    1.8200    magn:   -0.0076    constr:    0.0000

     total cpu time spent up to now is      137.3 secs

     End of self-consistent calculation

 ------ SPIN UP ------------


          k = 0.0000 0.0000 0.0000 ( 29711 PWs)   bands (ev):

    -8.5720  -7.0113  -6.2776  -6.2773  -6.1752  -6.1714  -5.8951  -4.9562
    -4.1392  -4.1387  -4.1115  -4.1108  -4.0508  -4.0434  -4.0083  -3.9391
    -3.8870  -3.8863  -3.3811  -2.9851  -2.7006  -2.6984  -2.1419  -0.3872
    -0.3858  -0.3520  -0.3224  -0.1300   0.1546   0.1548   0.2585   0.2586
     0.3359   0.5653   0.7902   0.7919   0.9437   0.9505   0.9763   1.0034
     1.0046   1.0361   1.2546   1.2625   2.9829   3.8617   3.8647   3.9960
     4.1964   4.2007   4.2018   4.2034   4.2379   4.2410   4.3792   4.3828
     4.4565   4.4594   4.5709   4.6305   4.6323   4.6338   4.6364   4.7171
     4.7200   4.8545   4.9089   4.9098   5.0106   5.1846   5.1858   5.2561
     5.3151   5.3190   5.3563   5.3747   5.3765   5.9709   5.9712   6.0004
     6.5719   6.5772   6.6957   6.9481   6.9701   6.9708   7.3978   8.2635
     8.2706   8.3408   8.4229   8.4239   8.6003   8.6007   8.7593   8.7683
     8.7782   8.7786   8.8184   8.8244   8.8578   9.2194   9.2243   9.2257
     9.6531   9.6533   9.8588   9.8613   9.8645   9.8813   9.9057   9.9316
     9.9333   9.9370   9.9525   9.9533  10.0626  10.0630  10.1701  10.1891
    10.2638  10.7854  12.1150  12.3637  12.3738  13.6772  14.7169  14.7171

     occupation numbers 
     1.0000   1.0000   1.0000   1.0000   1.0000   1.0000   1.0000   1.0000
     1.0000   1.0000   1.0000   1.0000   1.0000   1.0000   1.0000   1.0000
     1.0000   1.0000   1.0000   1.0000   1.0000   1.0000   1.0000   1.0000
     1.0000   1.0000   1.0000   1.0000   1.0000   1.0000   1.0000   1.0000
     1.0000   1.0000   1.0000   1.0000   1.0000   1.0000   1.0000   1.0000
     1.0000   1.0000   1.0000   1.0000   1.0000   1.0000   1.0000   1.0000
     1.0000   1.0000   1.0000   1.0000   1.0000   1.0000   1.0000   1.0000
     1.0000   1.0000   1.0000   1.0000   1.0000   1.0000   1.0000   1.0000
     1.0000   1.0000   1.0000   1.0000   1.0000   1.0000   1.0000   1.0000
     1.0000   1.0000   1.0000   1.0000   1.0000   1.0000   1.0000   1.0000
     1.0000   1.0000   1.0000   1.0000   1.0000   1.0000   1.0000   1.0000
     1.0000   1.0000   1.0000   1.0000   1.0000   1.0000   1.0000   1.0000
     1.0000   1.0000   1.0000   1.0000   1.0000   1.0000   1.0000   1.0000
     1.0000   1.0000   1.0000   1.0000   1.0000   1.0000   1.0000   1.0000
     1.0000   1.0000   1.0000   1.0000   1.0000   1.0000   1.0000   1.0000
     1.0000   1.0000   1.0000   1.0000   1.0000   1.0000   1.0000   1.0000

          k = 0.0000 0.0000-0.5000 ( 29686 PWs)   bands (ev):

    -8.1680  -7.8534  -6.5685  -5.7745  -5.6995  -5.6845  -5.6709  -5.6467
    -5.5274  -5.1912  -4.2541  -3.6711  -3.6520  -3.6165  -3.5868  -3.5167
    -3.4453  -3.3880  -3.3831  -2.8084  -1.9892  -1.6297  -1.6172  -1.5960
    -1.5427  -1.4683  -1.4043  -0.8010   0.2627   0.3603   0.4256   0.4518
     0.5170   0.5919   0.7231   0.9997   1.2185   1.3282   1.3362   1.3836
     1.5381   1.6295   1.6435   1.9566   2.3630   2.4100   2.4417   2.5381
     2.5591   2.7454   2.7588   3.7893   3.8940   3.9902   4.0571   4.0740
     4.1109   4.1806   4.3825   4.4151   4.4893   5.3085   5.4824   5.5459
     5.5470   5.5829   5.6949   5.7350   5.7979   5.8499   6.2595   6.2697
     6.4098   6.4122   6.4300   6.5765   6.6810   6.9528   7.0747   7.1056
     7.1637   7.1926   7.2789   7.3374   7.3918   7.3966   7.3991   7.4256
     7.4356   7.4456   7.4730   7.5068   7.5224   7.5457   7.8527   8.0003
     8.0264   8.0470   8.2005   8.2571   8.3157   8.3545   8.7623   8.9402
     9.3509   9.6563   9.6806   9.8544   9.9030   9.9332   9.9482   9.9583
     9.9933   9.9986  10.0090  10.0216  10.0789  10.2396  10.7781  10.8925
    10.9142  11.0851  11.0941  11.1606  11.8894  13.1997  14.2877  14.5012

     occupation numbers 
     1.0000   1.0000   1.0000   1.0000   1.0000   1.0000   1.0000   1.0000
     1.0000   1.0000   1.0000   1.0000   1.0000   1.0000   1.0000   1.0000
     1.0000   1.0000   1.0000   1.0000   1.0000   1.0000   1.0000   1.0000
     1.0000   1.0000   1.0000   1.0000   1.0000   1.0000   1.0000   1.0000
     1.0000   1.0000   1.0000   1.0000   1.0000   1.0000   1.0000   1.0000
     1.0000   1.0000   1.0000   1.0000   1.0000   1.0000   1.0000   1.0000
     1.0000   1.0000   1.0000   1.0000   1.0000   1.0000   1.0000   1.0000
     1.0000   1.0000   1.0000   1.0000   1.0000   1.0000   1.0000   1.0000
     1.0000   1.0000   1.0000   1.0000   1.0000   1.0000   1.0000   1.0000
     1.0000   1.0000   1.0000   1.0000   1.0000   1.0000   1.0000   1.0000
     1.0000   1.0000   1.0000   1.0000   1.0000   1.0000   1.0000   1.0000
     1.0000   1.0000   1.0000   1.0000   1.0000   1.0000   1.0000   1.0000
     1.0000   1.0000   1.0000   1.0000   1.0000   1.0000   1.0000   1.0000
     1.0000   1.0000   1.0000   1.0000   1.0000   1.0000   1.0000   1.0000
     1.0000   1.0000   1.0000   1.0000   1.0000   1.0000   1.0000   1.0000
     1.0000   1.0000   1.0000   1.0000   1.0000   1.0000   1.0000   1.0000

          k = 0.0000-0.5000-0.5000 ( 29728 PWs)   bands (ev):

    -7.8518  -7.4143  -7.3561  -7.1129  -5.8974  -5.2249  -5.1909  -5.1403
    -5.1367  -5.1125  -4.9872  -4.5468  -3.4992  -3.0757  -3.0290  -2.9909
    -2.9459  -2.9283  -2.7737  -2.5183  -2.1463  -1.8421  -1.8141  -1.7461
    -1.7093  -1.6940  -1.5901  -0.9158  -0.2412  -0.0529  -0.0262   0.1934
     0.4570   0.5039   0.5781   0.5910   0.7127   0.7862   0.8810   0.9523
     1.1122   1.2516   1.4040   2.4250   3.4402   3.4506   3.4761   3.6468
     3.6535   3.6767   3.7675   3.7982   3.8156   3.8473   3.8687   3.8894
     3.8946   3.9036   3.9256   3.9413   4.1554   4.4105   4.4878   5.5206
     5.7383   5.8240   5.8851   5.9309   5.9748   6.0849   6.2025   6.3042
     6.3711   6.4962   6.5785   6.5910   6.6333   6.6988   6.7037   6.8617
     6.9231   7.0001   7.0031   7.0611   7.2486   7.2955   7.3210   7.4590
     7.5767   7.7468   7.8105   8.0270   8.1774   8.2122   8.2158   8.3461
     8.3800   8.4201   8.5674   8.5912   8.9166   8.9590   9.0072   9.2175
     9.2505   9.3325   9.3630   9.3748   9.4036   9.4698   9.4847   9.5667
     9.6343   9.6461   9.6684   9.6710   9.6874   9.7111   9.7259   9.7478
    11.2094  11.4100  11.5496  12.0742  12.1385  13.1885  14.2863  14.5955

     occupation numbers 
     1.0000   1.0000   1.0000   1.0000   1.0000   1.0000   1.0000   1.0000
     1.0000   1.0000   1.0000   1.0000   1.0000   1.0000   1.0000   1.0000
     1.0000   1.0000   1.0000   1.0000   1.0000   1.0000   1.0000   1.0000
     1.0000   1.0000   1.0000   1.0000   1.0000   1.0000   1.0000   1.0000
     1.0000   1.0000   1.0000   1.0000   1.0000   1.0000   1.0000   1.0000
     1.0000   1.0000   1.0000   1.0000   1.0000   1.0000   1.0000   1.0000
     1.0000   1.0000   1.0000   1.0000   1.0000   1.0000   1.0000   1.0000
     1.0000   1.0000   1.0000   1.0000   1.0000   1.0000   1.0000   1.0000
     1.0000   1.0000   1.0000   1.0000   1.0000   1.0000   1.0000   1.0000
     1.0000   1.0000   1.0000   1.0000   1.0000   1.0000   1.0000   1.0000
     1.0000   1.0000   1.0000   1.0000   1.0000   1.0000   1.0000   1.0000
     1.0000   1.0000   1.0000   1.0000   1.0000   1.0000   1.0000   1.0000
     1.0000   1.0000   1.0000   1.0000   1.0000   1.0000   1.0000   1.0000
     1.0000   1.0000   1.0000   1.0000   1.0000   1.0000   1.0000   1.0000
     1.0000   1.0000   1.0000   1.0000   1.0000   1.0000   1.0000   1.0000
     1.0000   1.0000   1.0000   1.0000   1.0000   1.0000   1.0000   1.0000

          k =-0.5000-0.5000-0.5000 ( 29824 PWs)   bands (ev):

    -7.6393  -6.8912  -6.8524  -6.8510  -6.7812  -6.7275  -6.7250  -6.1876
    -4.0471  -2.7536  -2.7534  -2.6070  -2.6062  -2.6023  -2.5993  -2.5979
    -2.5828  -2.5463  -2.5402  -2.5391  -2.5102  -2.5042  -2.5011  -2.4308
    -2.4302  -2.4007  -2.3819  -2.3810  -2.3349  -2.0750  -2.0679  -0.1513
     1.6254   1.8133   1.8137   2.0520   2.0785   2.0845   2.0882   2.0968
     2.1095   2.1127   2.1323   2.1437   2.1441   2.1647   2.1654   2.1958
     2.1969   2.2064   2.2366   2.2411   2.6440   2.8871   2.8907   4.6029
     5.6274   5.6304   5.8048   6.0717   6.0968   6.0975   6.1223   6.1229
     6.1236   6.1254   6.1621   6.1654   6.1665   6.1839   6.1850   6.2036
     6.2062   6.2319   6.2375   6.2428   6.2441   6.2541   6.2951   6.3488
     6.3522   6.3945   6.4877   6.4915   6.9281   6.9452   6.9477   7.6156
     7.6178   7.9345   7.9346   7.9500   7.9600   7.9625   7.9901   7.9956
     8.0090   8.0204   8.0218   8.0442   8.0509   8.0558   8.0930   8.0957
     8.1520   8.1787   8.1930   8.3100   9.5576   9.7575   9.7620  10.6537
    10.8824  10.8851  11.1012  11.1014  11.1285  11.1302  11.1335  11.1560
    11.1580  11.1707  11.1945  11.2018  11.2174  13.3977  14.6004  14.6006

     occupation numbers 
     1.0000   1.0000   1.0000   1.0000   1.0000   1.0000   1.0000   1.0000
     1.0000   1.0000   1.0000   1.0000   1.0000   1.0000   1.0000   1.0000
     1.0000   1.0000   1.0000   1.0000   1.0000   1.0000   1.0000   1.0000
     1.0000   1.0000   1.0000   1.0000   1.0000   1.0000   1.0000   1.0000
     1.0000   1.0000   1.0000   1.0000   1.0000   1.0000   1.0000   1.0000
     1.0000   1.0000   1.0000   1.0000   1.0000   1.0000   1.0000   1.0000
     1.0000   1.0000   1.0000   1.0000   1.0000   1.0000   1.0000   1.0000
     1.0000   1.0000   1.0000   1.0000   1.0000   1.0000   1.0000   1.0000
     1.0000   1.0000   1.0000   1.0000   1.0000   1.0000   1.0000   1.0000
     1.0000   1.0000   1.0000   1.0000   1.0000   1.0000   1.0000   1.0000
     1.0000   1.0000   1.0000   1.0000   1.0000   1.0000   1.0000   1.0000
     1.0000   1.0000   1.0000   1.0000   1.0000   1.0000   1.0000   1.0000
     1.0000   1.0000   1.0000   1.0000   1.0000   1.0000   1.0000   1.0000
     1.0000   1.0000   1.0000   1.0000   1.0000   1.0000   1.0000   1.0000
     1.0000   1.0000   1.0000   1.0000   1.0000   1.0000   1.0000   1.0000
     1.0000   1.0000   1.0000   1.0000   1.0000   1.0000   1.0000   1.0000

          k =-0.5000 0.0000 0.0000 ( 29686 PWs)   bands (ev):

    -8.1673  -7.8546  -6.5662  -5.7743  -5.7031  -5.6819  -5.6714  -5.6476
    -5.5298  -5.1894  -4.2502  -3.6711  -3.6518  -3.6152  -3.5902  -3.5177
    -3.4416  -3.3903  -3.3848  -2.8089  -1.9844  -1.6313  -1.6196  -1.5959
    -1.5456  -1.4706  -1.4015  -0.7970   0.2645   0.3604   0.4262   0.4521
     0.5171   0.5904   0.7175   0.9957   1.2162   1.3281   1.3345   1.3878
     1.5403   1.6297   1.6443   1.9619   2.3662   2.4058   2.4430   2.5387
     2.5602   2.7419   2.7609   3.7888   3.8933   3.9872   4.0557   4.0735
     4.1144   4.1807   4.3846   4.4134   4.4877   5.3094   5.4822   5.5466
     5.5473   5.5842   5.6960   5.7346   5.7988   5.8500   6.2591   6.2720
     6.4038   6.4096   6.4278   6.5768   6.6852   6.9506   7.0759   7.1073
     7.1627   7.1915   7.2834   7.3364   7.3915   7.3955   7.4011   7.4273
     7.4277   7.4454   7.4748   7.5062   7.5203   7.5447   7.8514   8.0008
     8.0271   8.0487   8.1992   8.2584   8.3153   8.3564   8.7722   8.9355
     9.3505   9.6588   9.6799   9.8560   9.9031   9.9335   9.9473   9.9578
     9.9982  10.0003  10.0101  10.0197  10.0770  10.2326  10.7813  10.8952
    10.9028  11.0908  11.0948  11.1616  11.8865  13.2007  14.2860  14.5016

     occupation numbers 
     1.0000   1.0000   1.0000   1.0000   1.0000   1.0000   1.0000   1.0000
     1.0000   1.0000   1.0000   1.0000   1.0000   1.0000   1.0000   1.0000
     1.0000   1.0000   1.0000   1.0000   1.0000   1.0000   1.0000   1.0000
     1.0000   1.0000   1.0000   1.0000   1.0000   1.0000   1.0000   1.0000
     1.0000   1.0000   1.0000   1.0000   1.0000   1.0000   1.0000   1.0000
     1.0000   1.0000   1.0000   1.0000   1.0000   1.0000   1.0000   1.0000
     1.0000   1.0000   1.0000   1.0000   1.0000   1.0000   1.0000   1.0000
     1.0000   1.0000   1.0000   1.0000   1.0000   1.0000   1.0000   1.0000
     1.0000   1.0000   1.0000   1.0000   1.0000   1.0000   1.0000   1.0000
     1.0000   1.0000   1.0000   1.0000   1.0000   1.0000   1.0000   1.0000
     1.0000   1.0000   1.0000   1.0000   1.0000   1.0000   1.0000   1.0000
     1.0000   1.0000   1.0000   1.0000   1.0000   1.0000   1.0000   1.0000
     1.0000   1.0000   1.0000   1.0000   1.0000   1.0000   1.0000   1.0000
     1.0000   1.0000   1.0000   1.0000   1.0000   1.0000   1.0000   1.0000
     1.0000   1.0000   1.0000   1.0000   1.0000   1.0000   1.0000   1.0000
     1.0000   1.0000   1.0000   1.0000   1.0000   1.0000   1.0000   1.0000

          k =-0.5000 0.5000 0.0000 ( 29728 PWs)   bands (ev):

    -7.8518  -7.4148  -7.3546  -7.1142  -5.8975  -5.2247  -5.1929  -5.1378
    -5.1343  -5.1116  -4.9917  -4.5446  -3.5005  -3.0753  -3.0291  -2.9901
    -2.9480  -2.9293  -2.7698  -2.5200  -2.1499  -1.8449  -1.8138  -1.7448
    -1.7087  -1.6943  -1.5847  -0.9164  -0.2435  -0.0503  -0.0257   0.1920
     0.4595   0.5061   0.5771   0.5921   0.7120   0.7841   0.8810   0.9531
     1.1065   1.2540   1.4041   2.4242   3.4419   3.4514   3.4755   3.6455
     3.6539   3.6748   3.7650   3.7972   3.8116   3.8484   3.8666   3.8875
     3.8956   3.9072   3.9267   3.9442   4.1571   4.4108   4.4930   5.5198
     5.7388   5.8219   5.8866   5.9312   5.9768   6.0849   6.1969   6.3024
     6.3718   6.4965   6.5771   6.5917   6.6349   6.6992   6.7026   6.8608
     6.9233   7.0009   7.0029   7.0602   7.2422   7.2990   7.3200   7.4641
     7.5795   7.7433   7.8133   8.0258   8.1783   8.2124   8.2200   8.3472
     8.3805   8.4176   8.5689   8.5947   8.9156   8.9599   9.0013   9.2154
     9.2482   9.3425   9.3650   9.3765   9.4004   9.4723   9.4821   9.5640
     9.6347   9.6467   9.6675   9.6729   9.6833   9.7105   9.7257   9.7382
    11.2105  11.4089  11.5486  12.0825  12.1412  13.1891  14.2828  14.5947

     occupation numbers 
     1.0000   1.0000   1.0000   1.0000   1.0000   1.0000   1.0000   1.0000
     1.0000   1.0000   1.0000   1.0000   1.0000   1.0000   1.0000   1.0000
     1.0000   1.0000   1.0000   1.0000   1.0000   1.0000   1.0000   1.0000
     1.0000   1.0000   1.0000   1.0000   1.0000   1.0000   1.0000   1.0000
     1.0000   1.0000   1.0000   1.0000   1.0000   1.0000   1.0000   1.0000
     1.0000   1.0000   1.0000   1.0000   1.0000   1.0000   1.0000   1.0000
     1.0000   1.0000   1.0000   1.0000   1.0000   1.0000   1.0000   1.0000
     1.0000   1.0000   1.0000   1.0000   1.0000   1.0000   1.0000   1.0000
     1.0000   1.0000   1.0000   1.0000   1.0000   1.0000   1.0000   1.0000
     1.0000   1.0000   1.0000   1.0000   1.0000   1.0000   1.0000   1.0000
     1.0000   1.0000   1.0000   1.0000   1.0000   1.0000   1.0000   1.0000
     1.0000   1.0000   1.0000   1.0000   1.0000   1.0000   1.0000   1.0000
     1.0000   1.0000   1.0000   1.0000   1.0000   1.0000   1.0000   1.0000
     1.0000   1.0000   1.0000   1.0000   1.0000   1.0000   1.0000   1.0000
     1.0000   1.0000   1.0000   1.0000   1.0000   1.0000   1.0000   1.0000
     1.0000   1.0000   1.0000   1.0000   1.0000   1.0000   1.0000   1.0000

 ------ SPIN DOWN ----------


          k = 0.0000 0.0000 0.0000 ( 29711 PWs)   bands (ev):

    -8.5488  -6.9972  -6.2595  -6.2590  -6.1346  -6.1309  -5.8583  -4.9399
    -4.1201  -4.1195  -4.0983  -4.0974  -4.0008  -3.9937  -3.9846  -3.9271
    -3.8364  -3.8354  -3.3367  -2.9682  -2.6477  -2.6452  -2.0037  -0.3702
    -0.3687  -0.3318  -0.3001  -0.0665   0.1713   0.1714   0.2939   0.2940
     0.3582   0.5979   0.8025   0.8040   0.9660   0.9724   1.0056   1.0178
     1.0185   1.0550   1.4223   1.4316   3.0957   3.8808   3.8839   4.0195
     4.2265   4.2291   4.2308   4.2342   4.2618   4.2621   4.4341   4.4372
     4.4720   4.4740   4.5970   4.6491   4.6493   4.6518   4.6536   4.7548
     4.7576   4.8668   4.9391   4.9403   5.0954   5.2174   5.2187   5.2816
     5.3268   5.3304   5.3673   5.4320   5.4332   6.0268   6.0272   6.0413
     6.5965   6.6018   6.7293   6.9919   7.0622   7.0632   7.5739   8.2951
     8.3032   8.3763   8.4562   8.4566   8.6305   8.6307   8.7912   8.7914
     8.7971   8.8155   8.8714   8.8719   8.8811   9.2533   9.2537   9.2588
     9.6867   9.6869   9.8721   9.8743   9.8773   9.9014   9.9397   9.9478
     9.9495   9.9508   9.9841   9.9844  10.0970  10.0974  10.2236  10.2437
    10.3183  11.2005  12.4004  12.5031  12.5134  14.1193  16.0119  16.0201

     occupation numbers 
     1.0000   1.0000   1.0000   1.0000   1.0000   1.0000   1.0000   1.0000
     1.0000   1.0000   1.0000   1.0000   1.0000   1.0000   1.0000   1.0000
     1.0000   1.0000   1.0000   1.0000   1.0000   1.0000   1.0000   1.0000
     1.0000   1.0000   1.0000   1.0000   1.0000   1.0000   1.0000   1.0000
     1.0000   1.0000   1.0000   1.0000   1.0000   1.0000   1.0000   1.0000
     1.0000   1.0000   1.0000   1.0000   1.0000   1.0000   1.0000   1.0000
     1.0000   1.0000   1.0000   1.0000   1.0000   1.0000   1.0000   1.0000
     1.0000   1.0000   1.0000   1.0000   1.0000   1.0000   1.0000   1.0000
     1.0000   1.0000   1.0000   1.0000   1.0000   1.0000   1.0000   1.0000
     1.0000   1.0000   1.0000   1.0000   1.0000   1.0000   1.0000   1.0000
     1.0000   1.0000   1.0000   1.0000   1.0000   1.0000   1.0000   1.0000
     1.0000   1.0000   1.0000   1.0000   1.0000   1.0000   1.0000   1.0000
     1.0000   1.0000   1.0000   1.0000   1.0000   1.0000   1.0000   1.0000
     1.0000   1.0000   1.0000   1.0000   1.0000   1.0000   1.0000   1.0000
     1.0000   1.0000   1.0000   1.0000   1.0000   1.0000   1.0000   1.0000
     1.0000   1.0000   1.0000   1.0000   1.0000   1.0000   0.0000   0.0000

          k = 0.0000 0.0000-0.5000 ( 29686 PWs)   bands (ev):

    -8.1528  -7.8212  -6.5449  -5.7568  -5.6767  -5.6637  -5.6533  -5.6346
    -5.4631  -5.1329  -4.2216  -3.6525  -3.6370  -3.5978  -3.5536  -3.4971
    -3.4059  -3.3461  -3.3225  -2.7356  -1.9627  -1.6094  -1.6019  -1.5777
    -1.5067  -1.4138  -1.3243  -0.7021   0.3189   0.3692   0.4351   0.4703
     0.5394   0.6134   0.8105   1.0386   1.2494   1.3493   1.3633   1.4210
     1.5663   1.6684   1.6984   2.0027   2.3926   2.4318   2.4727   2.5617
     2.5763   2.8478   2.8645   3.8349   3.9092   4.0041   4.0731   4.0985
     4.1605   4.2174   4.4194   4.4710   4.5459   5.3790   5.5019   5.5611
     5.5721   5.6037   5.7483   5.7687   5.8372   5.8976   6.2879   6.3044
     6.4264   6.4552   6.4634   6.6365   6.7391   6.9728   7.0901   7.1473
     7.2106   7.2141   7.3056   7.3615   7.4104   7.4164   7.4208   7.4505
     7.4563   7.4594   7.4903   7.5588   7.5735   7.5980   7.8880   8.0399
     8.0909   8.1034   8.2346   8.2933   8.3512   8.3944   8.8197   9.0396
     9.4101   9.7082   9.7639   9.9025   9.9138   9.9481   9.9659   9.9743
    10.0097  10.0206  10.0459  10.0699  10.1158  10.3036  10.8070  10.9644
    11.0091  11.1372  11.2130  11.2566  12.0846  13.8629  15.5997  15.8672

     occupation numbers 
     1.0000   1.0000   1.0000   1.0000   1.0000   1.0000   1.0000   1.0000
     1.0000   1.0000   1.0000   1.0000   1.0000   1.0000   1.0000   1.0000
     1.0000   1.0000   1.0000   1.0000   1.0000   1.0000   1.0000   1.0000
     1.0000   1.0000   1.0000   1.0000   1.0000   1.0000   1.0000   1.0000
     1.0000   1.0000   1.0000   1.0000   1.0000   1.0000   1.0000   1.0000
     1.0000   1.0000   1.0000   1.0000   1.0000   1.0000   1.0000   1.0000
     1.0000   1.0000   1.0000   1.0000   1.0000   1.0000   1.0000   1.0000
     1.0000   1.0000   1.0000   1.0000   1.0000   1.0000   1.0000   1.0000
     1.0000   1.0000   1.0000   1.0000   1.0000   1.0000   1.0000   1.0000
     1.0000   1.0000   1.0000   1.0000   1.0000   1.0000   1.0000   1.0000
     1.0000   1.0000   1.0000   1.0000   1.0000   1.0000   1.0000   1.0000
     1.0000   1.0000   1.0000   1.0000   1.0000   1.0000   1.0000   1.0000
     1.0000   1.0000   1.0000   1.0000   1.0000   1.0000   1.0000   1.0000
     1.0000   1.0000   1.0000   1.0000   1.0000   1.0000   1.0000   1.0000
     1.0000   1.0000   1.0000   1.0000   1.0000   1.0000   1.0000   1.0000
     1.0000   1.0000   1.0000   1.0000   1.0000   1.0000   0.0000   0.0000

          k = 0.0000-0.5000-0.5000 ( 29728 PWs)   bands (ev):

    -7.8418  -7.3955  -7.3261  -7.0683  -5.8745  -5.2113  -5.1759  -5.1161
    -5.1055  -5.0858  -4.9276  -4.4799  -3.4614  -3.0623  -3.0130  -2.9781
    -2.8985  -2.8920  -2.7164  -2.4922  -2.1297  -1.8264  -1.7962  -1.7337
    -1.6779  -1.6505  -1.4764  -0.8084  -0.2051  -0.0187   0.0030   0.2581
     0.4728   0.5314   0.6112   0.6131   0.7393   0.8086   0.9196   0.9840
     1.1318   1.3028   1.5029   2.5381   3.4702   3.4760   3.4974   3.6737
     3.6770   3.6923   3.7880   3.8334   3.8538   3.8753   3.8964   3.9118
     3.9195   3.9453   3.9456   3.9683   4.1948   4.5159   4.6029   5.5763
     5.7724   5.8445   5.8989   5.9577   5.9995   6.1152   6.2508   6.3821
     6.4090   6.5159   6.6062   6.6144   6.6732   6.7145   6.7194   6.8857
     6.9470   7.0267   7.0334   7.0901   7.2834   7.3330   7.3602   7.4744
     7.6065   7.7949   7.8768   8.0554   8.1935   8.2315   8.2372   8.4239
     8.4416   8.4742   8.6355   8.6407   8.9523   9.0093   9.0471   9.2458
     9.3069   9.3460   9.3875   9.4052   9.4531   9.4985   9.5204   9.5852
     9.6794   9.6946   9.7019   9.7144   9.7211   9.7502   9.7689   9.7931
    11.2679  11.5426  11.9783  12.0995  12.1635  13.8680  15.5885  15.8987

     occupation numbers 
     1.0000   1.0000   1.0000   1.0000   1.0000   1.0000   1.0000   1.0000
     1.0000   1.0000   1.0000   1.0000   1.0000   1.0000   1.0000   1.0000
     1.0000   1.0000   1.0000   1.0000   1.0000   1.0000   1.0000   1.0000
     1.0000   1.0000   1.0000   1.0000   1.0000   1.0000   1.0000   1.0000
     1.0000   1.0000   1.0000   1.0000   1.0000   1.0000   1.0000   1.0000
     1.0000   1.0000   1.0000   1.0000   1.0000   1.0000   1.0000   1.0000
     1.0000   1.0000   1.0000   1.0000   1.0000   1.0000   1.0000   1.0000
     1.0000   1.0000   1.0000   1.0000   1.0000   1.0000   1.0000   1.0000
     1.0000   1.0000   1.0000   1.0000   1.0000   1.0000   1.0000   1.0000
     1.0000   1.0000   1.0000   1.0000   1.0000   1.0000   1.0000   1.0000
     1.0000   1.0000   1.0000   1.0000   1.0000   1.0000   1.0000   1.0000
     1.0000   1.0000   1.0000   1.0000   1.0000   1.0000   1.0000   1.0000
     1.0000   1.0000   1.0000   1.0000   1.0000   1.0000   1.0000   1.0000
     1.0000   1.0000   1.0000   1.0000   1.0000   1.0000   1.0000   1.0000
     1.0000   1.0000   1.0000   1.0000   1.0000   1.0000   1.0000   1.0000
     1.0000   1.0000   1.0000   1.0000   1.0000   1.0000   0.0000   0.0000

          k =-0.5000-0.5000-0.5000 ( 29824 PWs)   bands (ev):

    -7.6313  -6.8831  -6.8320  -6.8308  -6.7629  -6.6865  -6.6836  -6.1078
    -3.9988  -2.7431  -2.7430  -2.5872  -2.5855  -2.5834  -2.5707  -2.5692
    -2.5647  -2.5288  -2.5235  -2.5220  -2.4953  -2.4933  -2.4892  -2.4108
    -2.4103  -2.3668  -2.3541  -2.3524  -2.3198  -1.9087  -1.8997   0.0212
     1.6567   1.8270   1.8274   2.0937   2.1037   2.1062   2.1066   2.1275
     2.1302   2.1326   2.1533   2.1553   2.1601   2.1916   2.1942   2.2186
     2.2208   2.2391   2.2826   2.2879   2.6883   3.0218   3.0261   4.7573
     5.6527   5.6557   5.8237   6.0916   6.1072   6.1080   6.1358   6.1363
     6.1405   6.1516   6.1830   6.1855   6.1895   6.2075   6.2085   6.2431
     6.2511   6.2541   6.2703   6.2735   6.2776   6.2949   6.3319   6.3632
     6.3675   6.4340   6.5616   6.5638   6.9710   7.0104   7.0125   7.6385
     7.6403   7.9554   7.9554   7.9647   7.9757   7.9781   8.0073   8.0162
     8.0448   8.0478   8.0510   8.0542   8.0641   8.0705   8.1343   8.1369
     8.1632   8.2351   8.2502   8.3902   9.6049   9.9297   9.9345  10.9089
    10.9121  11.1020  11.1256  11.1277  11.1519  11.1543  11.1888  11.1962
    11.1999  11.2215  11.2311  11.2510  11.3614  13.9636  15.9599  15.9687

     occupation numbers 
     1.0000   1.0000   1.0000   1.0000   1.0000   1.0000   1.0000   1.0000
     1.0000   1.0000   1.0000   1.0000   1.0000   1.0000   1.0000   1.0000
     1.0000   1.0000   1.0000   1.0000   1.0000   1.0000   1.0000   1.0000
     1.0000   1.0000   1.0000   1.0000   1.0000   1.0000   1.0000   1.0000
     1.0000   1.0000   1.0000   1.0000   1.0000   1.0000   1.0000   1.0000
     1.0000   1.0000   1.0000   1.0000   1.0000   1.0000   1.0000   1.0000
     1.0000   1.0000   1.0000   1.0000   1.0000   1.0000   1.0000   1.0000
     1.0000   1.0000   1.0000   1.0000   1.0000   1.0000   1.0000   1.0000
     1.0000   1.0000   1.0000   1.0000   1.0000   1.0000   1.0000   1.0000
     1.0000   1.0000   1.0000   1.0000   1.0000   1.0000   1.0000   1.0000
     1.0000   1.0000   1.0000   1.0000   1.0000   1.0000   1.0000   1.0000
     1.0000   1.0000   1.0000   1.0000   1.0000   1.0000   1.0000   1.0000
     1.0000   1.0000   1.0000   1.0000   1.0000   1.0000   1.0000   1.0000
     1.0000   1.0000   1.0000   1.0000   1.0000   1.0000   1.0000   1.0000
     1.0000   1.0000   1.0000   1.0000   1.0000   1.0000   1.0000   1.0000
     1.0000   1.0000   1.0000   1.0000   1.0000   1.0000   0.0000   0.0000

          k =-0.5000 0.0000 0.0000 ( 29686 PWs)   bands (ev):

    -8.1521  -7.8225  -6.5427  -5.7566  -5.6798  -5.6609  -5.6537  -5.6359
    -5.4662  -5.1310  -4.2179  -3.6522  -3.6368  -3.5956  -3.5586  -3.4980
    -3.4054  -3.3442  -3.3247  -2.7361  -1.9580  -1.6109  -1.6045  -1.5778
    -1.5097  -1.4159  -1.3200  -0.6991   0.3204   0.3694   0.4357   0.4706
     0.5396   0.6124   0.8034   1.0353   1.2469   1.3495   1.3619   1.4249
     1.5688   1.6689   1.6991   2.0081   2.3975   2.4275   2.4718   2.5622
     2.5774   2.8439   2.8673   3.8347   3.9084   4.0008   4.0716   4.0981
     4.1640   4.2181   4.4215   4.4692   4.5447   5.3796   5.5019   5.5615
     5.5723   5.6051   5.7496   5.7687   5.8384   5.8976   6.2873   6.3070
     6.4210   6.4526   6.4611   6.6365   6.7426   6.9706   7.0910   7.1490
     7.2088   7.2135   7.3098   7.3602   7.4111   7.4149   7.4217   7.4424
     7.4580   7.4604   7.4921   7.5586   7.5718   7.5972   7.8866   8.0400
     8.0915   8.1049   8.2331   8.2948   8.3509   8.3966   8.8300   9.0345
     9.4090   9.7073   9.7662   9.9052   9.9140   9.9485   9.9645   9.9742
    10.0120  10.0280  10.0462  10.0681  10.1136  10.2961  10.8085  10.9523
    11.0121  11.1368  11.2118  11.2660  12.0819  13.8630  15.6047  15.8613

     occupation numbers 
     1.0000   1.0000   1.0000   1.0000   1.0000   1.0000   1.0000   1.0000
     1.0000   1.0000   1.0000   1.0000   1.0000   1.0000   1.0000   1.0000
     1.0000   1.0000   1.0000   1.0000   1.0000   1.0000   1.0000   1.0000
     1.0000   1.0000   1.0000   1.0000   1.0000   1.0000   1.0000   1.0000
     1.0000   1.0000   1.0000   1.0000   1.0000   1.0000   1.0000   1.0000
     1.0000   1.0000   1.0000   1.0000   1.0000   1.0000   1.0000   1.0000
     1.0000   1.0000   1.0000   1.0000   1.0000   1.0000   1.0000   1.0000
     1.0000   1.0000   1.0000   1.0000   1.0000   1.0000   1.0000   1.0000
     1.0000   1.0000   1.0000   1.0000   1.0000   1.0000   1.0000   1.0000
     1.0000   1.0000   1.0000   1.0000   1.0000   1.0000   1.0000   1.0000
     1.0000   1.0000   1.0000   1.0000   1.0000   1.0000   1.0000   1.0000
     1.0000   1.0000   1.0000   1.0000   1.0000   1.0000   1.0000   1.0000
     1.0000   1.0000   1.0000   1.0000   1.0000   1.0000   1.0000   1.0000
     1.0000   1.0000   1.0000   1.0000   1.0000   1.0000   1.0000   1.0000
     1.0000   1.0000   1.0000   1.0000   1.0000   1.0000   1.0000   1.0000
     1.0000   1.0000   1.0000   1.0000   1.0000   1.0000   0.0000   0.0000

          k =-0.5000 0.5000 0.0000 ( 29728 PWs)   bands (ev):

    -7.8418  -7.3959  -7.3247  -7.0696  -5.8746  -5.2109  -5.1779  -5.1128
    -5.1035  -5.0845  -4.9333  -4.4772  -3.4629  -3.0619  -3.0131  -2.9773
    -2.8968  -2.8966  -2.7128  -2.4941  -2.1332  -1.8290  -1.7958  -1.7323
    -1.6770  -1.6507  -1.4705  -0.8099  -0.2066  -0.0177   0.0034   0.2576
     0.4753   0.5333   0.6123   0.6128   0.7386   0.8066   0.9196   0.9848
     1.1261   1.3053   1.5023   2.5377   3.4719   3.4766   3.4965   3.6716
     3.6783   3.6905   3.7851   3.8281   3.8545   3.8767   3.8944   3.9133
     3.9199   3.9470   3.9472   3.9701   4.1967   4.5152   4.6089   5.5756
     5.7728   5.8421   5.9004   5.9581   6.0012   6.1145   6.2450   6.3812
     6.4099   6.5163   6.6048   6.6153   6.6752   6.7147   6.7183   6.8849
     6.9474   7.0271   7.0334   7.0892   7.2758   7.3359   7.3602   7.4797
     7.6092   7.7915   7.8792   8.0537   8.1949   8.2311   8.2410   8.4253
     8.4394   8.4737   8.6388   8.6447   8.9518   9.0098   9.0394   9.2437
     9.3061   9.3574   9.3882   9.4075   9.4509   9.5000   9.5179   9.5818
     9.6794   9.6949   9.7071   9.7118   9.7147   9.7481   9.7694   9.7848
    11.2681  11.5418  11.9762  12.1078  12.1660  13.8700  15.5787  15.9040

     occupation numbers 
     1.0000   1.0000   1.0000   1.0000   1.0000   1.0000   1.0000   1.0000
     1.0000   1.0000   1.0000   1.0000   1.0000   1.0000   1.0000   1.0000
     1.0000   1.0000   1.0000   1.0000   1.0000   1.0000   1.0000   1.0000
     1.0000   1.0000   1.0000   1.0000   1.0000   1.0000   1.0000   1.0000
     1.0000   1.0000   1.0000   1.0000   1.0000   1.0000   1.0000   1.0000
     1.0000   1.0000   1.0000   1.0000   1.0000   1.0000   1.0000   1.0000
     1.0000   1.0000   1.0000   1.0000   1.0000   1.0000   1.0000   1.0000
     1.0000   1.0000   1.0000   1.0000   1.0000   1.0000   1.0000   1.0000
     1.0000   1.0000   1.0000   1.0000   1.0000   1.0000   1.0000   1.0000
     1.0000   1.0000   1.0000   1.0000   1.0000   1.0000   1.0000   1.0000
     1.0000   1.0000   1.0000   1.0000   1.0000   1.0000   1.0000   1.0000
     1.0000   1.0000   1.0000   1.0000   1.0000   1.0000   1.0000   1.0000
     1.0000   1.0000   1.0000   1.0000   1.0000   1.0000   1.0000   1.0000
     1.0000   1.0000   1.0000   1.0000   1.0000   1.0000   1.0000   1.0000
     1.0000   1.0000   1.0000   1.0000   1.0000   1.0000   1.0000   1.0000
     1.0000   1.0000   1.0000   1.0000   1.0000   1.0000   0.0000   0.0000

     highest occupied level (ev):    14.7171

!    total energy              =    -730.51525548 Ry
     Harris-Foulkes estimate   =    -730.51525548 Ry
     estimated scf accuracy    <          2.8E-09 Ry

     The total energy is the sum of the following terms:

     one-electron contribution =     234.94474353 Ry
     hartree contribution      =      69.02562275 Ry
     xc contribution           =    -234.54594124 Ry
     ewald contribution        =    -799.93968053 Ry

     total magnetization       =     2.00 Bohr mag/cell
     absolute magnetization    =     2.23 Bohr mag/cell

     convergence has been achieved in  13 iterations

     Forces acting on atoms (Ry/au):

     atom    1 type  1   force =     0.00004328    0.00004328    0.00002908
     atom    2 type  1   force =    -0.00009777    0.00004817   -0.00006877
     atom    3 type  1   force =     0.00004817   -0.00009777   -0.00006877
     atom    4 type  1   force =     0.00000581    0.00000581    0.00006717
     atom    5 type  1   force =     0.00106470    0.00106470   -0.00356608
     atom    6 type  1   force =     0.00001991    0.00003905    0.00002092
     atom    7 type  1   force =     0.00003905    0.00001991    0.00002092
     atom    8 type  2   force =     0.00042920    0.00042920    0.00054254
     atom    9 type  1   force =    -0.00004818   -0.00004818    0.00003489
     atom   10 type  1   force =    -0.00002992    0.00000182   -0.00006584
     atom   11 type  1   force =     0.00000182   -0.00002992   -0.00006584
     atom   12 type  1   force =    -0.00003640   -0.00003640    0.00002049
     atom   13 type  1   force =    -0.00013257   -0.00013257   -0.00015922
     atom   14 type  1   force =     0.00006459   -0.00001727   -0.00004509
     atom   15 type  1   force =    -0.00001727    0.00006459   -0.00004509
     atom   16 type  1   force =    -0.00253673   -0.00253673   -0.00345694
     atom   17 type  1   force =    -0.00006537    0.00001887   -0.00007267
     atom   18 type  1   force =    -0.00007078   -0.00002877   -0.00002149
     atom   19 type  1   force =    -0.00008997    0.00003113    0.00007731
     atom   20 type  1   force =    -0.00011907    0.00015282    0.00003604
     atom   21 type  1   force =    -0.00002710    0.00006313    0.00010497
     atom   22 type  1   force =    -0.00019810    0.00012315   -0.00010162
     atom   23 type  1   force =    -0.00077993    0.00074533   -0.00357341
     atom   24 type  1   force =     0.00047897   -0.00047843   -0.00059657
     atom   25 type  1   force =     0.00001887   -0.00006537   -0.00007267
     atom   26 type  1   force =     0.00003113   -0.00008997    0.00007731
     atom   27 type  1   force =    -0.00002877   -0.00007078   -0.00002149
     atom   28 type  1   force =     0.00015282   -0.00011907    0.00003604
     atom   29 type  1   force =     0.00006313   -0.00002710    0.00010497
     atom   30 type  1   force =     0.00074533   -0.00077993   -0.00357341
     atom   31 type  1   force =     0.00012315   -0.00019810   -0.00010162
     atom   32 type  1   force =    -0.00047843    0.00047897   -0.00059657
     atom   33 type  1   force =     0.00000446    0.00000446    0.00005477
     atom   34 type  1   force =     0.00002163    0.00002183    0.00000532
     atom   35 type  1   force =     0.00002183    0.00002163    0.00000532
     atom   36 type  1   force =     0.00001070    0.00001070   -0.00002263
     atom   37 type  1   force =    -0.00030016   -0.00030016    0.00048649
     atom   38 type  1   force =    -0.00027293    0.00022747    0.00057957
     atom   39 type  1   force =     0.00022747   -0.00027293    0.00057957
     atom   40 type  1   force =     0.00002348    0.00002348   -0.00000895
     atom   41 type  1   force =    -0.00001919    0.00007502   -0.00002797
     atom   42 type  1   force =     0.00007502   -0.00001919   -0.00002797
     atom   43 type  1   force =     0.00000372    0.00000372   -0.00005012
     atom   44 type  1   force =     0.00006296    0.00006296    0.00045187
     atom   45 type  1   force =     0.00001598   -0.00005311   -0.00030651
     atom   46 type  1   force =    -0.00005311    0.00001598   -0.00030651
     atom   47 type  1   force =     0.00119231    0.00119231    0.01864242
     atom   48 type  1   force =     0.00003155   -0.00001857    0.00000914
     atom   49 type  1   force =     0.00028317    0.00062564   -0.00052805
     atom   50 type  1   force =     0.00008422    0.00032246    0.00006160
     atom   51 type  1   force =    -0.00026188   -0.00087235   -0.00069410
     atom   52 type  1   force =     0.00009785    0.00003227   -0.00005400
     atom   53 type  1   force =     0.00028578   -0.00060176   -0.00062447
     atom   54 type  1   force =    -0.00008598   -0.00033441   -0.00002315
     atom   55 type  1   force =    -0.00021754    0.00104184   -0.00062405
     atom   56 type  1   force =    -0.00001857    0.00003155    0.00000914
     atom   57 type  1   force =     0.00032246    0.00008422    0.00006160
     atom   58 type  1   force =     0.00062564    0.00028317   -0.00052805
     atom   59 type  1   force =    -0.00087235   -0.00026188   -0.00069410
     atom   60 type  1   force =     0.00003227    0.00009785   -0.00005400
     atom   61 type  1   force =    -0.00033441   -0.00008598   -0.00002315
     atom   62 type  1   force =    -0.00060176    0.00028578   -0.00062447
     atom   63 type  1   force =     0.00104184   -0.00021754   -0.00062405
     The non-local contrib.  to forces
     atom    1 type  1   force =     0.00829122    0.00829122    0.00846335
     atom    2 type  1   force =    -0.04957044    0.02103727    0.02094605
     atom    3 type  1   force =     0.02103727   -0.04957044    0.02094605
     atom    4 type  1   force =    -0.00309886   -0.00309886    0.04654920
     atom    5 type  1   force =     0.02145817    0.02145817   -0.05270172
     atom    6 type  1   force =    -0.00324532    0.04655055   -0.00310396
     atom    7 type  1   force =     0.04655055   -0.00324532   -0.00310396
     atom    8 type  2   force =    -0.88783744   -0.88783744   -0.88773633
     atom    9 type  1   force =    -0.00619947   -0.00619947    0.00639701
     atom   10 type  1   force =     0.03839257   -0.01677361    0.02292011
     atom   11 type  1   force =    -0.01677361    0.03839257    0.02292011
     atom   12 type  1   force =    -0.00138944   -0.00138944    0.04666045
     atom   13 type  1   force =    -0.01159647   -0.01159647   -0.03490644
     atom   14 type  1   force =    -0.01278460   -0.02315360   -0.02989721
     atom   15 type  1   force =    -0.02315360   -0.01278460   -0.02989721
     atom   16 type  1   force =     0.21228410    0.21228410   -0.23456444
     atom   17 type  1   force =     0.00643990   -0.00602775   -0.00638315
     atom   18 type  1   force =    -0.03506901   -0.01128452   -0.01131085
     atom   19 type  1   force =     0.02314966    0.03851591   -0.01665516
     atom   20 type  1   force =    -0.03000524   -0.01297382   -0.02341357
     atom   21 type  1   force =     0.02315808   -0.01674033    0.03832796
     atom   22 type  1   force =    -0.03014738   -0.02286234   -0.01261959
     atom   23 type  1   force =     0.04759528   -0.00229591   -0.00337104
     atom   24 type  1   force =    -0.22981182    0.21195008    0.21190845
     atom   25 type  1   force =    -0.00602775    0.00643990   -0.00638315
     atom   26 type  1   force =     0.03851591    0.02314966   -0.01665516
     atom   27 type  1   force =    -0.01128452   -0.03506901   -0.01131085
     atom   28 type  1   force =    -0.01297382   -0.03000524   -0.02341357
     atom   29 type  1   force =    -0.01674033    0.02315808    0.03832796
     atom   30 type  1   force =    -0.00229591    0.04759528   -0.00337104
     atom   31 type  1   force =    -0.02286234   -0.03014738   -0.01261959
     atom   32 type  1   force =     0.21195008   -0.22981182    0.21190845
     atom   33 type  1   force =     0.00369894    0.00369894    0.00370278
     atom   34 type  1   force =    -0.00636781    0.00708247    0.00704757
     atom   35 type  1   force =     0.00708247   -0.00636781    0.00704757
     atom   36 type  1   force =    -0.00380436   -0.00380436    0.01652067
     atom   37 type  1   force =     0.00647437    0.00647437   -0.00655291
     atom   38 type  1   force =    -0.00452521    0.01729757   -0.00413882
     atom   39 type  1   force =     0.01729757   -0.00452521   -0.00413882
     atom   40 type  1   force =    -0.01033880   -0.01033880    0.00695986
     atom   41 type  1   force =     0.00429216    0.00026653    0.01459292
     atom   42 type  1   force =     0.00026653    0.00429216    0.01459292
     atom   43 type  1   force =     0.01221121    0.01221121   -0.00242134
     atom   44 type  1   force =     0.09874511    0.09874511   -0.10442362
     atom   45 type  1   force =     0.04611305   -0.06351975   -0.04511785
     atom   46 type  1   force =    -0.06351975    0.04611305   -0.04511785
     atom   47 type  1   force =     0.05697642    0.05697642    0.05775896
     atom   48 type  1   force =    -0.01039182    0.00704782   -0.01035103
     atom   49 type  1   force =     0.00418547    0.01534728   -0.00030766
     atom   50 type  1   force =     0.09884132   -0.10419542    0.09885731
     atom   51 type  1   force =     0.04636765   -0.04585303   -0.06421698
     atom   52 type  1   force =     0.00023211    0.01478795    0.00436800
     atom   53 type  1   force =     0.01225498   -0.00278869    0.01177826
     atom   54 type  1   force =    -0.06343436   -0.04513789    0.04617444
     atom   55 type  1   force =     0.05564001    0.04117853    0.05524673
     atom   56 type  1   force =     0.00704782   -0.01039182   -0.01035103
     atom   57 type  1   force =    -0.10419542    0.09884132    0.09885731
     atom   58 type  1   force =     0.01534728    0.00418547   -0.00030766
     atom   59 type  1   force =    -0.04585303    0.04636765   -0.06421698
     atom   60 type  1   force =     0.01478795    0.00023211    0.00436800
     atom   61 type  1   force =    -0.04513789   -0.06343436    0.04617444
     atom   62 type  1   force =    -0.00278869    0.01225498    0.01177826
     atom   63 type  1   force =     0.04117853    0.05564001    0.05524673
     The ionic contribution  to forces
     atom    1 type  1   force =    -0.10843251   -0.10843251   -0.11357971
     atom    2 type  1   force =     0.02557569   -0.18379432   -0.18547588
     atom    3 type  1   force =    -0.18379432    0.02557569   -0.18547588
     atom    4 type  1   force =     0.23378706    0.23378706   -0.64769976
     atom    5 type  1   force =    -0.15808922   -0.15808922    0.02433979
     atom    6 type  1   force =     0.23095887   -0.64563468    0.23561580
     atom    7 type  1   force =    -0.64563468    0.23095887    0.23561580
     atom    8 type  2   force =     2.98833705    2.98833705    2.99011637
     atom    9 type  1   force =     0.01290975    0.01290975   -0.13361682
     atom   10 type  1   force =    -0.08321050    0.14823184   -0.21547456
     atom   11 type  1   force =     0.14823184   -0.08321050   -0.21547456
     atom   12 type  1   force =    -0.19943181   -0.19943181   -0.61678277
     atom   13 type  1   force =    -0.17101114   -0.17101114    0.11915152
     atom   14 type  1   force =     0.07311563    0.48853698    0.20573327
     atom   15 type  1   force =     0.48853698    0.07311563    0.20573327
     atom   16 type  1   force =    -2.15177311   -2.15177311    2.18427711
     atom   17 type  1   force =    -0.13199896    0.01446979    0.01111927
     atom   18 type  1   force =     0.11766571   -0.17115940   -0.17263598
     atom   19 type  1   force =    -0.21081460   -0.08618438    0.14181441
     atom   20 type  1   force =     0.20233118    0.07350608    0.48405597
     atom   21 type  1   force =    -0.21425837    0.14695861   -0.08159361
     atom   22 type  1   force =     0.20406988    0.48570145    0.07515078
     atom   23 type  1   force =    -0.63461796   -0.17654779   -0.20333581
     atom   24 type  1   force =     2.19213773   -2.12131952   -2.12033334
     atom   25 type  1   force =     0.01446979   -0.13199896    0.01111927
     atom   26 type  1   force =    -0.08618438   -0.21081460    0.14181441
     atom   27 type  1   force =    -0.17115940    0.11766571   -0.17263598
     atom   28 type  1   force =     0.07350608    0.20233118    0.48405597
     atom   29 type  1   force =     0.14695861   -0.21425837   -0.08159361
     atom   30 type  1   force =    -0.17654779   -0.63461796   -0.20333581
     atom   31 type  1   force =     0.48570145    0.20406988    0.07515078
     atom   32 type  1   force =    -2.12131952    2.19213773   -2.12033334
     atom   33 type  1   force =    -0.02157773   -0.02157773   -0.02458243
     atom   34 type  1   force =     0.09510905   -0.07186501   -0.07487485
     atom   35 type  1   force =    -0.07186501    0.09510905   -0.07487485
     atom   36 type  1   force =     0.10527059    0.10527059   -0.22254248
     atom   37 type  1   force =    -0.07192272   -0.07192272    0.10042535
     atom   38 type  1   force =     0.10533567   -0.21958629    0.11061380
     atom   39 type  1   force =    -0.21958629    0.10533567    0.11061380
     atom   40 type  1   force =     0.10609924    0.10609924   -0.30354181
     atom   41 type  1   force =    -0.14191528    0.21183188   -0.00726803
     atom   42 type  1   force =     0.21183188   -0.14191528   -0.00726803
     atom   43 type  1   force =    -0.13075934   -0.13075934   -0.03621570
     atom   44 type  1   force =     0.20318168    0.20318168    1.25680227
     atom   45 type  1   force =    -0.70966426    0.70012157   -0.21683944
     atom   46 type  1   force =     0.70012157   -0.70966426   -0.21683944
     atom   47 type  1   force =    -0.70458310   -0.70458310    0.42762974
     atom   48 type  1   force =     0.10609620   -0.30177314    0.10597556
     atom   49 type  1   force =    -0.14193980    0.00318185    0.20764151
     atom   50 type  1   force =     0.20317485    1.25496380    0.20306731
     atom   51 type  1   force =    -0.70972049   -0.22820597    0.69581003
     atom   52 type  1   force =     0.21183957   -0.00572508   -0.14205436
     atom   53 type  1   force =    -0.13076743   -0.03539656   -0.13505251
     atom   54 type  1   force =     0.70015133   -0.21898580   -0.70979677
     atom   55 type  1   force =    -0.70964612    0.35766183   -0.71395288
     atom   56 type  1   force =    -0.30177314    0.10609620    0.10597556
     atom   57 type  1   force =     1.25496380    0.20317485    0.20306731
     atom   58 type  1   force =     0.00318185   -0.14193980    0.20764151
     atom   59 type  1   force =    -0.22820597   -0.70972049    0.69581003
     atom   60 type  1   force =    -0.00572508    0.21183957   -0.14205436
     atom   61 type  1   force =    -0.21898580    0.70015133   -0.70979677
     atom   62 type  1   force =    -0.03539656   -0.13076743   -0.13505251
     atom   63 type  1   force =     0.35766183   -0.70964612   -0.71395288
     The local contribution  to forces
     atom    1 type  1   force =     0.10023243    0.10023243    0.10518728
     atom    2 type  1   force =     0.02328344    0.16289051    0.16454495
     atom    3 type  1   force =     0.16289051    0.02328344    0.16454495
     atom    4 type  1   force =    -0.23070561   -0.23070561    0.60160043
     atom    5 type  1   force =     0.13782258    0.13782258    0.02414692
     atom    6 type  1   force =    -0.22772067    0.59950578   -0.23251308
     atom    7 type  1   force =     0.59950578   -0.22772067   -0.23251308
     atom    8 type  2   force =    -2.10729236   -2.10729236   -2.10905709
     atom    9 type  1   force =    -0.00686846   -0.00686846    0.12733643
     atom   10 type  1   force =     0.04510660   -0.13149608    0.19254640
     atom   11 type  1   force =    -0.13149608    0.04510660    0.19254640
     atom   12 type  1   force =     0.20073955    0.20073955    0.57045272
     atom   13 type  1   force =     0.18229516    0.18229516   -0.08488147
     atom   14 type  1   force =    -0.06026290   -0.46548543   -0.17622318
     atom   15 type  1   force =    -0.46548543   -0.06026290   -0.17622318
     atom   16 type  1   force =     1.93677472    1.93677472   -1.95330649
     atom   17 type  1   force =     0.12557674   -0.00852679   -0.00491048
     atom   18 type  1   force =    -0.08314932    0.18223649    0.18375691
     atom   19 type  1   force =     0.18763861    0.04801414   -0.12511223
     atom   20 type  1   force =    -0.17279256   -0.06037691   -0.46068570
     atom   21 type  1   force =     0.19113444   -0.13019543    0.04367790
     atom   22 type  1   force =    -0.17446610   -0.46280303   -0.06263815
     atom   23 type  1   force =     0.58652894    0.17957319    0.20304733
     atom   24 type  1   force =    -1.96191345    1.90875281    1.90767733
     atom   25 type  1   force =    -0.00852679    0.12557674   -0.00491048
     atom   26 type  1   force =     0.04801414    0.18763861   -0.12511223
     atom   27 type  1   force =     0.18223649   -0.08314932    0.18375691
     atom   28 type  1   force =    -0.06037691   -0.17279256   -0.46068570
     atom   29 type  1   force =    -0.13019543    0.19113444    0.04367790
     atom   30 type  1   force =     0.17957319    0.58652894    0.20304733
     atom   31 type  1   force =    -0.46280303   -0.17446610   -0.06263815
     atom   32 type  1   force =     1.90875281   -1.96191345    1.90767733
     atom   33 type  1   force =     0.01796500    0.01796500    0.02101656
     atom   34 type  1   force =    -0.08870762    0.06486188    0.06789330
     atom   35 type  1   force =     0.06486188   -0.08870762    0.06789330
     atom   36 type  1   force =    -0.10147005   -0.10147005    0.20600556
     atom   37 type  1   force =     0.06520085    0.06520085   -0.09337835
     atom   38 type  1   force =    -0.10110374    0.20252453   -0.10592171
     atom   39 type  1   force =     0.20252453   -0.10110374   -0.10592171
     atom   40 type  1   force =    -0.09577034   -0.09577034    0.29664585
     atom   41 type  1   force =     0.13758573   -0.21184471   -0.00724620
     atom   42 type  1   force =    -0.21184471    0.13758573   -0.00724620
     atom   43 type  1   force =     0.11863972    0.11863972    0.03863059
     atom   44 type  1   force =    -0.30081666   -0.30081666   -1.15248391
     atom   45 type  1   force =     0.66400452   -0.63731859    0.26097305
     atom   46 type  1   force =    -0.63731859    0.66400452    0.26097305
     atom   47 type  1   force =     0.64940503    0.64940503   -0.46574988
     atom   48 type  1   force =    -0.09570377    0.29477304   -0.09563894
     atom   49 type  1   force =     0.13801576   -0.01779140   -0.20767825
     atom   50 type  1   force =    -0.30088360   -1.15099089   -0.30080523
     atom   51 type  1   force =     0.66353011    0.27250698   -0.63294525
     atom   52 type  1   force =    -0.21179752   -0.00892981    0.13760790
     atom   53 type  1   force =     0.11888802    0.03762400    0.12272712
     atom   54 type  1   force =    -0.63746593    0.26312112    0.66403003
     atom   55 type  1   force =     0.65437564   -0.39702274    0.65865854
     atom   56 type  1   force =     0.29477304   -0.09570377   -0.09563894
     atom   57 type  1   force =    -1.15099089   -0.30088360   -0.30080523
     atom   58 type  1   force =    -0.01779140    0.13801576   -0.20767825
     atom   59 type  1   force =     0.27250698    0.66353011   -0.63294525
     atom   60 type  1   force =    -0.00892981   -0.21179752    0.13760790
     atom   61 type  1   force =     0.26312112   -0.63746593    0.66403003
     atom   62 type  1   force =     0.03762400    0.11888802    0.12272712
     atom   63 type  1   force =    -0.39702274    0.65437564    0.65865854
     The core correction contribution to forces
     atom    1 type  1   force =    -0.00004405   -0.00004405   -0.00004523
     atom    2 type  1   force =     0.00060980   -0.00008433   -0.00008367
     atom    3 type  1   force =    -0.00008433    0.00060980   -0.00008367
     atom    4 type  1   force =     0.00001999    0.00001999   -0.00039310
     atom    5 type  1   force =    -0.00012466   -0.00012466    0.00065126
     atom    6 type  1   force =     0.00002127   -0.00039315    0.00001983
     atom    7 type  1   force =    -0.00039315    0.00002127    0.00001983
     atom    8 type  2   force =     0.00723481    0.00723481    0.00723385
     atom    9 type  1   force =     0.00011372    0.00011372   -0.00008302
     atom   10 type  1   force =    -0.00032309    0.00004708   -0.00006949
     atom   11 type  1   force =     0.00004708   -0.00032309   -0.00006949
     atom   12 type  1   force =     0.00004119    0.00004119   -0.00029965
     atom   13 type  1   force =     0.00016128    0.00016128    0.00048780
     atom   14 type  1   force =     0.00001573    0.00008232    0.00034701
     atom   15 type  1   force =     0.00008232    0.00001573    0.00034701
     atom   16 type  1   force =     0.00018693    0.00018693    0.00012191
     atom   17 type  1   force =    -0.00008368    0.00011243    0.00011526
     atom   18 type  1   force =     0.00048961    0.00015897    0.00015918
     atom   19 type  1   force =    -0.00007198   -0.00032400    0.00004678
     atom   20 type  1   force =     0.00034781    0.00001742    0.00008480
     atom   21 type  1   force =    -0.00007147    0.00004720   -0.00032225
     atom   22 type  1   force =     0.00034885    0.00008036    0.00001360
     atom   23 type  1   force =    -0.00027112    0.00001241    0.00007469
     atom   24 type  1   force =     0.00004889    0.00014967    0.00015061
     atom   25 type  1   force =     0.00011243   -0.00008368    0.00011526
     atom   26 type  1   force =    -0.00032400   -0.00007198    0.00004678
     atom   27 type  1   force =     0.00015897    0.00048961    0.00015918
     atom   28 type  1   force =     0.00001742    0.00034781    0.00008480
     atom   29 type  1   force =     0.00004720   -0.00007147   -0.00032225
     atom   30 type  1   force =     0.00001241   -0.00027112    0.00007469
     atom   31 type  1   force =     0.00008036    0.00034885    0.00001360
     atom   32 type  1   force =     0.00014967    0.00004889    0.00015061
     atom   33 type  1   force =    -0.00007343   -0.00007343   -0.00007342
     atom   34 type  1   force =    -0.00002293   -0.00006311   -0.00006294
     atom   35 type  1   force =    -0.00006311   -0.00002293   -0.00006294
     atom   36 type  1   force =     0.00002057    0.00002057   -0.00000859
     atom   37 type  1   force =    -0.00005841   -0.00005841   -0.00001991
     atom   38 type  1   force =     0.00002627   -0.00001462    0.00002511
     atom   39 type  1   force =    -0.00001462    0.00002627    0.00002511
     atom   40 type  1   force =     0.00002894    0.00002894   -0.00009244
     atom   41 type  1   force =     0.00002416   -0.00016864   -0.00010602
     atom   42 type  1   force =    -0.00016864    0.00002416   -0.00010602
     atom   43 type  1   force =    -0.00009840   -0.00009840   -0.00002649
     atom   44 type  1   force =    -0.00105501   -0.00105501    0.00057349
     atom   45 type  1   force =    -0.00042976    0.00065631    0.00067474
     atom   46 type  1   force =     0.00065631   -0.00042976    0.00067474
     atom   47 type  1   force =    -0.00059763   -0.00059763   -0.00101949
     atom   48 type  1   force =     0.00002933   -0.00009315    0.00002905
     atom   49 type  1   force =     0.00002578   -0.00011228   -0.00016382
     atom   50 type  1   force =    -0.00105576    0.00057099   -0.00105604
     atom   51 type  1   force =    -0.00043197    0.00068054    0.00066122
     atom   52 type  1   force =    -0.00016840   -0.00010752    0.00002353
     atom   53 type  1   force =    -0.00009815   -0.00002311   -0.00009470
     atom   54 type  1   force =     0.00065583    0.00067491   -0.00043034
     atom   55 type  1   force =    -0.00057866   -0.00079411   -0.00057457
     atom   56 type  1   force =    -0.00009315    0.00002933    0.00002905
     atom   57 type  1   force =     0.00057099   -0.00105576   -0.00105604
     atom   58 type  1   force =    -0.00011228    0.00002578   -0.00016382
     atom   59 type  1   force =     0.00068054   -0.00043197    0.00066122
     atom   60 type  1   force =    -0.00010752   -0.00016840    0.00002353
     atom   61 type  1   force =     0.00067491    0.00065583   -0.00043034
     atom   62 type  1   force =    -0.00002311   -0.00009815   -0.00009470
     atom   63 type  1   force =    -0.00079411   -0.00057866   -0.00057457
     The Hubbard contrib.    to forces
     atom    1 type  1   force =     0.00000000    0.00000000    0.00000000
     atom    2 type  1   force =     0.00000000    0.00000000    0.00000000
     atom    3 type  1   force =     0.00000000    0.00000000    0.00000000
     atom    4 type  1   force =     0.00000000    0.00000000    0.00000000
     atom    5 type  1   force =     0.00000000    0.00000000    0.00000000
     atom    6 type  1   force =     0.00000000    0.00000000    0.00000000
     atom    7 type  1   force =     0.00000000    0.00000000    0.00000000
     atom    8 type  2   force =     0.00000000    0.00000000    0.00000000
     atom    9 type  1   force =     0.00000000    0.00000000    0.00000000
     atom   10 type  1   force =     0.00000000    0.00000000    0.00000000
     atom   11 type  1   force =     0.00000000    0.00000000    0.00000000
     atom   12 type  1   force =     0.00000000    0.00000000    0.00000000
     atom   13 type  1   force =     0.00000000    0.00000000    0.00000000
     atom   14 type  1   force =     0.00000000    0.00000000    0.00000000
     atom   15 type  1   force =     0.00000000    0.00000000    0.00000000
     atom   16 type  1   force =     0.00000000    0.00000000    0.00000000
     atom   17 type  1   force =     0.00000000    0.00000000    0.00000000
     atom   18 type  1   force =     0.00000000    0.00000000    0.00000000
     atom   19 type  1   force =     0.00000000    0.00000000    0.00000000
     atom   20 type  1   force =     0.00000000    0.00000000    0.00000000
     atom   21 type  1   force =     0.00000000    0.00000000    0.00000000
     atom   22 type  1   force =     0.00000000    0.00000000    0.00000000
     atom   23 type  1   force =     0.00000000    0.00000000    0.00000000
     atom   24 type  1   force =     0.00000000    0.00000000    0.00000000
     atom   25 type  1   force =     0.00000000    0.00000000    0.00000000
     atom   26 type  1   force =     0.00000000    0.00000000    0.00000000
     atom   27 type  1   force =     0.00000000    0.00000000    0.00000000
     atom   28 type  1   force =     0.00000000    0.00000000    0.00000000
     atom   29 type  1   force =     0.00000000    0.00000000    0.00000000
     atom   30 type  1   force =     0.00000000    0.00000000    0.00000000
     atom   31 type  1   force =     0.00000000    0.00000000    0.00000000
     atom   32 type  1   force =     0.00000000    0.00000000    0.00000000
     atom   33 type  1   force =     0.00000000    0.00000000    0.00000000
     atom   34 type  1   force =     0.00000000    0.00000000    0.00000000
     atom   35 type  1   force =     0.00000000    0.00000000    0.00000000
     atom   36 type  1   force =     0.00000000    0.00000000    0.00000000
     atom   37 type  1   force =     0.00000000    0.00000000    0.00000000
     atom   38 type  1   force =     0.00000000    0.00000000    0.00000000
     atom   39 type  1   force =     0.00000000    0.00000000    0.00000000
     atom   40 type  1   force =     0.00000000    0.00000000    0.00000000
     atom   41 type  1   force =     0.00000000    0.00000000    0.00000000
     atom   42 type  1   force =     0.00000000    0.00000000    0.00000000
     atom   43 type  1   force =     0.00000000    0.00000000    0.00000000
     atom   44 type  1   force =     0.00000000    0.00000000    0.00000000
     atom   45 type  1   force =     0.00000000    0.00000000    0.00000000
     atom   46 type  1   force =     0.00000000    0.00000000    0.00000000
     atom   47 type  1   force =     0.00000000    0.00000000    0.00000000
     atom   48 type  1   force =     0.00000000    0.00000000    0.00000000
     atom   49 type  1   force =     0.00000000    0.00000000    0.00000000
     atom   50 type  1   force =     0.00000000    0.00000000    0.00000000
     atom   51 type  1   force =     0.00000000    0.00000000    0.00000000
     atom   52 type  1   force =     0.00000000    0.00000000    0.00000000
     atom   53 type  1   force =     0.00000000    0.00000000    0.00000000
     atom   54 type  1   force =     0.00000000    0.00000000    0.00000000
     atom   55 type  1   force =     0.00000000    0.00000000    0.00000000
     atom   56 type  1   force =     0.00000000    0.00000000    0.00000000
     atom   57 type  1   force =     0.00000000    0.00000000    0.00000000
     atom   58 type  1   force =     0.00000000    0.00000000    0.00000000
     atom   59 type  1   force =     0.00000000    0.00000000    0.00000000
     atom   60 type  1   force =     0.00000000    0.00000000    0.00000000
     atom   61 type  1   force =     0.00000000    0.00000000    0.00000000
     atom   62 type  1   force =     0.00000000    0.00000000    0.00000000
     atom   63 type  1   force =     0.00000000    0.00000000    0.00000000
     The SCF correction term to forces
     atom    1 type  1   force =    -0.00000381   -0.00000381    0.00000340
     atom    2 type  1   force =     0.00000373   -0.00000098   -0.00000021
     atom    3 type  1   force =    -0.00000098    0.00000373   -0.00000021
     atom    4 type  1   force =     0.00000322    0.00000322    0.00001041
     atom    5 type  1   force =    -0.00000216   -0.00000216   -0.00000233
     atom    6 type  1   force =     0.00000575    0.00001053    0.00000235
     atom    7 type  1   force =     0.00001053    0.00000575    0.00000235
     atom    8 type  2   force =    -0.00001287   -0.00001287   -0.00001425
     atom    9 type  1   force =    -0.00000372   -0.00000372    0.00000131
     atom   10 type  1   force =     0.00000451   -0.00000741    0.00001171
     atom   11 type  1   force =    -0.00000741    0.00000451    0.00001171
     atom   12 type  1   force =     0.00000411    0.00000411   -0.00001024
     atom   13 type  1   force =     0.00001860    0.00001860   -0.00001061
     atom   14 type  1   force =    -0.00001926    0.00000245   -0.00000498
     atom   15 type  1   force =     0.00000245   -0.00001926   -0.00000498
     atom   16 type  1   force =    -0.00000938   -0.00000938    0.00001499
     atom   17 type  1   force =     0.00000062   -0.00000882   -0.00001355
     atom   18 type  1   force =    -0.00000778    0.00001969    0.00000927
     atom   19 type  1   force =     0.00000834    0.00000946   -0.00001648
     atom   20 type  1   force =    -0.00000025   -0.00001996   -0.00000545
     atom   21 type  1   force =     0.00001023   -0.00000692    0.00001497
     atom   22 type  1   force =    -0.00000335    0.00000671   -0.00000825
     atom   23 type  1   force =    -0.00001508    0.00000342    0.00001143
     atom   24 type  1   force =     0.00001761   -0.00001148    0.00000040
     atom   25 type  1   force =    -0.00000882    0.00000062   -0.00001355
     atom   26 type  1   force =     0.00000946    0.00000834   -0.00001648
     atom   27 type  1   force =     0.00001969   -0.00000778    0.00000927
     atom   28 type  1   force =    -0.00001996   -0.00000025   -0.00000545
     atom   29 type  1   force =    -0.00000692    0.00001023    0.00001497
     atom   30 type  1   force =     0.00000342   -0.00001508    0.00001143
     atom   31 type  1   force =     0.00000671   -0.00000335   -0.00000825
     atom   32 type  1   force =    -0.00001148    0.00001761    0.00000040
     atom   33 type  1   force =    -0.00000833   -0.00000833   -0.00000871
     atom   34 type  1   force =     0.00001093    0.00000559    0.00000224
     atom   35 type  1   force =     0.00000559    0.00001093    0.00000224
     atom   36 type  1   force =    -0.00000606   -0.00000606    0.00000222
     atom   37 type  1   force =     0.00000574    0.00000574    0.00001233
     atom   38 type  1   force =    -0.00000592    0.00000628    0.00000121
     atom   39 type  1   force =     0.00000628   -0.00000592    0.00000121
     atom   40 type  1   force =     0.00000444    0.00000444    0.00001961
     atom   41 type  1   force =    -0.00000597   -0.00001006   -0.00000063
     atom   42 type  1   force =    -0.00001006   -0.00000597   -0.00000063
     atom   43 type  1   force =     0.00001052    0.00001052   -0.00001716
     atom   44 type  1   force =     0.00000783    0.00000783   -0.00001634
     atom   45 type  1   force =    -0.00000758    0.00000735    0.00000300
     atom   46 type  1   force =     0.00000735   -0.00000758    0.00000300
     atom   47 type  1   force =    -0.00000842   -0.00000842    0.00002310
     atom   48 type  1   force =     0.00000160    0.00002685   -0.00000548
     atom   49 type  1   force =    -0.00000404    0.00000019   -0.00001982
     atom   50 type  1   force =     0.00000741   -0.00002603   -0.00000173
     atom   51 type  1   force =    -0.00000718   -0.00000088   -0.00000311
     atom   52 type  1   force =    -0.00000790    0.00000672    0.00000095
     atom   53 type  1   force =     0.00000835   -0.00001741    0.00001737
     atom   54 type  1   force =     0.00000715   -0.00000676   -0.00000049
     atom   55 type  1   force =    -0.00000842    0.00001832   -0.00000186
     atom   56 type  1   force =     0.00002685    0.00000160   -0.00000548
     atom   57 type  1   force =    -0.00002603    0.00000741   -0.00000173
     atom   58 type  1   force =     0.00000019   -0.00000404   -0.00001982
     atom   59 type  1   force =    -0.00000088   -0.00000718   -0.00000311
     atom   60 type  1   force =     0.00000672   -0.00000790    0.00000095
     atom   61 type  1   force =    -0.00000676    0.00000715   -0.00000049
     atom   62 type  1   force =    -0.00001741    0.00000835    0.00001737
     atom   63 type  1   force =     0.00001832   -0.00000842   -0.00000186

     Total force =     0.020782     Total SCF correction =     0.000140


     entering subroutine stress ...

          total   stress  (Ry/bohr**3)                   (kbar)     P=   77.54
   0.00052792   0.00010945   0.00010808         77.66     16.10     15.90
   0.00010945   0.00052792   0.00010808         16.10     77.66     15.90
   0.00010808   0.00010808   0.00052555         15.90     15.90     77.31

     kinetic stress (kbar)  17033.24     39.04     39.98
                               39.04  17033.24     39.98
                               39.98     39.98  17032.93

     local   stress (kbar)  -1660.37     32.89     39.67
                               32.89  -1660.37     39.67
                               39.67     39.67  -1659.48

     nonloc. stress (kbar)   3627.38      4.09      3.96
                                4.09   3627.38      3.96
                                3.96      3.96   3627.39

     hartree stress (kbar)   1376.69    -29.28    -29.89
                              -29.28   1376.69    -29.89
                              -29.89    -29.89   1376.40

     exc-cor stress (kbar)  -3816.24      0.06      0.03
                                0.06  -3816.24      0.03
                                0.03      0.03  -3816.24

     corecor stress (kbar)   -529.84     -0.43     -0.41
                               -0.43   -529.84     -0.41
                               -0.41     -0.41   -529.84

     ewald   stress (kbar) -15953.19    -30.28    -37.44
                              -30.28 -15953.19    -37.44
                              -37.44    -37.44 -15953.84

     hubbard stress (kbar)      0.00      0.00      0.00
                                0.00      0.00      0.00
                                0.00      0.00      0.00

     london  stress (kbar)      0.00      0.00      0.00
                                0.00      0.00      0.00
                                0.00      0.00      0.00

     XDM     stress (kbar)      0.00      0.00      0.00
                                0.00      0.00      0.00
                                0.00      0.00      0.00

     dft-nl  stress (kbar)      0.00      0.00      0.00
                                0.00      0.00      0.00
                                0.00      0.00      0.00

     TS-vdW  stress (kbar)      0.00      0.00      0.00
                                0.00      0.00      0.00
                                0.00      0.00      0.00



     Writing output data file supercell-078.save
 
     init_run     :     10.43s CPU      5.55s WALL (       1 calls)
     electrons    :    249.66s CPU    131.66s WALL (       1 calls)
     forces       :      2.25s CPU      1.20s WALL (       1 calls)
     stress       :     13.47s CPU      6.80s WALL (       1 calls)

     Called by init_run:
     wfcinit      :      9.66s CPU      5.10s WALL (       1 calls)
     wfcinit:atom :      0.03s CPU      0.02s WALL (      12 calls)
     wfcinit:wfcr :      9.39s CPU      4.93s WALL (      12 calls)
     potinit      :      0.09s CPU      0.04s WALL (       1 calls)

     Called by electrons:
     c_bands      :    224.41s CPU    118.25s WALL (      13 calls)
     sum_band     :     23.93s CPU     12.65s WALL (      13 calls)
     v_of_rho     :      0.53s CPU      0.28s WALL (      14 calls)
     v_h          :      0.02s CPU      0.01s WALL (      14 calls)
     v_xc         :      0.58s CPU      0.31s WALL (      16 calls)
     newd         :      0.39s CPU      0.20s WALL (      14 calls)
     mix_rho      :      0.11s CPU      0.06s WALL (      13 calls)

     Called by c_bands:
     init_us_2    :      1.44s CPU      0.76s WALL (     348 calls)
     cegterg      :    219.78s CPU    115.79s WALL (     156 calls)

     Called by sum_band:
     sum_band:bec :      0.17s CPU      0.09s WALL (     156 calls)
     addusdens    :      0.37s CPU      0.20s WALL (      13 calls)

     Called by *egterg:
     h_psi        :    123.57s CPU     65.67s WALL (     651 calls)
     s_psi        :      9.76s CPU      4.88s WALL (     651 calls)
     g_psi        :      0.24s CPU      0.15s WALL (     483 calls)
     cdiaghg      :     68.94s CPU     36.07s WALL (     639 calls)
     cegterg:over :     10.36s CPU      5.32s WALL (     483 calls)
     cegterg:upda :      6.73s CPU      3.41s WALL (     483 calls)
     cegterg:last :      2.77s CPU      1.37s WALL (     156 calls)
     cdiaghg:chol :      3.03s CPU      1.58s WALL (     639 calls)
     cdiaghg:inve :      2.23s CPU      1.16s WALL (     639 calls)
     cdiaghg:para :      3.82s CPU      1.95s WALL (    1278 calls)

     Called by h_psi:
     h_psi:pot    :    123.02s CPU     65.40s WALL (     651 calls)
     h_psi:calbec :     13.52s CPU      6.91s WALL (     651 calls)
     vloc_psi     :     99.85s CPU     53.61s WALL (     651 calls)
     add_vuspsi   :      9.62s CPU      4.87s WALL (     651 calls)

     General routines
     calbec       :     19.26s CPU      9.87s WALL (     867 calls)
     fft          :      0.59s CPU      0.32s WALL (     390 calls)
     fftw         :    113.10s CPU     60.66s WALL (  140074 calls)
 
     Parallel routines
     fft_scatter  :     46.12s CPU     24.87s WALL (  140464 calls)
 
     PWSCF        :  4m40.12s CPU     2m35.13s WALL

 
   This run was terminated on:   0:51:24  27Dec2016            

=------------------------------------------------------------------------------=
   JOB DONE.
=------------------------------------------------------------------------------=
