
     Program PWSCF v.6.0 starts on 26Dec2016 at 16: 6:56 

     This program is part of the open-source Quantum ESPRESSO suite
     for quantum simulation of materials; please cite
         "P. Giannozzi et al., J. Phys.:Condens. Matter 21 395502 (2009);
          URL http://www.quantum-espresso.org", 
     in publications or presentations arising from this work. More details at
     http://www.quantum-espresso.org/quote
 
           ARCH :    x86_64
             CC :    icc
            CPP :    cpp
            F90 :    ifort
            F77 :    ifort
         DFLAGS :    -D__INTEL -D__DFTI
      BLAS LIBS :    -lmkl_intel_lp64  -lmkl_sequential -lmkl_core
    LAPACK LIBS :    
       FFT LIBS :    
      MASS LIBS :    

     Parallel version (MPI & OpenMP), running on      64 processor cores
     Number of MPI processes:                32
     Threads/MPI process:                     2
     R & G space division:  proc/nbgrp/npool/nimage =      32
     Reading input from supercell-063.in

     Current dimensions of program PWSCF are:
     Max number of different atomic species (ntypx) = 10
     Max number of k-points (npk) =  40000
     Max angular momentum in pseudopotentials (lmaxx) =  3

     Subspace diagonalization in iterative solution of the eigenvalue problem:
     one sub-group per band group will be used
     scalapack distributed-memory algorithm (size of sub-group:  4*  4 procs)

 
     Parallelization info
     --------------------
     sticks:   dense  smooth     PW     G-vecs:    dense   smooth      PW
     Min         145     145     39                 7428     7428    1057
     Max         147     147     40                 7431     7431    1060
     Sum        4645    4645   1265               237777   237777   33881
 


     bravais-lattice index     =            0
     lattice parameter (alat)  =      13.4970  a.u.
     unit-cell volume          =    2458.7263 (a.u.)^3
     number of atoms/cell      =           63
     number of atomic types    =            2
     number of electrons       =       254.00 (up: 128.00, down: 126.00)
     number of Kohn-Sham states=          128
     kinetic-energy cutoff     =      80.0000  Ry
     charge density cutoff     =     320.0000  Ry
     convergence threshold     =      1.0E-08
     mixing beta               =       0.7000
     number of iterations used =            8  plain     mixing
     Exchange-correlation      = PBE ( 1  4  3  4 0 0)

     celldm(1)=  13.496984  celldm(2)=   0.000000  celldm(3)=   0.000000
     celldm(4)=   0.000000  celldm(5)=   0.000000  celldm(6)=   0.000000

     crystal axes: (cart. coord. in units of alat)
               a(1) = (   1.000000   0.000000   0.000000 )  
               a(2) = (   0.000000   1.000000   0.000000 )  
               a(3) = (   0.000000   0.000000   1.000000 )  

     reciprocal axes: (cart. coord. in units 2 pi/alat)
               b(1) = (  1.000000  0.000000  0.000000 )  
               b(2) = (  0.000000  1.000000  0.000000 )  
               b(3) = (  0.000000  0.000000  1.000000 )  


     PseudoPot. # 1 for C  read from file:
     ../../psps/C_pbe_v1.2.uspp.F.UPF
     MD5 check sum: d1aef80898a10debaa0f26306b886e00
     Pseudo is Ultrasoft + core correction, Zval =  4.0
     Generated by new atomic code, or converted to UPF format
     Using radial grid of  721 points,  4 beta functions with: 
                l(1) =   0
                l(2) =   0
                l(3) =   1
                l(4) =   1
     Q(r) pseudized with  8 coefficients,  rinner =    1.100   1.100   1.100


     PseudoPot. # 2 for  N read from file:
     ../../psps/N.pbe.theos.UPF
     MD5 check sum: 1fde47ee573fe9ed3106b9b4217eb757
     Pseudo is Ultrasoft + core correction, Zval =  5.0
     Generated using "atomic" code by A. Dal Corso  v.5.1
     Using radial grid of 1085 points,  4 beta functions with: 
                l(1) =   0
                l(2) =   0
                l(3) =   1
                l(4) =   1
     Q(r) pseudized with 0 coefficients 


     atomic species   valence    mass     pseudopotential
        C              4.00    12.01070     C ( 1.00)
        N              5.00    14.00670      N( 1.00)

     Starting magnetic structure 
     atomic species   magnetization
        C            0.000
        N            0.000

      2 Sym. Ops. (no inversion) found


                                    s                        frac. trans.

      isym =  1     identity                                     

 cryst.   s( 1) = (     1          0          0      )
                  (     0          1          0      )
                  (     0          0          1      )

 cart.    s( 1) = (  1.0000000  0.0000000  0.0000000 )
                  (  0.0000000  1.0000000  0.0000000 )
                  (  0.0000000  0.0000000  1.0000000 )


      isym =  2     inv. 180 deg rotation - cart. axis [1,-1,0]  

 cryst.   s( 2) = (     0          1          0      )
                  (     1          0          0      )
                  (     0          0          1      )

 cart.    s( 2) = (  0.0000000  1.0000000  0.0000000 )
                  (  1.0000000  0.0000000  0.0000000 )
                  (  0.0000000  0.0000000  1.0000000 )


   Cartesian axes

     site n.     atom                  positions (alat units)
         1           C   tau(   1) = (   0.9999240   0.9999240   0.9999240  )
         2           C   tau(   2) = (   0.5010187   0.0009765   0.0009765  )
         3           C   tau(   3) = (   0.0009765   0.5010187   0.0009765  )
         4           C   tau(   4) = (   0.5005495   0.5005495   0.9989103  )
         5           C   tau(   5) = (   0.0009765   0.0009765   0.5010187  )
         6           C   tau(   6) = (   0.5005495   0.9989103   0.5005495  )
         7           C   tau(   7) = (   0.9989103   0.5005495   0.5005495  )
         8           N   tau(   8) = (   0.4886469   0.4886469   0.4886469  )
         9           C   tau(   9) = (   0.2501784   0.2501784   0.9990836  )
        10           C   tau(  10) = (   0.7493271   0.2498095   0.0005958  )
        11           C   tau(  11) = (   0.2498095   0.7493271   0.0005958  )
        12           C   tau(  12) = (   0.7500802   0.7500802   0.9998954  )
        13           C   tau(  13) = (   0.2485154   0.2485154   0.4996594  )
        14           C   tau(  14) = (   0.7478087   0.2522378   0.5012677  )
        15           C   tau(  15) = (   0.2522378   0.7478087   0.5012677  )
        16           C   tau(  16) = (   0.7589111   0.7589111   0.4947246  )
        17           C   tau(  17) = (   0.9990836   0.2501784   0.2501784  )
        18           C   tau(  18) = (   0.4996594   0.2485154   0.2485154  )
        19           C   tau(  19) = (   0.0005958   0.7493271   0.2498095  )
        20           C   tau(  20) = (   0.5012677   0.7478087   0.2522378  )
        21           C   tau(  21) = (   0.0005958   0.2498095   0.7493271  )
        22           C   tau(  22) = (   0.5012677   0.2522378   0.7478087  )
        23           C   tau(  23) = (   0.9998954   0.7500802   0.7500802  )
        24           C   tau(  24) = (   0.4947246   0.7589111   0.7589111  )
        25           C   tau(  25) = (   0.2501784   0.9990836   0.2501784  )
        26           C   tau(  26) = (   0.7493271   0.0005958   0.2498095  )
        27           C   tau(  27) = (   0.2485154   0.4996594   0.2485154  )
        28           C   tau(  28) = (   0.7478087   0.5012677   0.2522378  )
        29           C   tau(  29) = (   0.2498095   0.0005958   0.7493271  )
        30           C   tau(  30) = (   0.7500802   0.9998954   0.7500802  )
        31           C   tau(  31) = (   0.2522378   0.5012677   0.7478087  )
        32           C   tau(  32) = (   0.7589111   0.4947246   0.7589111  )
        33           C   tau(  33) = (   0.1248604   0.1248604   0.1248604  )
        34           C   tau(  34) = (   0.6249567   0.1250370   0.1250370  )
        35           C   tau(  35) = (   0.1250370   0.6249567   0.1250370  )
        36           C   tau(  36) = (   0.6251416   0.6251416   0.1251297  )
        37           C   tau(  37) = (   0.1250370   0.1250370   0.6249567  )
        38           C   tau(  38) = (   0.6251416   0.1251297   0.6251416  )
        39           C   tau(  39) = (   0.1251297   0.6251416   0.6251416  )
        40           C   tau(  40) = (   0.3749530   0.3749530   0.1236879  )
        41           C   tau(  41) = (   0.8739188   0.3754093   0.1259121  )
        42           C   tau(  42) = (   0.3754093   0.8739188   0.1259121  )
        43           C   tau(  43) = (   0.8748955   0.8748955   0.1267468  )
        44           C   tau(  44) = (   0.3753579   0.3753579   0.6191599  )
        45           C   tau(  45) = (   0.8730563   0.3777595   0.6264949  )
        46           C   tau(  46) = (   0.3777595   0.8730563   0.6264949  )
        47           C   tau(  47) = (   0.8746529   0.8746529   0.6243844  )
        48           C   tau(  48) = (   0.3749530   0.1236879   0.3749530  )
        49           C   tau(  49) = (   0.8739188   0.1259121   0.3754093  )
        50           C   tau(  50) = (   0.3753579   0.6191599   0.3753579  )
        51           C   tau(  51) = (   0.8730563   0.6264949   0.3777595  )
        52           C   tau(  52) = (   0.3754093   0.1259121   0.8739188  )
        53           C   tau(  53) = (   0.8748955   0.1252650   0.8748955  )
        54           C   tau(  54) = (   0.3777595   0.6264949   0.8730563  )
        55           C   tau(  55) = (   0.8746529   0.6243844   0.8746529  )
        56           C   tau(  56) = (   0.1236879   0.3749530   0.3749530  )
        57           C   tau(  57) = (   0.6191599   0.3753579   0.3753579  )
        58           C   tau(  58) = (   0.1259121   0.8739188   0.3754093  )
        59           C   tau(  59) = (   0.6264949   0.8730563   0.3777595  )
        60           C   tau(  60) = (   0.1259121   0.3754093   0.8739188  )
        61           C   tau(  61) = (   0.6264949   0.3777595   0.8730563  )
        62           C   tau(  62) = (   0.1252650   0.8748955   0.8748955  )
        63           C   tau(  63) = (   0.6243844   0.8746529   0.8746529  )

   Crystallographic axes

     site n.     atom                  positions (cryst. coord.)
         1           C   tau(   1) = (  0.9999240  0.9999240  0.9999240  )
         2           C   tau(   2) = (  0.5010187  0.0009765  0.0009765  )
         3           C   tau(   3) = (  0.0009765  0.5010187  0.0009765  )
         4           C   tau(   4) = (  0.5005495  0.5005495  0.9989103  )
         5           C   tau(   5) = (  0.0009765  0.0009765  0.5010187  )
         6           C   tau(   6) = (  0.5005495  0.9989103  0.5005495  )
         7           C   tau(   7) = (  0.9989103  0.5005495  0.5005495  )
         8           N   tau(   8) = (  0.4886469  0.4886469  0.4886469  )
         9           C   tau(   9) = (  0.2501784  0.2501784  0.9990836  )
        10           C   tau(  10) = (  0.7493271  0.2498095  0.0005958  )
        11           C   tau(  11) = (  0.2498095  0.7493271  0.0005958  )
        12           C   tau(  12) = (  0.7500802  0.7500802  0.9998954  )
        13           C   tau(  13) = (  0.2485154  0.2485154  0.4996594  )
        14           C   tau(  14) = (  0.7478087  0.2522378  0.5012677  )
        15           C   tau(  15) = (  0.2522378  0.7478087  0.5012677  )
        16           C   tau(  16) = (  0.7589111  0.7589111  0.4947246  )
        17           C   tau(  17) = (  0.9990836  0.2501784  0.2501784  )
        18           C   tau(  18) = (  0.4996594  0.2485154  0.2485154  )
        19           C   tau(  19) = (  0.0005958  0.7493271  0.2498095  )
        20           C   tau(  20) = (  0.5012677  0.7478087  0.2522378  )
        21           C   tau(  21) = (  0.0005958  0.2498095  0.7493271  )
        22           C   tau(  22) = (  0.5012677  0.2522378  0.7478087  )
        23           C   tau(  23) = (  0.9998954  0.7500802  0.7500802  )
        24           C   tau(  24) = (  0.4947246  0.7589111  0.7589111  )
        25           C   tau(  25) = (  0.2501784  0.9990836  0.2501784  )
        26           C   tau(  26) = (  0.7493271  0.0005958  0.2498095  )
        27           C   tau(  27) = (  0.2485154  0.4996594  0.2485154  )
        28           C   tau(  28) = (  0.7478087  0.5012677  0.2522378  )
        29           C   tau(  29) = (  0.2498095  0.0005958  0.7493271  )
        30           C   tau(  30) = (  0.7500802  0.9998954  0.7500802  )
        31           C   tau(  31) = (  0.2522378  0.5012677  0.7478087  )
        32           C   tau(  32) = (  0.7589111  0.4947246  0.7589111  )
        33           C   tau(  33) = (  0.1248604  0.1248604  0.1248604  )
        34           C   tau(  34) = (  0.6249567  0.1250370  0.1250370  )
        35           C   tau(  35) = (  0.1250370  0.6249567  0.1250370  )
        36           C   tau(  36) = (  0.6251416  0.6251416  0.1251297  )
        37           C   tau(  37) = (  0.1250370  0.1250370  0.6249567  )
        38           C   tau(  38) = (  0.6251416  0.1251297  0.6251416  )
        39           C   tau(  39) = (  0.1251297  0.6251416  0.6251416  )
        40           C   tau(  40) = (  0.3749530  0.3749530  0.1236879  )
        41           C   tau(  41) = (  0.8739188  0.3754093  0.1259121  )
        42           C   tau(  42) = (  0.3754093  0.8739188  0.1259121  )
        43           C   tau(  43) = (  0.8748955  0.8748955  0.1267468  )
        44           C   tau(  44) = (  0.3753579  0.3753579  0.6191599  )
        45           C   tau(  45) = (  0.8730563  0.3777595  0.6264949  )
        46           C   tau(  46) = (  0.3777595  0.8730563  0.6264949  )
        47           C   tau(  47) = (  0.8746529  0.8746529  0.6243844  )
        48           C   tau(  48) = (  0.3749530  0.1236879  0.3749530  )
        49           C   tau(  49) = (  0.8739188  0.1259121  0.3754093  )
        50           C   tau(  50) = (  0.3753579  0.6191599  0.3753579  )
        51           C   tau(  51) = (  0.8730563  0.6264949  0.3777595  )
        52           C   tau(  52) = (  0.3754093  0.1259121  0.8739188  )
        53           C   tau(  53) = (  0.8748955  0.1252650  0.8748955  )
        54           C   tau(  54) = (  0.3777595  0.6264949  0.8730563  )
        55           C   tau(  55) = (  0.8746529  0.6243844  0.8746529  )
        56           C   tau(  56) = (  0.1236879  0.3749530  0.3749530  )
        57           C   tau(  57) = (  0.6191599  0.3753579  0.3753579  )
        58           C   tau(  58) = (  0.1259121  0.8739188  0.3754093  )
        59           C   tau(  59) = (  0.6264949  0.8730563  0.3777595  )
        60           C   tau(  60) = (  0.1259121  0.3754093  0.8739188  )
        61           C   tau(  61) = (  0.6264949  0.3777595  0.8730563  )
        62           C   tau(  62) = (  0.1252650  0.8748955  0.8748955  )
        63           C   tau(  63) = (  0.6243844  0.8746529  0.8746529  )

     number of k points=     6
                       cart. coord. in units 2pi/alat
        k(    1) = (   0.0000000   0.0000000   0.0000000), wk =   0.1250000
        k(    2) = (   0.0000000   0.0000000  -0.5000000), wk =   0.1250000
        k(    3) = (   0.0000000  -0.5000000  -0.5000000), wk =   0.2500000
        k(    4) = (  -0.5000000  -0.5000000  -0.5000000), wk =   0.1250000
        k(    5) = (  -0.5000000   0.0000000   0.0000000), wk =   0.2500000
        k(    6) = (  -0.5000000   0.5000000   0.0000000), wk =   0.1250000

                       cryst. coord.
        k(    1) = (   0.0000000   0.0000000   0.0000000), wk =   0.1250000
        k(    2) = (   0.0000000   0.0000000  -0.5000000), wk =   0.1250000
        k(    3) = (   0.0000000  -0.5000000  -0.5000000), wk =   0.2500000
        k(    4) = (  -0.5000000  -0.5000000  -0.5000000), wk =   0.1250000
        k(    5) = (  -0.5000000   0.0000000   0.0000000), wk =   0.2500000
        k(    6) = (  -0.5000000   0.5000000   0.0000000), wk =   0.1250000

     Dense  grid:   237777 G-vectors     FFT dimensions: (  80,  80,  80)

     Estimated max dynamical RAM per process >      54.09Mb

     Estimated total allocated dynamical RAM >    1730.94Mb
     Generating pointlists ...
     new r_m :   0.0852 (alat units)  1.1505 (a.u.) for type    1
     new r_m :   0.0852 (alat units)  1.1505 (a.u.) for type    2

     Initial potential from superposition of free atoms

     starting charge  252.99748, renormalised to  254.00000
     Starting wfc are  252 randomized atomic wfcs

     total cpu time spent up to now is        7.0 secs

     per-process dynamical memory:    56.6 Mb

     Self-consistent Calculation

     iteration #  1     ecut=    80.00 Ry     beta=0.70
     Davidson diagonalization with overlap
     ethr =  1.00E-02,  avg # of iterations =  2.0

     total cpu time spent up to now is       19.0 secs

     total energy              =    -730.15280568 Ry
     Harris-Foulkes estimate   =    -731.82772386 Ry
     estimated scf accuracy    <       3.71253325 Ry

     total magnetization       =     2.00 Bohr mag/cell
     absolute magnetization    =     2.00 Bohr mag/cell

     iteration #  2     ecut=    80.00 Ry     beta=0.70
     Davidson diagonalization with overlap
     ethr =  1.46E-03,  avg # of iterations =  3.0

     total cpu time spent up to now is       29.3 secs

     total energy              =    -730.36921466 Ry
     Harris-Foulkes estimate   =    -730.57180826 Ry
     estimated scf accuracy    <       0.31339415 Ry

     total magnetization       =     2.00 Bohr mag/cell
     absolute magnetization    =     2.05 Bohr mag/cell

     iteration #  3     ecut=    80.00 Ry     beta=0.70
     Davidson diagonalization with overlap
     ethr =  1.23E-04,  avg # of iterations =  3.9

     total cpu time spent up to now is       44.2 secs

     total energy              =    -730.38074279 Ry
     Harris-Foulkes estimate   =    -730.65079487 Ry
     estimated scf accuracy    <       0.61324260 Ry

     total magnetization       =     2.00 Bohr mag/cell
     absolute magnetization    =     2.10 Bohr mag/cell

     iteration #  4     ecut=    80.00 Ry     beta=0.70
     Davidson diagonalization with overlap
     ethr =  1.23E-04,  avg # of iterations =  3.1

     total cpu time spent up to now is       56.1 secs

     total energy              =    -730.50993088 Ry
     Harris-Foulkes estimate   =    -730.51710936 Ry
     estimated scf accuracy    <       0.01853037 Ry

     total magnetization       =     2.00 Bohr mag/cell
     absolute magnetization    =     2.15 Bohr mag/cell

     iteration #  5     ecut=    80.00 Ry     beta=0.70
     Davidson diagonalization with overlap
     ethr =  7.30E-06,  avg # of iterations =  3.0

     total cpu time spent up to now is       67.8 secs

     total energy              =    -730.51452818 Ry
     Harris-Foulkes estimate   =    -730.51541773 Ry
     estimated scf accuracy    <       0.00268087 Ry

     total magnetization       =     2.00 Bohr mag/cell
     absolute magnetization    =     2.17 Bohr mag/cell

     iteration #  6     ecut=    80.00 Ry     beta=0.70
     Davidson diagonalization with overlap
     ethr =  1.06E-06,  avg # of iterations =  3.1

     total cpu time spent up to now is       79.5 secs

     total energy              =    -730.51515466 Ry
     Harris-Foulkes estimate   =    -730.51523287 Ry
     estimated scf accuracy    <       0.00025861 Ry

     total magnetization       =     2.00 Bohr mag/cell
     absolute magnetization    =     2.20 Bohr mag/cell

     iteration #  7     ecut=    80.00 Ry     beta=0.70
     Davidson diagonalization with overlap
     ethr =  1.02E-07,  avg # of iterations =  3.0

     total cpu time spent up to now is       92.3 secs

     total energy              =    -730.51523993 Ry
     Harris-Foulkes estimate   =    -730.51525125 Ry
     estimated scf accuracy    <       0.00006177 Ry

     total magnetization       =     2.00 Bohr mag/cell
     absolute magnetization    =     2.21 Bohr mag/cell

     iteration #  8     ecut=    80.00 Ry     beta=0.70
     Davidson diagonalization with overlap
     ethr =  2.43E-08,  avg # of iterations =  3.4

     total cpu time spent up to now is      104.4 secs

     total energy              =    -730.51525930 Ry
     Harris-Foulkes estimate   =    -730.51525970 Ry
     estimated scf accuracy    <       0.00001252 Ry

     total magnetization       =     2.00 Bohr mag/cell
     absolute magnetization    =     2.22 Bohr mag/cell

     iteration #  9     ecut=    80.00 Ry     beta=0.70
     Davidson diagonalization with overlap
     ethr =  4.93E-09,  avg # of iterations =  3.0

     total cpu time spent up to now is      116.4 secs

     total energy              =    -730.51526395 Ry
     Harris-Foulkes estimate   =    -730.51526346 Ry
     estimated scf accuracy    <       0.00000130 Ry

     total magnetization       =     2.00 Bohr mag/cell
     absolute magnetization    =     2.22 Bohr mag/cell

     iteration # 10     ecut=    80.00 Ry     beta=0.70
     Davidson diagonalization with overlap
     ethr =  5.10E-10,  avg # of iterations =  3.1

     total cpu time spent up to now is      137.9 secs

     total energy              =    -730.51526456 Ry
     Harris-Foulkes estimate   =    -730.51526444 Ry
     estimated scf accuracy    <       0.00000023 Ry

     total magnetization       =     2.00 Bohr mag/cell
     absolute magnetization    =     2.22 Bohr mag/cell

     iteration # 11     ecut=    80.00 Ry     beta=0.70
     Davidson diagonalization with overlap
     ethr =  9.21E-11,  avg # of iterations =  3.5

     total cpu time spent up to now is      151.5 secs

     total energy              =    -730.51526470 Ry
     Harris-Foulkes estimate   =    -730.51526468 Ry
     estimated scf accuracy    <       0.00000003 Ry

     total magnetization       =     2.00 Bohr mag/cell
     absolute magnetization    =     2.23 Bohr mag/cell

     iteration # 12     ecut=    80.00 Ry     beta=0.70
     Davidson diagonalization with overlap
     ethr =  1.02E-11,  avg # of iterations =  3.0
 
     Magnetic moment per site:
     atom:    1    charge:    1.8095    magn:    0.0035    constr:    0.0000
     atom:    2    charge:    1.8095    magn:    0.0167    constr:    0.0000
     atom:    3    charge:    1.8095    magn:    0.0167    constr:    0.0000
     atom:    4    charge:    1.8113    magn:    0.0062    constr:    0.0000
     atom:    5    charge:    1.8095    magn:    0.0167    constr:    0.0000
     atom:    6    charge:    1.8113    magn:    0.0062    constr:    0.0000
     atom:    7    charge:    1.8113    magn:    0.0062    constr:    0.0000
     atom:    8    charge:    2.9033    magn:    0.0025    constr:    0.0000
     atom:    9    charge:    1.8130    magn:    0.0029    constr:    0.0000
     atom:   10    charge:    1.8096    magn:    0.0189    constr:    0.0000
     atom:   11    charge:    1.8096    magn:    0.0189    constr:    0.0000
     atom:   12    charge:    1.8079    magn:    0.0075    constr:    0.0000
     atom:   13    charge:    1.8220    magn:    0.0017    constr:    0.0000
     atom:   14    charge:    1.8067    magn:    0.0052    constr:    0.0000
     atom:   15    charge:    1.8067    magn:    0.0052    constr:    0.0000
     atom:   16    charge:    1.8157    magn:    0.2474    constr:    0.0000
     atom:   17    charge:    1.8129    magn:    0.0029    constr:    0.0000
     atom:   18    charge:    1.8220    magn:    0.0017    constr:    0.0000
     atom:   19    charge:    1.8115    magn:    0.0189    constr:    0.0000
     atom:   20    charge:    1.8067    magn:    0.0052    constr:    0.0000
     atom:   21    charge:    1.8096    magn:    0.0189    constr:    0.0000
     atom:   22    charge:    1.8067    magn:    0.0052    constr:    0.0000
     atom:   23    charge:    1.8098    magn:    0.0075    constr:    0.0000
     atom:   24    charge:    1.8157    magn:    0.2475    constr:    0.0000
     atom:   25    charge:    1.8129    magn:    0.0029    constr:    0.0000
     atom:   26    charge:    1.8115    magn:    0.0189    constr:    0.0000
     atom:   27    charge:    1.8220    magn:    0.0017    constr:    0.0000
     atom:   28    charge:    1.8067    magn:    0.0052    constr:    0.0000
     atom:   29    charge:    1.8096    magn:    0.0189    constr:    0.0000
     atom:   30    charge:    1.8098    magn:    0.0075    constr:    0.0000
     atom:   31    charge:    1.8067    magn:    0.0052    constr:    0.0000
     atom:   32    charge:    1.8157    magn:    0.2475    constr:    0.0000
     atom:   33    charge:    1.8073    magn:   -0.0001    constr:    0.0000
     atom:   34    charge:    1.8255    magn:    0.0076    constr:    0.0000
     atom:   35    charge:    1.8255    magn:    0.0076    constr:    0.0000
     atom:   36    charge:    1.8150    magn:   -0.0014    constr:    0.0000
     atom:   37    charge:    1.8256    magn:    0.0076    constr:    0.0000
     atom:   38    charge:    1.8149    magn:   -0.0013    constr:    0.0000
     atom:   39    charge:    1.8149    magn:   -0.0013    constr:    0.0000
     atom:   40    charge:    1.8108    magn:   -0.0010    constr:    0.0000
     atom:   41    charge:    1.8042    magn:   -0.0014    constr:    0.0000
     atom:   42    charge:    1.8042    magn:   -0.0014    constr:    0.0000
     atom:   43    charge:    1.8105    magn:   -0.0015    constr:    0.0000
     atom:   44    charge:    1.7924    magn:    0.0010    constr:    0.0000
     atom:   45    charge:    1.8151    magn:   -0.0030    constr:    0.0000
     atom:   46    charge:    1.8151    magn:   -0.0030    constr:    0.0000
     atom:   47    charge:    1.8201    magn:   -0.0075    constr:    0.0000
     atom:   48    charge:    1.8108    magn:   -0.0009    constr:    0.0000
     atom:   49    charge:    1.8043    magn:   -0.0014    constr:    0.0000
     atom:   50    charge:    1.7924    magn:    0.0010    constr:    0.0000
     atom:   51    charge:    1.8152    magn:   -0.0030    constr:    0.0000
     atom:   52    charge:    1.8042    magn:   -0.0014    constr:    0.0000
     atom:   53    charge:    1.8099    magn:   -0.0015    constr:    0.0000
     atom:   54    charge:    1.8151    magn:   -0.0030    constr:    0.0000
     atom:   55    charge:    1.8200    magn:   -0.0075    constr:    0.0000
     atom:   56    charge:    1.8108    magn:   -0.0009    constr:    0.0000
     atom:   57    charge:    1.7924    magn:    0.0010    constr:    0.0000
     atom:   58    charge:    1.8043    magn:   -0.0014    constr:    0.0000
     atom:   59    charge:    1.8152    magn:   -0.0030    constr:    0.0000
     atom:   60    charge:    1.8042    magn:   -0.0014    constr:    0.0000
     atom:   61    charge:    1.8151    magn:   -0.0030    constr:    0.0000
     atom:   62    charge:    1.8099    magn:   -0.0015    constr:    0.0000
     atom:   63    charge:    1.8200    magn:   -0.0075    constr:    0.0000

     total cpu time spent up to now is      165.3 secs

     End of self-consistent calculation

 ------ SPIN UP ------------


          k = 0.0000 0.0000 0.0000 ( 29711 PWs)   bands (ev):

    -8.5719  -7.0106  -6.2785  -6.2782  -6.1745  -6.1710  -5.8960  -4.9499
    -4.1404  -4.1395  -4.1147  -4.1131  -4.0453  -4.0432  -4.0090  -3.9454
    -3.8866  -3.8863  -3.3817  -2.9776  -2.7011  -2.6988  -2.1402  -0.3871
    -0.3864  -0.3551  -0.3217  -0.1291   0.1548   0.1552   0.2543   0.2583
     0.3355   0.5720   0.7909   0.7944   0.9492   0.9503   0.9719   0.9983
     0.9993   1.0361   1.2613   1.2621   2.9874   3.8626   3.8635   3.9952
     4.1977   4.1982   4.2020   4.2035   4.2350   4.2400   4.3807   4.3823
     4.4587   4.4593   4.5716   4.6249   4.6322   4.6325   4.6339   4.7197
     4.7208   4.8604   4.9104   4.9113   5.0098   5.1826   5.1890   5.2540
     5.3110   5.3141   5.3535   5.3769   5.3785   5.9709   5.9711   6.0021
     6.5736   6.5776   6.6918   6.9507   6.9706   6.9708   7.4035   8.2660
     8.2722   8.3407   8.4172   8.4253   8.6009   8.6010   8.7627   8.7652
     8.7752   8.7791   8.8208   8.8208   8.8537   9.2185   9.2206   9.2307
     9.6525   9.6527   9.8537   9.8614   9.8663   9.8772   9.9050   9.9293
     9.9363   9.9418   9.9524   9.9525  10.0624  10.0627  10.1832  10.1921
    10.2542  10.7908  12.1160  12.3616  12.3669  13.6850  14.7195  14.7204

     occupation numbers 
     1.0000   1.0000   1.0000   1.0000   1.0000   1.0000   1.0000   1.0000
     1.0000   1.0000   1.0000   1.0000   1.0000   1.0000   1.0000   1.0000
     1.0000   1.0000   1.0000   1.0000   1.0000   1.0000   1.0000   1.0000
     1.0000   1.0000   1.0000   1.0000   1.0000   1.0000   1.0000   1.0000
     1.0000   1.0000   1.0000   1.0000   1.0000   1.0000   1.0000   1.0000
     1.0000   1.0000   1.0000   1.0000   1.0000   1.0000   1.0000   1.0000
     1.0000   1.0000   1.0000   1.0000   1.0000   1.0000   1.0000   1.0000
     1.0000   1.0000   1.0000   1.0000   1.0000   1.0000   1.0000   1.0000
     1.0000   1.0000   1.0000   1.0000   1.0000   1.0000   1.0000   1.0000
     1.0000   1.0000   1.0000   1.0000   1.0000   1.0000   1.0000   1.0000
     1.0000   1.0000   1.0000   1.0000   1.0000   1.0000   1.0000   1.0000
     1.0000   1.0000   1.0000   1.0000   1.0000   1.0000   1.0000   1.0000
     1.0000   1.0000   1.0000   1.0000   1.0000   1.0000   1.0000   1.0000
     1.0000   1.0000   1.0000   1.0000   1.0000   1.0000   1.0000   1.0000
     1.0000   1.0000   1.0000   1.0000   1.0000   1.0000   1.0000   1.0000
     1.0000   1.0000   1.0000   1.0000   1.0000   1.0000   1.0000   1.0000

          k = 0.0000 0.0000-0.5000 ( 29686 PWs)   bands (ev):

    -8.1682  -7.8528  -6.5688  -5.7757  -5.6993  -5.6836  -5.6721  -5.6458
    -5.5269  -5.1909  -4.2506  -3.6710  -3.6543  -3.6141  -3.5877  -3.5160
    -3.4449  -3.3907  -3.3848  -2.8075  -1.9870  -1.6317  -1.6179  -1.5981
    -1.5425  -1.4681  -1.4021  -0.7958   0.2648   0.3597   0.4265   0.4471
     0.5229   0.5923   0.7176   0.9962   1.2158   1.3258   1.3392   1.3832
     1.5400   1.6295   1.6441   1.9618   2.3648   2.4063   2.4426   2.5383
     2.5547   2.7456   2.7634   3.7915   3.8934   3.9915   4.0552   4.0726
     4.1122   4.1819   4.3819   4.4155   4.4875   5.3090   5.4821   5.5459
     5.5463   5.5838   5.6960   5.7354   5.8002   5.8492   6.2545   6.2701
     6.4042   6.4112   6.4268   6.5759   6.6858   6.9503   7.0751   7.1172
     7.1644   7.1905   7.2825   7.3366   7.3838   7.3947   7.3985   7.4265
     7.4297   7.4473   7.4739   7.5086   7.5210   7.5456   7.8526   8.0005
     8.0294   8.0466   8.2025   8.2573   8.3136   8.3563   8.7716   8.9369
     9.3569   9.6584   9.6796   9.8580   9.8916   9.9460   9.9474   9.9569
     9.9919   9.9979  10.0094  10.0207  10.0731  10.2377  10.7841  10.8932
    10.9015  11.0861  11.0870  11.1674  11.8905  13.2051  14.2896  14.5045

     occupation numbers 
     1.0000   1.0000   1.0000   1.0000   1.0000   1.0000   1.0000   1.0000
     1.0000   1.0000   1.0000   1.0000   1.0000   1.0000   1.0000   1.0000
     1.0000   1.0000   1.0000   1.0000   1.0000   1.0000   1.0000   1.0000
     1.0000   1.0000   1.0000   1.0000   1.0000   1.0000   1.0000   1.0000
     1.0000   1.0000   1.0000   1.0000   1.0000   1.0000   1.0000   1.0000
     1.0000   1.0000   1.0000   1.0000   1.0000   1.0000   1.0000   1.0000
     1.0000   1.0000   1.0000   1.0000   1.0000   1.0000   1.0000   1.0000
     1.0000   1.0000   1.0000   1.0000   1.0000   1.0000   1.0000   1.0000
     1.0000   1.0000   1.0000   1.0000   1.0000   1.0000   1.0000   1.0000
     1.0000   1.0000   1.0000   1.0000   1.0000   1.0000   1.0000   1.0000
     1.0000   1.0000   1.0000   1.0000   1.0000   1.0000   1.0000   1.0000
     1.0000   1.0000   1.0000   1.0000   1.0000   1.0000   1.0000   1.0000
     1.0000   1.0000   1.0000   1.0000   1.0000   1.0000   1.0000   1.0000
     1.0000   1.0000   1.0000   1.0000   1.0000   1.0000   1.0000   1.0000
     1.0000   1.0000   1.0000   1.0000   1.0000   1.0000   1.0000   1.0000
     1.0000   1.0000   1.0000   1.0000   1.0000   1.0000   1.0000   1.0000

          k = 0.0000-0.5000-0.5000 ( 29728 PWs)   bands (ev):

    -7.8518  -7.4140  -7.3561  -7.1127  -5.8978  -5.2253  -5.1903  -5.1403
    -5.1367  -5.1125  -4.9866  -4.5466  -3.4992  -3.0772  -3.0250  -2.9900
    -2.9469  -2.9315  -2.7700  -2.5185  -2.1520  -1.8385  -1.8167  -1.7460
    -1.7103  -1.6940  -1.5855  -0.9150  -0.2407  -0.0530  -0.0260   0.1956
     0.4575   0.5057   0.5758   0.5922   0.7084   0.7867   0.8807   0.9496
     1.1116   1.2523   1.4078   2.4268   3.4412   3.4510   3.4760   3.6469
     3.6527   3.6771   3.7649   3.7976   3.8134   3.8433   3.8662   3.8890
     3.8958   3.9052   3.9225   3.9439   4.1583   4.4115   4.4906   5.5197
     5.7391   5.8247   5.8852   5.9305   5.9776   6.0831   6.2028   6.3042
     6.3714   6.4973   6.5780   6.5919   6.6344   6.6989   6.7028   6.8612
     6.9218   6.9990   7.0041   7.0610   7.2476   7.2930   7.3220   7.4578
     7.5772   7.7446   7.8136   8.0267   8.1760   8.2135   8.2182   8.3480
     8.3787   8.4196   8.5683   8.5905   8.9162   8.9623   9.0078   9.2152
     9.2482   9.3311   9.3646   9.3749   9.4050   9.4707   9.4848   9.5634
     9.6364   9.6455   9.6685   9.6693   9.6860   9.7110   9.7283   9.7445
    11.2127  11.4090  11.5491  12.0746  12.1386  13.1929  14.2888  14.5980

     occupation numbers 
     1.0000   1.0000   1.0000   1.0000   1.0000   1.0000   1.0000   1.0000
     1.0000   1.0000   1.0000   1.0000   1.0000   1.0000   1.0000   1.0000
     1.0000   1.0000   1.0000   1.0000   1.0000   1.0000   1.0000   1.0000
     1.0000   1.0000   1.0000   1.0000   1.0000   1.0000   1.0000   1.0000
     1.0000   1.0000   1.0000   1.0000   1.0000   1.0000   1.0000   1.0000
     1.0000   1.0000   1.0000   1.0000   1.0000   1.0000   1.0000   1.0000
     1.0000   1.0000   1.0000   1.0000   1.0000   1.0000   1.0000   1.0000
     1.0000   1.0000   1.0000   1.0000   1.0000   1.0000   1.0000   1.0000
     1.0000   1.0000   1.0000   1.0000   1.0000   1.0000   1.0000   1.0000
     1.0000   1.0000   1.0000   1.0000   1.0000   1.0000   1.0000   1.0000
     1.0000   1.0000   1.0000   1.0000   1.0000   1.0000   1.0000   1.0000
     1.0000   1.0000   1.0000   1.0000   1.0000   1.0000   1.0000   1.0000
     1.0000   1.0000   1.0000   1.0000   1.0000   1.0000   1.0000   1.0000
     1.0000   1.0000   1.0000   1.0000   1.0000   1.0000   1.0000   1.0000
     1.0000   1.0000   1.0000   1.0000   1.0000   1.0000   1.0000   1.0000
     1.0000   1.0000   1.0000   1.0000   1.0000   1.0000   1.0000   1.0000

          k =-0.5000-0.5000-0.5000 ( 29824 PWs)   bands (ev):

    -7.6392  -6.8904  -6.8523  -6.8514  -6.7811  -6.7277  -6.7254  -6.1872
    -4.0467  -2.7546  -2.7532  -2.6101  -2.6088  -2.6016  -2.5979  -2.5906
    -2.5820  -2.5420  -2.5401  -2.5383  -2.5107  -2.5039  -2.5021  -2.4315
    -2.4307  -2.4021  -2.3841  -2.3823  -2.3430  -2.0677  -2.0672  -0.1474
     1.6240   1.8087   1.8137   2.0535   2.0836   2.0851   2.0862   2.0956
     2.1110   2.1151   2.1268   2.1434   2.1458   2.1582   2.1614   2.1942
     2.1958   2.2046   2.2415   2.2422   2.6482   2.8916   2.8922   4.6052
     5.6302   5.6311   5.8049   6.0701   6.0968   6.0989   6.1093   6.1232
     6.1243   6.1272   6.1657   6.1660   6.1711   6.1836   6.1876   6.2038
     6.2048   6.2294   6.2380   6.2407   6.2450   6.2544   6.2937   6.3476
     6.3503   6.3934   6.4861   6.4879   6.9343   6.9449   6.9452   7.6162
     7.6190   7.9328   7.9370   7.9473   7.9605   7.9631   7.9928   7.9933
     8.0067   8.0195   8.0221   8.0423   8.0506   8.0576   8.0948   8.0968
     8.1461   8.1889   8.1907   8.3090   9.5596   9.7615   9.7649  10.6543
    10.8771  10.8843  11.1001  11.1018  11.1253  11.1324  11.1429  11.1583
    11.1649  11.1712  11.1942  11.1971  11.2024  13.4014  14.6039  14.6041

     occupation numbers 
     1.0000   1.0000   1.0000   1.0000   1.0000   1.0000   1.0000   1.0000
     1.0000   1.0000   1.0000   1.0000   1.0000   1.0000   1.0000   1.0000
     1.0000   1.0000   1.0000   1.0000   1.0000   1.0000   1.0000   1.0000
     1.0000   1.0000   1.0000   1.0000   1.0000   1.0000   1.0000   1.0000
     1.0000   1.0000   1.0000   1.0000   1.0000   1.0000   1.0000   1.0000
     1.0000   1.0000   1.0000   1.0000   1.0000   1.0000   1.0000   1.0000
     1.0000   1.0000   1.0000   1.0000   1.0000   1.0000   1.0000   1.0000
     1.0000   1.0000   1.0000   1.0000   1.0000   1.0000   1.0000   1.0000
     1.0000   1.0000   1.0000   1.0000   1.0000   1.0000   1.0000   1.0000
     1.0000   1.0000   1.0000   1.0000   1.0000   1.0000   1.0000   1.0000
     1.0000   1.0000   1.0000   1.0000   1.0000   1.0000   1.0000   1.0000
     1.0000   1.0000   1.0000   1.0000   1.0000   1.0000   1.0000   1.0000
     1.0000   1.0000   1.0000   1.0000   1.0000   1.0000   1.0000   1.0000
     1.0000   1.0000   1.0000   1.0000   1.0000   1.0000   1.0000   1.0000
     1.0000   1.0000   1.0000   1.0000   1.0000   1.0000   1.0000   1.0000
     1.0000   1.0000   1.0000   1.0000   1.0000   1.0000   1.0000   1.0000

          k =-0.5000 0.0000 0.0000 ( 29686 PWs)   bands (ev):

    -8.1672  -7.8547  -6.5657  -5.7750  -5.7011  -5.6839  -5.6731  -5.6441
    -5.5300  -5.1911  -4.2485  -3.6700  -3.6516  -3.6178  -3.5869  -3.5170
    -3.4465  -3.3891  -3.3843  -2.8085  -1.9834  -1.6318  -1.6187  -1.5971
    -1.5445  -1.4699  -1.4020  -0.7961   0.2651   0.3608   0.4252   0.4519
     0.5176   0.5931   0.7151   0.9972   1.2220   1.3284   1.3362   1.3811
     1.5381   1.6298   1.6438   1.9580   2.3687   2.4063   2.4421   2.5389
     2.5592   2.7444   2.7623   3.7882   3.8943   3.9864   4.0544   4.0738
     4.1121   4.1842   4.3845   4.4131   4.4903   5.3076   5.4823   5.5470
     5.5483   5.5802   5.6974   5.7346   5.7981   5.8482   6.2578   6.2728
     6.4049   6.4111   6.4295   6.5760   6.6845   6.9515   7.0764   7.1067
     7.1636   7.1911   7.2819   7.3385   7.3898   7.3950   7.4025   7.4232
     7.4284   7.4466   7.4734   7.5084   7.5205   7.5458   7.8532   7.9983
     8.0279   8.0452   8.2009   8.2600   8.3147   8.3545   8.7716   8.9392
     9.3487   9.6632   9.6797   9.8563   9.9025   9.9343   9.9441   9.9577
     9.9981  10.0022  10.0113  10.0201  10.0732  10.2392  10.7809  10.8938
    10.8999  11.0824  11.0932  11.1636  11.8907  13.2055  14.2896  14.5045

     occupation numbers 
     1.0000   1.0000   1.0000   1.0000   1.0000   1.0000   1.0000   1.0000
     1.0000   1.0000   1.0000   1.0000   1.0000   1.0000   1.0000   1.0000
     1.0000   1.0000   1.0000   1.0000   1.0000   1.0000   1.0000   1.0000
     1.0000   1.0000   1.0000   1.0000   1.0000   1.0000   1.0000   1.0000
     1.0000   1.0000   1.0000   1.0000   1.0000   1.0000   1.0000   1.0000
     1.0000   1.0000   1.0000   1.0000   1.0000   1.0000   1.0000   1.0000
     1.0000   1.0000   1.0000   1.0000   1.0000   1.0000   1.0000   1.0000
     1.0000   1.0000   1.0000   1.0000   1.0000   1.0000   1.0000   1.0000
     1.0000   1.0000   1.0000   1.0000   1.0000   1.0000   1.0000   1.0000
     1.0000   1.0000   1.0000   1.0000   1.0000   1.0000   1.0000   1.0000
     1.0000   1.0000   1.0000   1.0000   1.0000   1.0000   1.0000   1.0000
     1.0000   1.0000   1.0000   1.0000   1.0000   1.0000   1.0000   1.0000
     1.0000   1.0000   1.0000   1.0000   1.0000   1.0000   1.0000   1.0000
     1.0000   1.0000   1.0000   1.0000   1.0000   1.0000   1.0000   1.0000
     1.0000   1.0000   1.0000   1.0000   1.0000   1.0000   1.0000   1.0000
     1.0000   1.0000   1.0000   1.0000   1.0000   1.0000   1.0000   1.0000

          k =-0.5000 0.5000 0.0000 ( 29728 PWs)   bands (ev):

    -7.8517  -7.4143  -7.3550  -7.1143  -5.8965  -5.2246  -5.1888  -5.1407
    -5.1385  -5.1121  -4.9867  -4.5476  -3.4991  -3.0759  -3.0264  -2.9922
    -2.9478  -2.9315  -2.7697  -2.5202  -2.1458  -1.8385  -1.8141  -1.7470
    -1.7131  -1.6942  -1.5845  -0.9137  -0.2389  -0.0550  -0.0280   0.1939
     0.4563   0.4970   0.5783   0.5915   0.7168   0.7850   0.8819   0.9518
     1.1107   1.2527   1.4073   2.4267   3.4399   3.4516   3.4754   3.6481
     3.6551   3.6766   3.7677   3.7972   3.8175   3.8432   3.8679   3.8886
     3.8949   3.9071   3.9211   3.9387   4.1555   4.4114   4.4890   5.5222
     5.7383   5.8246   5.8869   5.9295   5.9735   6.0850   6.1996   6.3066
     6.3724   6.4955   6.5811   6.5912   6.6327   6.6875   6.7093   6.8628
     6.9249   6.9987   7.0063   7.0609   7.2499   7.2953   7.3206   7.4522
     7.5756   7.7465   7.8132   8.0311   8.1770   8.2121   8.2166   8.3472
     8.3785   8.4293   8.5676   8.5900   8.9185   8.9586   9.0094   9.2137
     9.2478   9.3215   9.3633   9.3770   9.4027   9.4698   9.4855   9.5675
     9.6379   9.6477   9.6665   9.6719   9.6863   9.7114   9.7299   9.7359
    11.2222  11.4100  11.5507  12.0676  12.1360  13.1938  14.2895  14.5981

     occupation numbers 
     1.0000   1.0000   1.0000   1.0000   1.0000   1.0000   1.0000   1.0000
     1.0000   1.0000   1.0000   1.0000   1.0000   1.0000   1.0000   1.0000
     1.0000   1.0000   1.0000   1.0000   1.0000   1.0000   1.0000   1.0000
     1.0000   1.0000   1.0000   1.0000   1.0000   1.0000   1.0000   1.0000
     1.0000   1.0000   1.0000   1.0000   1.0000   1.0000   1.0000   1.0000
     1.0000   1.0000   1.0000   1.0000   1.0000   1.0000   1.0000   1.0000
     1.0000   1.0000   1.0000   1.0000   1.0000   1.0000   1.0000   1.0000
     1.0000   1.0000   1.0000   1.0000   1.0000   1.0000   1.0000   1.0000
     1.0000   1.0000   1.0000   1.0000   1.0000   1.0000   1.0000   1.0000
     1.0000   1.0000   1.0000   1.0000   1.0000   1.0000   1.0000   1.0000
     1.0000   1.0000   1.0000   1.0000   1.0000   1.0000   1.0000   1.0000
     1.0000   1.0000   1.0000   1.0000   1.0000   1.0000   1.0000   1.0000
     1.0000   1.0000   1.0000   1.0000   1.0000   1.0000   1.0000   1.0000
     1.0000   1.0000   1.0000   1.0000   1.0000   1.0000   1.0000   1.0000
     1.0000   1.0000   1.0000   1.0000   1.0000   1.0000   1.0000   1.0000
     1.0000   1.0000   1.0000   1.0000   1.0000   1.0000   1.0000   1.0000

 ------ SPIN DOWN ----------


          k = 0.0000 0.0000 0.0000 ( 29711 PWs)   bands (ev):

    -8.5488  -6.9965  -6.2603  -6.2599  -6.1342  -6.1305  -5.8595  -4.9336
    -4.1212  -4.1204  -4.1007  -4.1000  -3.9970  -3.9933  -3.9853  -3.9333
    -3.8360  -3.8354  -3.3377  -2.9609  -2.6480  -2.6454  -2.0018  -0.3701
    -0.3694  -0.3343  -0.3001  -0.0656   0.1714   0.1719   0.2896   0.2937
     0.3580   0.6046   0.8031   0.8062   0.9713   0.9725   1.0009   1.0126
     1.0134   1.0552   1.4300   1.4307   3.1006   3.8818   3.8827   4.0188
     4.2222   4.2289   4.2296   4.2368   4.2599   4.2617   4.4361   4.4371
     4.4735   4.4738   4.5976   4.6460   4.6464   4.6508   4.6508   4.7573
     4.7583   4.8727   4.9407   4.9416   5.0950   5.2155   5.2220   5.2795
     5.3223   5.3254   5.3644   5.4342   5.4361   6.0267   6.0268   6.0427
     6.5980   6.6020   6.7253   6.9945   7.0628   7.0630   7.5800   8.2972
     8.3039   8.3761   8.4511   8.4585   8.6310   8.6310   8.7861   8.7926
     8.7965   8.8185   8.8714   8.8731   8.8732   9.2530   9.2548   9.2592
     9.6861   9.6864   9.8659   9.8740   9.8792   9.8970   9.9397   9.9456
     9.9513   9.9568   9.9837   9.9842  10.0969  10.0974  10.2375  10.2459
    10.3092  11.2054  12.4009  12.5004  12.5066  14.1283  16.0197  16.0201

     occupation numbers 
     1.0000   1.0000   1.0000   1.0000   1.0000   1.0000   1.0000   1.0000
     1.0000   1.0000   1.0000   1.0000   1.0000   1.0000   1.0000   1.0000
     1.0000   1.0000   1.0000   1.0000   1.0000   1.0000   1.0000   1.0000
     1.0000   1.0000   1.0000   1.0000   1.0000   1.0000   1.0000   1.0000
     1.0000   1.0000   1.0000   1.0000   1.0000   1.0000   1.0000   1.0000
     1.0000   1.0000   1.0000   1.0000   1.0000   1.0000   1.0000   1.0000
     1.0000   1.0000   1.0000   1.0000   1.0000   1.0000   1.0000   1.0000
     1.0000   1.0000   1.0000   1.0000   1.0000   1.0000   1.0000   1.0000
     1.0000   1.0000   1.0000   1.0000   1.0000   1.0000   1.0000   1.0000
     1.0000   1.0000   1.0000   1.0000   1.0000   1.0000   1.0000   1.0000
     1.0000   1.0000   1.0000   1.0000   1.0000   1.0000   1.0000   1.0000
     1.0000   1.0000   1.0000   1.0000   1.0000   1.0000   1.0000   1.0000
     1.0000   1.0000   1.0000   1.0000   1.0000   1.0000   1.0000   1.0000
     1.0000   1.0000   1.0000   1.0000   1.0000   1.0000   1.0000   1.0000
     1.0000   1.0000   1.0000   1.0000   1.0000   1.0000   1.0000   1.0000
     1.0000   1.0000   1.0000   1.0000   1.0000   1.0000   0.0000   0.0000

          k = 0.0000 0.0000-0.5000 ( 29686 PWs)   bands (ev):

    -8.1529  -7.8208  -6.5453  -5.7580  -5.6767  -5.6629  -5.6544  -5.6337
    -5.4627  -5.1329  -4.2185  -3.6527  -3.6393  -3.5940  -3.5555  -3.4970
    -3.4107  -3.3434  -3.3244  -2.7346  -1.9605  -1.6114  -1.6029  -1.5799
    -1.5065  -1.4136  -1.3211  -0.6975   0.3205   0.3686   0.4359   0.4657
     0.5455   0.6138   0.8042   1.0357   1.2465   1.3469   1.3665   1.4206
     1.5684   1.6684   1.6992   2.0080   2.3944   2.4280   2.4735   2.5618
     2.5717   2.8479   2.8700   3.8371   3.9086   4.0052   4.0711   4.0972
     4.1617   4.2192   4.4188   4.4714   4.5442   5.3795   5.5018   5.5600
     5.5723   5.6040   5.7501   5.7690   5.8394   5.8967   6.2820   6.3051
     6.4207   6.4547   6.4606   6.6357   6.7430   6.9703   7.0901   7.1589
     7.2103   7.2122   7.3092   7.3608   7.4090   7.4116   7.4154   7.4414
     7.4610   7.4616   7.4911   7.5609   7.5725   7.5979   7.8873   8.0400
     8.0937   8.1029   8.2369   8.2935   8.3490   8.3963   8.8296   9.0361
     9.4157   9.7069   9.7660   9.9026   9.9074   9.9599   9.9641   9.9735
    10.0029  10.0269  10.0464  10.0691  10.1100  10.3017  10.8117  10.9516
    11.0113  11.1305  11.2168  11.2590  12.0852  13.8694  15.6059  15.8670

     occupation numbers 
     1.0000   1.0000   1.0000   1.0000   1.0000   1.0000   1.0000   1.0000
     1.0000   1.0000   1.0000   1.0000   1.0000   1.0000   1.0000   1.0000
     1.0000   1.0000   1.0000   1.0000   1.0000   1.0000   1.0000   1.0000
     1.0000   1.0000   1.0000   1.0000   1.0000   1.0000   1.0000   1.0000
     1.0000   1.0000   1.0000   1.0000   1.0000   1.0000   1.0000   1.0000
     1.0000   1.0000   1.0000   1.0000   1.0000   1.0000   1.0000   1.0000
     1.0000   1.0000   1.0000   1.0000   1.0000   1.0000   1.0000   1.0000
     1.0000   1.0000   1.0000   1.0000   1.0000   1.0000   1.0000   1.0000
     1.0000   1.0000   1.0000   1.0000   1.0000   1.0000   1.0000   1.0000
     1.0000   1.0000   1.0000   1.0000   1.0000   1.0000   1.0000   1.0000
     1.0000   1.0000   1.0000   1.0000   1.0000   1.0000   1.0000   1.0000
     1.0000   1.0000   1.0000   1.0000   1.0000   1.0000   1.0000   1.0000
     1.0000   1.0000   1.0000   1.0000   1.0000   1.0000   1.0000   1.0000
     1.0000   1.0000   1.0000   1.0000   1.0000   1.0000   1.0000   1.0000
     1.0000   1.0000   1.0000   1.0000   1.0000   1.0000   1.0000   1.0000
     1.0000   1.0000   1.0000   1.0000   1.0000   1.0000   0.0000   0.0000

          k = 0.0000-0.5000-0.5000 ( 29728 PWs)   bands (ev):

    -7.8417  -7.3952  -7.3262  -7.0682  -5.8749  -5.2116  -5.1752  -5.1160
    -5.1055  -5.0860  -4.9274  -4.4798  -3.4616  -3.0639  -3.0090  -2.9773
    -2.8992  -2.8954  -2.7128  -2.4926  -2.1353  -1.8228  -1.7988  -1.7335
    -1.6791  -1.6507  -1.4712  -0.8080  -0.2046  -0.0190   0.0031   0.2612
     0.4733   0.5327   0.6099   0.6138   0.7350   0.8091   0.9190   0.9813
     1.1312   1.3038   1.5067   2.5402   3.4711   3.4768   3.4966   3.6710
     3.6783   3.6928   3.7849   3.8301   3.8551   3.8713   3.8946   3.9134
     3.9195   3.9416   3.9469   3.9705   4.1979   4.5167   4.6061   5.5755
     5.7731   5.8452   5.8988   5.9575   6.0023   6.1130   6.2508   6.3823
     6.4095   6.5170   6.6058   6.6151   6.6747   6.7146   6.7187   6.8854
     6.9456   7.0252   7.0344   7.0897   7.2821   7.3307   7.3614   7.4730
     7.6068   7.7926   7.8795   8.0552   8.1922   8.2327   8.2391   8.4235
     8.4413   8.4751   8.6363   8.6398   8.9517   9.0132   9.0476   9.2435
     9.3056   9.3449   9.3878   9.4065   9.4530   9.4986   9.5209   9.5820
     9.6784   9.6952   9.7046   9.7133   9.7194   9.7492   9.7722   9.7899
    11.2705  11.5418  11.9772  12.0998  12.1635  13.8745  15.5891  15.9032

     occupation numbers 
     1.0000   1.0000   1.0000   1.0000   1.0000   1.0000   1.0000   1.0000
     1.0000   1.0000   1.0000   1.0000   1.0000   1.0000   1.0000   1.0000
     1.0000   1.0000   1.0000   1.0000   1.0000   1.0000   1.0000   1.0000
     1.0000   1.0000   1.0000   1.0000   1.0000   1.0000   1.0000   1.0000
     1.0000   1.0000   1.0000   1.0000   1.0000   1.0000   1.0000   1.0000
     1.0000   1.0000   1.0000   1.0000   1.0000   1.0000   1.0000   1.0000
     1.0000   1.0000   1.0000   1.0000   1.0000   1.0000   1.0000   1.0000
     1.0000   1.0000   1.0000   1.0000   1.0000   1.0000   1.0000   1.0000
     1.0000   1.0000   1.0000   1.0000   1.0000   1.0000   1.0000   1.0000
     1.0000   1.0000   1.0000   1.0000   1.0000   1.0000   1.0000   1.0000
     1.0000   1.0000   1.0000   1.0000   1.0000   1.0000   1.0000   1.0000
     1.0000   1.0000   1.0000   1.0000   1.0000   1.0000   1.0000   1.0000
     1.0000   1.0000   1.0000   1.0000   1.0000   1.0000   1.0000   1.0000
     1.0000   1.0000   1.0000   1.0000   1.0000   1.0000   1.0000   1.0000
     1.0000   1.0000   1.0000   1.0000   1.0000   1.0000   1.0000   1.0000
     1.0000   1.0000   1.0000   1.0000   1.0000   1.0000   0.0000   0.0000

          k =-0.5000-0.5000-0.5000 ( 29824 PWs)   bands (ev):

    -7.6311  -6.8823  -6.8318  -6.8314  -6.7628  -6.6867  -6.6840  -6.1077
    -3.9985  -2.7441  -2.7429  -2.5872  -2.5857  -2.5774  -2.5727  -2.5700
    -2.5644  -2.5254  -2.5240  -2.5224  -2.4956  -2.4909  -2.4904  -2.4117
    -2.4105  -2.3684  -2.3550  -2.3546  -2.3286  -1.8995  -1.8991   0.0252
     1.6556   1.8224   1.8275   2.0992   2.1023   2.1062   2.1072   2.1277
     2.1312   2.1355   2.1519   2.1534   2.1579   2.1856   2.1894   2.2173
     2.2188   2.2371   2.2881   2.2896   2.6925   3.0267   3.0272   4.7595
     5.6552   5.6562   5.8238   6.0899   6.1077   6.1093   6.1264   6.1372
     6.1421   6.1482   6.1851   6.1866   6.1935   6.2074   6.2126   6.2406
     6.2509   6.2518   6.2708   6.2732   6.2748   6.2958   6.3316   6.3620
     6.3644   6.4331   6.5601   6.5616   6.9773   7.0098   7.0103   7.6389
     7.6415   7.9528   7.9584   7.9620   7.9761   7.9786   8.0052   8.0192
     8.0429   8.0473   8.0502   8.0518   8.0644   8.0713   8.1362   8.1377
     8.1569   8.2467   8.2484   8.3894   9.6072   9.9338   9.9370  10.9038
    10.9112  11.1079  11.1262  11.1270  11.1456  11.1571  11.1892  11.2005
    11.2047  11.2218  11.2229  11.2383  11.3678  13.9686  15.9676  15.9686

     occupation numbers 
     1.0000   1.0000   1.0000   1.0000   1.0000   1.0000   1.0000   1.0000
     1.0000   1.0000   1.0000   1.0000   1.0000   1.0000   1.0000   1.0000
     1.0000   1.0000   1.0000   1.0000   1.0000   1.0000   1.0000   1.0000
     1.0000   1.0000   1.0000   1.0000   1.0000   1.0000   1.0000   1.0000
     1.0000   1.0000   1.0000   1.0000   1.0000   1.0000   1.0000   1.0000
     1.0000   1.0000   1.0000   1.0000   1.0000   1.0000   1.0000   1.0000
     1.0000   1.0000   1.0000   1.0000   1.0000   1.0000   1.0000   1.0000
     1.0000   1.0000   1.0000   1.0000   1.0000   1.0000   1.0000   1.0000
     1.0000   1.0000   1.0000   1.0000   1.0000   1.0000   1.0000   1.0000
     1.0000   1.0000   1.0000   1.0000   1.0000   1.0000   1.0000   1.0000
     1.0000   1.0000   1.0000   1.0000   1.0000   1.0000   1.0000   1.0000
     1.0000   1.0000   1.0000   1.0000   1.0000   1.0000   1.0000   1.0000
     1.0000   1.0000   1.0000   1.0000   1.0000   1.0000   1.0000   1.0000
     1.0000   1.0000   1.0000   1.0000   1.0000   1.0000   1.0000   1.0000
     1.0000   1.0000   1.0000   1.0000   1.0000   1.0000   1.0000   1.0000
     1.0000   1.0000   1.0000   1.0000   1.0000   1.0000   0.0000   0.0000

          k =-0.5000 0.0000 0.0000 ( 29686 PWs)   bands (ev):

    -8.1519  -7.8226  -6.5422  -5.7572  -5.6775  -5.6635  -5.6556  -5.6319
    -5.4668  -5.1329  -4.2163  -3.6515  -3.6365  -3.5985  -3.5539  -3.4981
    -3.4086  -3.3453  -3.3240  -2.7357  -1.9571  -1.6112  -1.6037  -1.5788
    -1.5089  -1.4157  -1.3206  -0.6978   0.3209   0.3697   0.4348   0.4704
     0.5400   0.6143   0.8022   1.0367   1.2535   1.3497   1.3630   1.4179
     1.5668   1.6685   1.6984   2.0043   2.3999   2.4282   2.4711   2.5624
     2.5765   2.8467   2.8690   3.8338   3.9094   4.0001   4.0704   4.0982
     4.1622   4.2209   4.4210   4.4690   4.5470   5.3781   5.5019   5.5612
     5.5743   5.6009   5.7510   5.7682   5.8374   5.8958   6.2861   6.3078
     6.4216   6.4540   6.4633   6.6358   6.7421   6.9715   7.0912   7.1484
     7.2097   7.2127   7.3086   7.3624   7.4121   7.4142   7.4198   7.4429
     7.4561   7.4598   7.4906   7.5607   7.5720   7.5980   7.8883   8.0384
     8.0920   8.1017   8.2349   8.2966   8.3503   8.3947   8.8292   9.0379
     9.4074   9.7072   9.7693   9.9061   9.9134   9.9496   9.9606   9.9747
    10.0146  10.0268  10.0471  10.0680  10.1106  10.3029  10.8084  10.9497
    11.0095  11.1373  11.2178  11.2532  12.0852  13.8697  15.6065  15.8665

     occupation numbers 
     1.0000   1.0000   1.0000   1.0000   1.0000   1.0000   1.0000   1.0000
     1.0000   1.0000   1.0000   1.0000   1.0000   1.0000   1.0000   1.0000
     1.0000   1.0000   1.0000   1.0000   1.0000   1.0000   1.0000   1.0000
     1.0000   1.0000   1.0000   1.0000   1.0000   1.0000   1.0000   1.0000
     1.0000   1.0000   1.0000   1.0000   1.0000   1.0000   1.0000   1.0000
     1.0000   1.0000   1.0000   1.0000   1.0000   1.0000   1.0000   1.0000
     1.0000   1.0000   1.0000   1.0000   1.0000   1.0000   1.0000   1.0000
     1.0000   1.0000   1.0000   1.0000   1.0000   1.0000   1.0000   1.0000
     1.0000   1.0000   1.0000   1.0000   1.0000   1.0000   1.0000   1.0000
     1.0000   1.0000   1.0000   1.0000   1.0000   1.0000   1.0000   1.0000
     1.0000   1.0000   1.0000   1.0000   1.0000   1.0000   1.0000   1.0000
     1.0000   1.0000   1.0000   1.0000   1.0000   1.0000   1.0000   1.0000
     1.0000   1.0000   1.0000   1.0000   1.0000   1.0000   1.0000   1.0000
     1.0000   1.0000   1.0000   1.0000   1.0000   1.0000   1.0000   1.0000
     1.0000   1.0000   1.0000   1.0000   1.0000   1.0000   1.0000   1.0000
     1.0000   1.0000   1.0000   1.0000   1.0000   1.0000   0.0000   0.0000

          k =-0.5000 0.5000 0.0000 ( 29728 PWs)   bands (ev):

    -7.8417  -7.3955  -7.3251  -7.0697  -5.8737  -5.2109  -5.1737  -5.1209
    -5.1029  -5.0864  -4.9266  -4.4809  -3.4614  -3.0626  -3.0104  -2.9791
    -2.8992  -2.8969  -2.7129  -2.4942  -2.1293  -1.8227  -1.7963  -1.7348
    -1.6809  -1.6506  -1.4707  -0.8066  -0.2028  -0.0211   0.0011   0.2588
     0.4721   0.5247   0.6114   0.6140   0.7430   0.8079   0.9204   0.9832
     1.1303   1.3039   1.5066   2.5397   3.4699   3.4760   3.4970   3.6715
     3.6816   3.6919   3.7881   3.8354   3.8551   3.8717   3.8955   3.9120
     3.9187   3.9408   3.9479   3.9658   4.1952   4.5164   4.6043   5.5772
     5.7730   5.8450   5.9006   5.9564   5.9979   6.1146   6.2480   6.3849
     6.4105   6.5153   6.6085   6.6144   6.6733   6.7034   6.7251   6.8870
     6.9489   7.0249   7.0365   7.0899   7.2847   7.3328   7.3597   7.4676
     7.6051   7.7945   7.8790   8.0593   8.1927   8.2315   8.2379   8.4233
     8.4507   8.4744   8.6364   8.6390   8.9544   9.0094   9.0486   9.2415
     9.3049   9.3346   9.3878   9.4075   9.4510   9.4985   9.5212   9.5853
     9.6792   9.6942   9.7053   9.7146   9.7232   9.7485   9.7731   9.7832
    11.2804  11.5425  11.9791  12.0928  12.1610  13.8752  15.5889  15.9040

     occupation numbers 
     1.0000   1.0000   1.0000   1.0000   1.0000   1.0000   1.0000   1.0000
     1.0000   1.0000   1.0000   1.0000   1.0000   1.0000   1.0000   1.0000
     1.0000   1.0000   1.0000   1.0000   1.0000   1.0000   1.0000   1.0000
     1.0000   1.0000   1.0000   1.0000   1.0000   1.0000   1.0000   1.0000
     1.0000   1.0000   1.0000   1.0000   1.0000   1.0000   1.0000   1.0000
     1.0000   1.0000   1.0000   1.0000   1.0000   1.0000   1.0000   1.0000
     1.0000   1.0000   1.0000   1.0000   1.0000   1.0000   1.0000   1.0000
     1.0000   1.0000   1.0000   1.0000   1.0000   1.0000   1.0000   1.0000
     1.0000   1.0000   1.0000   1.0000   1.0000   1.0000   1.0000   1.0000
     1.0000   1.0000   1.0000   1.0000   1.0000   1.0000   1.0000   1.0000
     1.0000   1.0000   1.0000   1.0000   1.0000   1.0000   1.0000   1.0000
     1.0000   1.0000   1.0000   1.0000   1.0000   1.0000   1.0000   1.0000
     1.0000   1.0000   1.0000   1.0000   1.0000   1.0000   1.0000   1.0000
     1.0000   1.0000   1.0000   1.0000   1.0000   1.0000   1.0000   1.0000
     1.0000   1.0000   1.0000   1.0000   1.0000   1.0000   1.0000   1.0000
     1.0000   1.0000   1.0000   1.0000   1.0000   1.0000   0.0000   0.0000

     highest occupied level (ev):    14.7204

!    total energy              =    -730.51526471 Ry
     Harris-Foulkes estimate   =    -730.51526471 Ry
     estimated scf accuracy    <          9.9E-09 Ry

     The total energy is the sum of the following terms:

     one-electron contribution =     234.95572928 Ry
     hartree contribution      =      69.02030328 Ry
     xc contribution           =    -234.54505145 Ry
     ewald contribution        =    -799.94624582 Ry

     total magnetization       =     2.00 Bohr mag/cell
     absolute magnetization    =     2.23 Bohr mag/cell

     convergence has been achieved in  12 iterations

     Forces acting on atoms (Ry/au):

     atom    1 type  1   force =    -0.00080090   -0.00080090    0.00367003
     atom    2 type  1   force =    -0.00013415   -0.00000590   -0.00008531
     atom    3 type  1   force =    -0.00000590   -0.00013415   -0.00008531
     atom    4 type  1   force =    -0.00010838   -0.00010838    0.00017611
     atom    5 type  1   force =    -0.00006078   -0.00006078   -0.00012265
     atom    6 type  1   force =    -0.00006533   -0.00004052    0.00001566
     atom    7 type  1   force =    -0.00004052   -0.00006533    0.00001566
     atom    8 type  2   force =     0.00043027    0.00043027    0.00042569
     atom    9 type  1   force =     0.00005805    0.00005805    0.00016277
     atom   10 type  1   force =     0.00000308    0.00006629   -0.00009838
     atom   11 type  1   force =     0.00006629    0.00000308   -0.00009838
     atom   12 type  1   force =     0.00080502    0.00080502    0.00369347
     atom   13 type  1   force =    -0.00002500   -0.00002500   -0.00006319
     atom   14 type  1   force =     0.00014685    0.00007295   -0.00006569
     atom   15 type  1   force =     0.00007295    0.00014685   -0.00006569
     atom   16 type  1   force =    -0.00061841   -0.00061841    0.00056752
     atom   17 type  1   force =     0.00001035   -0.00007147   -0.00009653
     atom   18 type  1   force =     0.00003744   -0.00012143    0.00010688
     atom   19 type  1   force =     0.00084353   -0.00078216    0.00372392
     atom   20 type  1   force =    -0.00006171    0.00007511   -0.00003399
     atom   21 type  1   force =     0.00005421   -0.00001447    0.00004529
     atom   22 type  1   force =    -0.00008488    0.00001718    0.00004485
     atom   23 type  1   force =     0.00003912   -0.00002861   -0.00002101
     atom   24 type  1   force =     0.00063625   -0.00070079   -0.00055688
     atom   25 type  1   force =    -0.00007147    0.00001035   -0.00009653
     atom   26 type  1   force =    -0.00078216    0.00084353    0.00372392
     atom   27 type  1   force =    -0.00012143    0.00003744    0.00010688
     atom   28 type  1   force =     0.00007511   -0.00006171   -0.00003399
     atom   29 type  1   force =    -0.00001447    0.00005421    0.00004529
     atom   30 type  1   force =    -0.00002861    0.00003912   -0.00002101
     atom   31 type  1   force =     0.00001718   -0.00008488    0.00004485
     atom   32 type  1   force =    -0.00070079    0.00063625   -0.00055688
     atom   33 type  1   force =     0.00031717    0.00031717   -0.00053331
     atom   34 type  1   force =     0.00033021   -0.00030711   -0.00055383
     atom   35 type  1   force =    -0.00030711    0.00033021   -0.00055383
     atom   36 type  1   force =    -0.00028797   -0.00028797   -0.00061312
     atom   37 type  1   force =     0.00001342    0.00001342   -0.00000054
     atom   38 type  1   force =     0.00001757   -0.00006889   -0.00002234
     atom   39 type  1   force =    -0.00006889    0.00001757   -0.00002234
     atom   40 type  1   force =     0.00002743    0.00002743   -0.00021578
     atom   41 type  1   force =    -0.00002400    0.00007485    0.00003844
     atom   42 type  1   force =     0.00007485   -0.00002400    0.00003844
     atom   43 type  1   force =    -0.00001837   -0.00001837   -0.01799291
     atom   44 type  1   force =     0.00009234    0.00009234    0.00030027
     atom   45 type  1   force =     0.00000607   -0.00004458   -0.00018661
     atom   46 type  1   force =    -0.00004458    0.00000607   -0.00018661
     atom   47 type  1   force =     0.00004715    0.00004715    0.00032408
     atom   48 type  1   force =     0.00001259   -0.00001726    0.00006322
     atom   49 type  1   force =    -0.00032586    0.00065483    0.00070583
     atom   50 type  1   force =     0.00011586    0.00031286    0.00013427
     atom   51 type  1   force =     0.00022987   -0.00084087    0.00061815
     atom   52 type  1   force =     0.00006087    0.00003171    0.00001177
     atom   53 type  1   force =    -0.00029564   -0.00063021    0.00062517
     atom   54 type  1   force =    -0.00004221   -0.00025326    0.00004727
     atom   55 type  1   force =     0.00036672    0.00087391    0.00065063
     atom   56 type  1   force =    -0.00001726    0.00001259    0.00006322
     atom   57 type  1   force =     0.00031286    0.00011586    0.00013427
     atom   58 type  1   force =     0.00065483   -0.00032586    0.00070583
     atom   59 type  1   force =    -0.00084087    0.00022987    0.00061815
     atom   60 type  1   force =     0.00003171    0.00006087    0.00001177
     atom   61 type  1   force =    -0.00025326   -0.00004221    0.00004727
     atom   62 type  1   force =    -0.00063021   -0.00029564    0.00062517
     atom   63 type  1   force =     0.00087391    0.00036672    0.00065063
     The non-local contrib.  to forces
     atom    1 type  1   force =     0.00880019    0.00880019    0.01064441
     atom    2 type  1   force =    -0.04975545    0.02131048    0.02129502
     atom    3 type  1   force =     0.02131048   -0.04975545    0.02129502
     atom    4 type  1   force =    -0.00342577   -0.00342577    0.04641345
     atom    5 type  1   force =     0.02112972    0.02112972   -0.04999745
     atom    6 type  1   force =    -0.00323583    0.04666338   -0.00297788
     atom    7 type  1   force =     0.04666338   -0.00323583   -0.00297788
     atom    8 type  2   force =    -0.88811189   -0.88811189   -0.88811864
     atom    9 type  1   force =    -0.00587236   -0.00587236    0.00618745
     atom   10 type  1   force =     0.03835321   -0.01683428    0.02323083
     atom   11 type  1   force =    -0.01683428    0.03835321    0.02323083
     atom   12 type  1   force =    -0.00195476   -0.00195476    0.04910441
     atom   13 type  1   force =    -0.01127697   -0.01127697   -0.03509531
     atom   14 type  1   force =    -0.01295665   -0.02312882   -0.02971625
     atom   15 type  1   force =    -0.02312882   -0.01295665   -0.02971625
     atom   16 type  1   force =     0.21225746    0.21225746   -0.23017471
     atom   17 type  1   force =     0.00627126   -0.00614443   -0.00609215
     atom   18 type  1   force =    -0.03475178   -0.01160228   -0.01149313
     atom   19 type  1   force =     0.02268556    0.03901419   -0.01431293
     atom   20 type  1   force =    -0.02989325   -0.01280564   -0.02315604
     atom   21 type  1   force =     0.02308395   -0.01691534    0.03860256
     atom   22 type  1   force =    -0.02982895   -0.02327387   -0.01296016
     atom   23 type  1   force =     0.04662552   -0.00138588   -0.00150149
     atom   24 type  1   force =    -0.22976493    0.21227949    0.21238601
     atom   25 type  1   force =    -0.00614443    0.00627126   -0.00609215
     atom   26 type  1   force =     0.03901419    0.02268556   -0.01431293
     atom   27 type  1   force =    -0.01160228   -0.03475178   -0.01149313
     atom   28 type  1   force =    -0.01280564   -0.02989325   -0.02315604
     atom   29 type  1   force =    -0.01691534    0.02308395    0.03860256
     atom   30 type  1   force =    -0.00138588    0.04662552   -0.00150149
     atom   31 type  1   force =    -0.02327387   -0.02982895   -0.01296016
     atom   32 type  1   force =     0.21227949   -0.22976493    0.21238601
     atom   33 type  1   force =     0.00440107    0.00440107    0.00401719
     atom   34 type  1   force =    -0.00560434    0.00630744    0.00745514
     atom   35 type  1   force =     0.00630744   -0.00560434    0.00745514
     atom   36 type  1   force =    -0.00450469   -0.00450469    0.01685419
     atom   37 type  1   force =     0.00704720    0.00704720   -0.00644716
     atom   38 type  1   force =    -0.00377984    0.01653118   -0.00381986
     atom   39 type  1   force =     0.01653118   -0.00377984   -0.00381986
     atom   40 type  1   force =    -0.01036288   -0.01036288    0.00735482
     atom   41 type  1   force =     0.00430240    0.00025228    0.01484712
     atom   42 type  1   force =     0.00025228    0.00430240    0.01484712
     atom   43 type  1   force =     0.01218186    0.01218186   -0.01826415
     atom   44 type  1   force =     0.09883354    0.09883354   -0.10416250
     atom   45 type  1   force =     0.04618086   -0.06357690   -0.04502389
     atom   46 type  1   force =    -0.06357690    0.04618086   -0.04502389
     atom   47 type  1   force =     0.05578906    0.05578906    0.04083033
     atom   48 type  1   force =    -0.01032467    0.00703647   -0.01040509
     atom   49 type  1   force =     0.00434004    0.01529317    0.00078569
     atom   50 type  1   force =     0.09879541   -0.10420007    0.09879534
     atom   51 type  1   force =     0.04618042   -0.04570432   -0.06308564
     atom   52 type  1   force =     0.00029318    0.01480040    0.00426056
     atom   53 type  1   force =     0.01224951   -0.00288535    0.01274598
     atom   54 type  1   force =    -0.06362870   -0.04519857    0.04615855
     atom   55 type  1   force =     0.05576334    0.04134321    0.05628968
     atom   56 type  1   force =     0.00703647   -0.01032467   -0.01040509
     atom   57 type  1   force =    -0.10420007    0.09879541    0.09879534
     atom   58 type  1   force =     0.01529317    0.00434004    0.00078569
     atom   59 type  1   force =    -0.04570432    0.04618042   -0.06308564
     atom   60 type  1   force =     0.01480040    0.00029318    0.00426056
     atom   61 type  1   force =    -0.04519857   -0.06362870    0.04615855
     atom   62 type  1   force =    -0.00288535    0.01224951    0.01274598
     atom   63 type  1   force =     0.04134321    0.05576334    0.05628968
     The ionic contribution  to forces
     atom    1 type  1   force =    -0.13137865   -0.13137865   -0.10465921
     atom    2 type  1   force =     0.02686905   -0.18425705   -0.18543182
     atom    3 type  1   force =    -0.18425705    0.02686905   -0.18543182
     atom    4 type  1   force =     0.23393965    0.23393965   -0.64767836
     atom    5 type  1   force =    -0.18084140   -0.18084140    0.03193932
     atom    6 type  1   force =     0.23221756   -0.64607674    0.23559176
     atom    7 type  1   force =    -0.64607674    0.23221756    0.23559176
     atom    8 type  2   force =     2.98847570    2.98847570    2.99012885
     atom    9 type  1   force =     0.01275775    0.01275775   -0.13359878
     atom   10 type  1   force =    -0.08275271    0.14695069   -0.21542747
     atom   11 type  1   force =     0.14695069   -0.08275271   -0.21542747
     atom   12 type  1   force =    -0.17638992   -0.17638992   -0.60775606
     atom   13 type  1   force =    -0.17115206   -0.17115206    0.11913755
     atom   14 type  1   force =     0.07353509    0.48735827    0.20569966
     atom   15 type  1   force =     0.48735827    0.07353509    0.20569966
     atom   16 type  1   force =    -2.12484475   -2.12484475    2.19789964
     atom   17 type  1   force =    -0.13156629    0.01570939    0.01111044
     atom   18 type  1   force =     0.11752555   -0.17101888   -0.17265545
     atom   19 type  1   force =    -0.18790777   -0.10907658    0.14996869
     atom   20 type  1   force =     0.20108996    0.07305970    0.48408808
     atom   21 type  1   force =    -0.21380339    0.14822801   -0.08153749
     atom   22 type  1   force =     0.20391932    0.48585163    0.07516194
     atom   23 type  1   force =    -0.61160865   -0.19942485   -0.19425949
     atom   24 type  1   force =     2.19089681   -2.12172429   -2.12013061
     atom   25 type  1   force =     0.01570939   -0.13156629    0.01111044
     atom   26 type  1   force =    -0.10907658   -0.18790777    0.14996869
     atom   27 type  1   force =    -0.17101888    0.11752555   -0.17265545
     atom   28 type  1   force =     0.07305970    0.20108996    0.48408808
     atom   29 type  1   force =     0.14822801   -0.21380339   -0.08153749
     atom   30 type  1   force =    -0.19942485   -0.61160865   -0.19425949
     atom   31 type  1   force =     0.48585163    0.20391932    0.07516194
     atom   32 type  1   force =    -2.12172429    2.19089681   -2.12013061
     atom   33 type  1   force =    -0.02162833   -0.02162833   -0.02692036
     atom   34 type  1   force =     0.09515544   -0.07191146   -0.07720447
     atom   35 type  1   force =    -0.07191146    0.09515544   -0.07720447
     atom   36 type  1   force =     0.10531504    0.10531504   -0.22488072
     atom   37 type  1   force =    -0.07186849   -0.07186849    0.09811685
     atom   38 type  1   force =     0.10527690   -0.21952732    0.10828236
     atom   39 type  1   force =    -0.21952732    0.10527690    0.10828236
     atom   40 type  1   force =     0.10609924    0.10609924   -0.30361720
     atom   41 type  1   force =    -0.14191524    0.21183204   -0.00787455
     atom   42 type  1   force =     0.21183204   -0.14191524   -0.00787455
     atom   43 type  1   force =    -0.13053259   -0.13053259   -0.09333794
     atom   44 type  1   force =     0.20318169    0.20318169    1.25672633
     atom   45 type  1   force =    -0.70966443    0.70011993   -0.21744579
     atom   46 type  1   force =     0.70011993   -0.70966443   -0.21744579
     atom   47 type  1   force =    -0.70964619   -0.70964619    0.35844887
     atom   48 type  1   force =     0.10609865   -0.30177315    0.10622590
     atom   49 type  1   force =    -0.14194775    0.00313121    0.21606230
     atom   50 type  1   force =     0.20317724    1.25496484    0.20330744
     atom   51 type  1   force =    -0.70972637   -0.22785867    0.70454590
     atom   52 type  1   force =     0.21183714   -0.00572378   -0.14175638
     atom   53 type  1   force =    -0.13075942   -0.03541759   -0.12645605
     atom   54 type  1   force =     0.70014863   -0.21898896   -0.70949396
     atom   55 type  1   force =    -0.70963810    0.35762969   -0.70534532
     atom   56 type  1   force =    -0.30177315    0.10609865    0.10622590
     atom   57 type  1   force =     1.25496484    0.20317724    0.20330744
     atom   58 type  1   force =     0.00313121   -0.14194775    0.21606230
     atom   59 type  1   force =    -0.22785867   -0.70972637    0.70454590
     atom   60 type  1   force =    -0.00572378    0.21183714   -0.14175638
     atom   61 type  1   force =    -0.21898896    0.70014863   -0.70949396
     atom   62 type  1   force =    -0.03541759   -0.13075942   -0.12645605
     atom   63 type  1   force =     0.35762969   -0.70963810   -0.70534532
     The local contribution  to forces
     atom    1 type  1   force =     0.12180339    0.12180339    0.09775654
     atom    2 type  1   force =     0.02212387    0.16303568    0.16412532
     atom    3 type  1   force =     0.16303568    0.02212387    0.16412532
     atom    4 type  1   force =    -0.23065728   -0.23065728    0.60179082
     atom    5 type  1   force =     0.15975659    0.15975659    0.01732826
     atom    6 type  1   force =    -0.22909183    0.59975737   -0.23260900
     atom    7 type  1   force =     0.59975737   -0.22909183   -0.23260900
     atom    8 type  2   force =    -2.10716818   -2.10716818   -2.10878276
     atom    9 type  1   force =    -0.00691902   -0.00691902    0.12763605
     atom   10 type  1   force =     0.04470425   -0.13006797    0.19214231
     atom   11 type  1   force =    -0.13006797    0.04470425    0.19214231
     atom   12 type  1   force =     0.17911903    0.17911903    0.56268335
     atom   13 type  1   force =     0.18223030    0.18223030   -0.08456491
     atom   14 type  1   force =    -0.06043008   -0.46422459   -0.17638074
     atom   15 type  1   force =    -0.46422459   -0.06043008   -0.17638074
     atom   16 type  1   force =     1.91182136    1.91182136   -1.96722149
     atom   17 type  1   force =     0.12539013   -0.00972858   -0.00522257
     atom   18 type  1   force =    -0.08321396    0.18232366    0.18406469
     atom   19 type  1   force =     0.16617589    0.06954831   -0.13193927
     atom   20 type  1   force =    -0.17162391   -0.06017620   -0.46105898
     atom   21 type  1   force =     0.19083778   -0.13134599    0.04329860
     atom   22 type  1   force =    -0.17452877   -0.46263065   -0.06213987
     atom   23 type  1   force =     0.56535537    0.20071976    0.19570197
     atom   24 type  1   force =    -1.96058535    1.90859543    1.90706371
     atom   25 type  1   force =    -0.00972858    0.12539013   -0.00522257
     atom   26 type  1   force =     0.06954831    0.16617589   -0.13193927
     atom   27 type  1   force =     0.18232366   -0.08321396    0.18406469
     atom   28 type  1   force =    -0.06017620   -0.17162391   -0.46105898
     atom   29 type  1   force =    -0.13134599    0.19083778    0.04329860
     atom   30 type  1   force =     0.20071976    0.56535537    0.19570197
     atom   31 type  1   force =    -0.46263065   -0.17452877   -0.06213987
     atom   32 type  1   force =     1.90859543   -1.96058535    1.90706371
     atom   33 type  1   force =     0.01764647    0.01764647    0.02244547
     atom   34 type  1   force =    -0.08922034    0.06536605    0.06924461
     atom   35 type  1   force =     0.06536605   -0.08922034    0.06924461
     atom   36 type  1   force =    -0.10113548   -0.10113548    0.20739693
     atom   37 type  1   force =     0.06490931    0.06490931   -0.09165114
     atom   38 type  1   force =    -0.10151067    0.20294736   -0.10448479
     atom   39 type  1   force =     0.20294736   -0.10151067   -0.10448479
     atom   40 type  1   force =    -0.09573658   -0.09573658    0.29609466
     atom   41 type  1   force =     0.13756591   -0.21182582   -0.00684532
     atom   42 type  1   force =    -0.21182582    0.13756591   -0.00684532
     atom   43 type  1   force =     0.11841766    0.11841766    0.09343984
     atom   44 type  1   force =    -0.30088360   -0.30088360   -1.15277445
     atom   45 type  1   force =     0.66392328   -0.63724856    0.26162933
     atom   46 type  1   force =    -0.63724856    0.66392328    0.26162933
     atom   47 type  1   force =     0.65449761    0.65449761   -0.39817051
     atom   48 type  1   force =    -0.09579133    0.29479073   -0.09578079
     atom   49 type  1   force =     0.13726392   -0.01763910   -0.21595015
     atom   50 type  1   force =    -0.30082269   -1.15099010   -0.30092567
     atom   51 type  1   force =     0.66422018    0.27201576   -0.64150072
     atom   52 type  1   force =    -0.21188325   -0.00892986    0.13748002
     atom   53 type  1   force =     0.11829725    0.03774200    0.11441931
     atom   54 type  1   force =    -0.63721722    0.26325217    0.66381080
     atom   55 type  1   force =     0.65482111   -0.39735668    0.65029166
     atom   56 type  1   force =     0.29479073   -0.09579133   -0.09578079
     atom   57 type  1   force =    -1.15099010   -0.30082269   -0.30092567
     atom   58 type  1   force =    -0.01763910    0.13726392   -0.21595015
     atom   59 type  1   force =     0.27201576    0.66422018   -0.64150072
     atom   60 type  1   force =    -0.00892986   -0.21188325    0.13748002
     atom   61 type  1   force =     0.26325217   -0.63721722    0.66381080
     atom   62 type  1   force =     0.03774200    0.11829725    0.11441931
     atom   63 type  1   force =    -0.39735668    0.65482111    0.65029166
     The core correction contribution to forces
     atom    1 type  1   force =    -0.00001149   -0.00001149   -0.00008029
     atom    2 type  1   force =     0.00061133   -0.00008667   -0.00008677
     atom    3 type  1   force =    -0.00008667    0.00061133   -0.00008677
     atom    4 type  1   force =     0.00002236    0.00002236   -0.00039134
     atom    5 type  1   force =    -0.00008565   -0.00008565    0.00061296
     atom    6 type  1   force =     0.00002088   -0.00039422    0.00001876
     atom    7 type  1   force =    -0.00039422    0.00002088    0.00001876
     atom    8 type  2   force =     0.00723718    0.00723718    0.00723724
     atom    9 type  1   force =     0.00011122    0.00011122   -0.00008070
     atom   10 type  1   force =    -0.00032298    0.00004792   -0.00007229
     atom   11 type  1   force =     0.00004792   -0.00032298   -0.00007229
     atom   12 type  1   force =     0.00000880    0.00000880   -0.00033765
     atom   13 type  1   force =     0.00015889    0.00015889    0.00048984
     atom   14 type  1   force =     0.00001732    0.00008241    0.00034536
     atom   15 type  1   force =     0.00008241    0.00001732    0.00034536
     atom   16 type  1   force =     0.00014422    0.00014422    0.00005500
     atom   17 type  1   force =    -0.00008215    0.00011295    0.00011272
     atom   18 type  1   force =     0.00048729    0.00016134    0.00016131
     atom   19 type  1   force =    -0.00010523   -0.00029056    0.00001112
     atom   20 type  1   force =     0.00034720    0.00001601    0.00008245
     atom   21 type  1   force =    -0.00007077    0.00004823   -0.00032502
     atom   22 type  1   force =     0.00034638    0.00008354    0.00001710
     atom   23 type  1   force =    -0.00029975    0.00004134    0.00004196
     atom   24 type  1   force =     0.00005206    0.00014388    0.00014322
     atom   25 type  1   force =     0.00011295   -0.00008215    0.00011272
     atom   26 type  1   force =    -0.00029056   -0.00010523    0.00001112
     atom   27 type  1   force =     0.00016134    0.00048729    0.00016131
     atom   28 type  1   force =     0.00001601    0.00034720    0.00008245
     atom   29 type  1   force =     0.00004823   -0.00007077   -0.00032502
     atom   30 type  1   force =     0.00004134   -0.00029975    0.00004196
     atom   31 type  1   force =     0.00008354    0.00034638    0.00001710
     atom   32 type  1   force =     0.00014388    0.00005206    0.00014322
     atom   33 type  1   force =    -0.00007899   -0.00007899   -0.00007768
     atom   34 type  1   force =    -0.00002902   -0.00005696   -0.00006790
     atom   35 type  1   force =    -0.00005696   -0.00002902   -0.00006790
     atom   36 type  1   force =     0.00002624    0.00002624   -0.00001298
     atom   37 type  1   force =    -0.00006283   -0.00006283   -0.00002226
     atom   38 type  1   force =     0.00002040   -0.00000861    0.00002069
     atom   39 type  1   force =    -0.00000861    0.00002040    0.00002069
     atom   40 type  1   force =     0.00002915    0.00002915   -0.00009648
     atom   41 type  1   force =     0.00002408   -0.00016856   -0.00010779
     atom   42 type  1   force =    -0.00016856    0.00002408   -0.00010779
     atom   43 type  1   force =    -0.00009805   -0.00009805    0.00017848
     atom   44 type  1   force =    -0.00105578   -0.00105578    0.00057063
     atom   45 type  1   force =    -0.00043014    0.00065668    0.00067405
     atom   46 type  1   force =     0.00065668   -0.00043014    0.00067405
     atom   47 type  1   force =    -0.00057909   -0.00057909   -0.00079098
     atom   48 type  1   force =     0.00002888   -0.00009305    0.00002952
     atom   49 type  1   force =     0.00002306   -0.00011185   -0.00017313
     atom   50 type  1   force =    -0.00105549    0.00057096   -0.00105542
     atom   51 type  1   force =    -0.00042964    0.00067981    0.00065250
     atom   52 type  1   force =    -0.00016884   -0.00010758    0.00002444
     atom   53 type  1   force =    -0.00009941   -0.00002251   -0.00010302
     atom   54 type  1   force =     0.00065706    0.00067540   -0.00042995
     atom   55 type  1   force =    -0.00057824   -0.00079546   -0.00058353
     atom   56 type  1   force =    -0.00009305    0.00002888    0.00002952
     atom   57 type  1   force =     0.00057096   -0.00105549   -0.00105542
     atom   58 type  1   force =    -0.00011185    0.00002306   -0.00017313
     atom   59 type  1   force =     0.00067981   -0.00042964    0.00065250
     atom   60 type  1   force =    -0.00010758   -0.00016884    0.00002444
     atom   61 type  1   force =     0.00067540    0.00065706   -0.00042995
     atom   62 type  1   force =    -0.00002251   -0.00009941   -0.00010302
     atom   63 type  1   force =    -0.00079546   -0.00057824   -0.00058353
     The Hubbard contrib.    to forces
     atom    1 type  1   force =     0.00000000    0.00000000    0.00000000
     atom    2 type  1   force =     0.00000000    0.00000000    0.00000000
     atom    3 type  1   force =     0.00000000    0.00000000    0.00000000
     atom    4 type  1   force =     0.00000000    0.00000000    0.00000000
     atom    5 type  1   force =     0.00000000    0.00000000    0.00000000
     atom    6 type  1   force =     0.00000000    0.00000000    0.00000000
     atom    7 type  1   force =     0.00000000    0.00000000    0.00000000
     atom    8 type  2   force =     0.00000000    0.00000000    0.00000000
     atom    9 type  1   force =     0.00000000    0.00000000    0.00000000
     atom   10 type  1   force =     0.00000000    0.00000000    0.00000000
     atom   11 type  1   force =     0.00000000    0.00000000    0.00000000
     atom   12 type  1   force =     0.00000000    0.00000000    0.00000000
     atom   13 type  1   force =     0.00000000    0.00000000    0.00000000
     atom   14 type  1   force =     0.00000000    0.00000000    0.00000000
     atom   15 type  1   force =     0.00000000    0.00000000    0.00000000
     atom   16 type  1   force =     0.00000000    0.00000000    0.00000000
     atom   17 type  1   force =     0.00000000    0.00000000    0.00000000
     atom   18 type  1   force =     0.00000000    0.00000000    0.00000000
     atom   19 type  1   force =     0.00000000    0.00000000    0.00000000
     atom   20 type  1   force =     0.00000000    0.00000000    0.00000000
     atom   21 type  1   force =     0.00000000    0.00000000    0.00000000
     atom   22 type  1   force =     0.00000000    0.00000000    0.00000000
     atom   23 type  1   force =     0.00000000    0.00000000    0.00000000
     atom   24 type  1   force =     0.00000000    0.00000000    0.00000000
     atom   25 type  1   force =     0.00000000    0.00000000    0.00000000
     atom   26 type  1   force =     0.00000000    0.00000000    0.00000000
     atom   27 type  1   force =     0.00000000    0.00000000    0.00000000
     atom   28 type  1   force =     0.00000000    0.00000000    0.00000000
     atom   29 type  1   force =     0.00000000    0.00000000    0.00000000
     atom   30 type  1   force =     0.00000000    0.00000000    0.00000000
     atom   31 type  1   force =     0.00000000    0.00000000    0.00000000
     atom   32 type  1   force =     0.00000000    0.00000000    0.00000000
     atom   33 type  1   force =     0.00000000    0.00000000    0.00000000
     atom   34 type  1   force =     0.00000000    0.00000000    0.00000000
     atom   35 type  1   force =     0.00000000    0.00000000    0.00000000
     atom   36 type  1   force =     0.00000000    0.00000000    0.00000000
     atom   37 type  1   force =     0.00000000    0.00000000    0.00000000
     atom   38 type  1   force =     0.00000000    0.00000000    0.00000000
     atom   39 type  1   force =     0.00000000    0.00000000    0.00000000
     atom   40 type  1   force =     0.00000000    0.00000000    0.00000000
     atom   41 type  1   force =     0.00000000    0.00000000    0.00000000
     atom   42 type  1   force =     0.00000000    0.00000000    0.00000000
     atom   43 type  1   force =     0.00000000    0.00000000    0.00000000
     atom   44 type  1   force =     0.00000000    0.00000000    0.00000000
     atom   45 type  1   force =     0.00000000    0.00000000    0.00000000
     atom   46 type  1   force =     0.00000000    0.00000000    0.00000000
     atom   47 type  1   force =     0.00000000    0.00000000    0.00000000
     atom   48 type  1   force =     0.00000000    0.00000000    0.00000000
     atom   49 type  1   force =     0.00000000    0.00000000    0.00000000
     atom   50 type  1   force =     0.00000000    0.00000000    0.00000000
     atom   51 type  1   force =     0.00000000    0.00000000    0.00000000
     atom   52 type  1   force =     0.00000000    0.00000000    0.00000000
     atom   53 type  1   force =     0.00000000    0.00000000    0.00000000
     atom   54 type  1   force =     0.00000000    0.00000000    0.00000000
     atom   55 type  1   force =     0.00000000    0.00000000    0.00000000
     atom   56 type  1   force =     0.00000000    0.00000000    0.00000000
     atom   57 type  1   force =     0.00000000    0.00000000    0.00000000
     atom   58 type  1   force =     0.00000000    0.00000000    0.00000000
     atom   59 type  1   force =     0.00000000    0.00000000    0.00000000
     atom   60 type  1   force =     0.00000000    0.00000000    0.00000000
     atom   61 type  1   force =     0.00000000    0.00000000    0.00000000
     atom   62 type  1   force =     0.00000000    0.00000000    0.00000000
     atom   63 type  1   force =     0.00000000    0.00000000    0.00000000
     The SCF correction term to forces
     atom    1 type  1   force =    -0.00001430   -0.00001430    0.00000851
     atom    2 type  1   force =     0.00001707   -0.00000830    0.00001287
     atom    3 type  1   force =    -0.00000830    0.00001707    0.00001287
     atom    4 type  1   force =     0.00001269    0.00001269    0.00004148
     atom    5 type  1   force =    -0.00002001   -0.00002001   -0.00000580
     atom    6 type  1   force =     0.00002393    0.00000971   -0.00000806
     atom    7 type  1   force =     0.00000971    0.00002393   -0.00000806
     atom    8 type  2   force =    -0.00000251   -0.00000251   -0.00003908
     atom    9 type  1   force =    -0.00001951   -0.00001951    0.00001868
     atom   10 type  1   force =     0.00002134   -0.00003004    0.00002817
     atom   11 type  1   force =    -0.00003004    0.00002134    0.00002817
     atom   12 type  1   force =     0.00002192    0.00002192   -0.00000065
     atom   13 type  1   force =     0.00001488    0.00001488   -0.00003043
     atom   14 type  1   force =    -0.00001879   -0.00001429   -0.00001379
     atom   15 type  1   force =    -0.00001429   -0.00001879   -0.00001379
     atom   16 type  1   force =     0.00000333    0.00000333    0.00000901
     atom   17 type  1   force =    -0.00000257   -0.00002077   -0.00000504
     atom   18 type  1   force =    -0.00000962    0.00001477    0.00002939
     atom   19 type  1   force =    -0.00000489    0.00002252   -0.00000375
     atom   20 type  1   force =     0.00001832   -0.00001873    0.00001043
     atom   21 type  1   force =     0.00000666   -0.00002934    0.00000658
     atom   22 type  1   force =     0.00000716   -0.00001343   -0.00003423
     atom   23 type  1   force =    -0.00003333    0.00002105   -0.00000402
     atom   24 type  1   force =     0.00003769    0.00000473   -0.00001927
     atom   25 type  1   force =    -0.00002077   -0.00000257   -0.00000504
     atom   26 type  1   force =     0.00002252   -0.00000489   -0.00000375
     atom   27 type  1   force =     0.00001477   -0.00000962    0.00002939
     atom   28 type  1   force =    -0.00001873    0.00001832    0.00001043
     atom   29 type  1   force =    -0.00002934    0.00000666    0.00000658
     atom   30 type  1   force =     0.00002105   -0.00003333   -0.00000402
     atom   31 type  1   force =    -0.00001343    0.00000716   -0.00003423
     atom   32 type  1   force =     0.00000473    0.00003769   -0.00001927
     atom   33 type  1   force =    -0.00002300   -0.00002300    0.00000201
     atom   34 type  1   force =     0.00002850   -0.00001216    0.00001872
     atom   35 type  1   force =    -0.00001216    0.00002850    0.00001872
     atom   36 type  1   force =     0.00001095    0.00001095    0.00002941
     atom   37 type  1   force =    -0.00001174   -0.00001174    0.00000310
     atom   38 type  1   force =     0.00001081   -0.00001146   -0.00002080
     atom   39 type  1   force =    -0.00001146    0.00001081   -0.00002080
     atom   40 type  1   force =    -0.00000147   -0.00000147    0.00004836
     atom   41 type  1   force =    -0.00000111   -0.00001506    0.00001891
     atom   42 type  1   force =    -0.00001506   -0.00000111    0.00001891
     atom   43 type  1   force =     0.00001279    0.00001279   -0.00000922
     atom   44 type  1   force =     0.00001651    0.00001651   -0.00005981
     atom   45 type  1   force =    -0.00000347    0.00000431   -0.00002039
     atom   46 type  1   force =     0.00000431   -0.00000347   -0.00002039
     atom   47 type  1   force =    -0.00001420   -0.00001420    0.00000628
     atom   48 type  1   force =     0.00000109    0.00002178   -0.00000639
     atom   49 type  1   force =    -0.00000510   -0.00001857   -0.00001894
     atom   50 type  1   force =     0.00002142   -0.00003273    0.00001251
     atom   51 type  1   force =    -0.00001468    0.00002658    0.00000604
     atom   52 type  1   force =    -0.00001732   -0.00000743    0.00000306
     atom   53 type  1   force =     0.00001647   -0.00004673    0.00001888
     atom   54 type  1   force =    -0.00000195    0.00000674    0.00000177
     atom   55 type  1   force =    -0.00000134    0.00005318   -0.00000192
     atom   56 type  1   force =     0.00002178    0.00000109   -0.00000639
     atom   57 type  1   force =    -0.00003273    0.00002142    0.00001251
     atom   58 type  1   force =    -0.00001857   -0.00000510   -0.00001894
     atom   59 type  1   force =     0.00002658   -0.00001468    0.00000604
     atom   60 type  1   force =    -0.00000743   -0.00001732    0.00000306
     atom   61 type  1   force =     0.00000674   -0.00000195    0.00000177
     atom   62 type  1   force =    -0.00004673    0.00001647    0.00001888
     atom   63 type  1   force =     0.00005318   -0.00000134   -0.00000192

     Total force =     0.019996     Total SCF correction =     0.000264


     entering subroutine stress ...

          total   stress  (Ry/bohr**3)                   (kbar)     P=   77.43
   0.00052633   0.00010653   0.00010712         77.43     15.67     15.76
   0.00010653   0.00052633   0.00010712         15.67     77.43     15.76
   0.00010712   0.00010712   0.00052637         15.76     15.76     77.43

     kinetic stress (kbar)  17033.02     41.29     40.01
                               41.29  17033.02     40.01
                               40.01     40.01  17033.05

     local   stress (kbar)  -1659.91     50.24     41.00
                               50.24  -1659.91     41.00
                               41.00     41.00  -1659.66

     nonloc. stress (kbar)   3627.34      3.80      3.96
                                3.80   3627.34      3.96
                                3.96      3.96   3627.33

     hartree stress (kbar)   1376.52    -31.91    -30.29
                              -31.91   1376.52    -30.29
                              -30.29    -30.29   1376.43

     exc-cor stress (kbar)  -3816.23      0.00      0.03
                                0.00  -3816.23      0.03
                                0.03      0.03  -3816.23

     corecor stress (kbar)   -529.84     -0.41     -0.41
                               -0.41   -529.84     -0.41
                               -0.41     -0.41   -529.84

     ewald   stress (kbar) -15953.48    -47.34    -38.54
                              -47.34 -15953.48    -38.54
                              -38.54    -38.54 -15953.66

     hubbard stress (kbar)      0.00      0.00      0.00
                                0.00      0.00      0.00
                                0.00      0.00      0.00

     london  stress (kbar)      0.00      0.00      0.00
                                0.00      0.00      0.00
                                0.00      0.00      0.00

     XDM     stress (kbar)      0.00      0.00      0.00
                                0.00      0.00      0.00
                                0.00      0.00      0.00

     dft-nl  stress (kbar)      0.00      0.00      0.00
                                0.00      0.00      0.00
                                0.00      0.00      0.00

     TS-vdW  stress (kbar)      0.00      0.00      0.00
                                0.00      0.00      0.00
                                0.00      0.00      0.00



     Writing output data file supercell-063.save
 
     init_run     :     12.66s CPU      6.68s WALL (       1 calls)
     electrons    :    284.32s CPU    158.48s WALL (       1 calls)
     forces       :      3.40s CPU      1.80s WALL (       1 calls)
     stress       :     27.54s CPU     13.91s WALL (       1 calls)

     Called by init_run:
     wfcinit      :     11.68s CPU      6.13s WALL (       1 calls)
     wfcinit:atom :      0.09s CPU      0.05s WALL (      12 calls)
     wfcinit:wfcr :     11.14s CPU      5.84s WALL (      12 calls)
     potinit      :      0.11s CPU      0.06s WALL (       1 calls)

     Called by electrons:
     c_bands      :    253.47s CPU    142.04s WALL (      12 calls)
     sum_band     :     28.84s CPU     15.33s WALL (      12 calls)
     v_of_rho     :      0.71s CPU      0.37s WALL (      13 calls)
     v_h          :      0.02s CPU      0.02s WALL (      13 calls)
     v_xc         :      0.79s CPU      0.41s WALL (      15 calls)
     newd         :      0.72s CPU      0.38s WALL (      13 calls)
     mix_rho      :      0.20s CPU      0.10s WALL (      12 calls)

     Called by c_bands:
     init_us_2    :      2.60s CPU      1.47s WALL (     324 calls)
     cegterg      :    246.81s CPU    130.25s WALL (     144 calls)

     Called by sum_band:
     sum_band:bec :      0.16s CPU      0.08s WALL (     144 calls)
     addusdens    :      0.76s CPU      0.40s WALL (      12 calls)

     Called by *egterg:
     h_psi        :    147.35s CPU     77.73s WALL (     601 calls)
     s_psi        :     21.16s CPU     10.61s WALL (     601 calls)
     g_psi        :      0.59s CPU      0.30s WALL (     445 calls)
     cdiaghg      :     46.52s CPU     24.55s WALL (     589 calls)
     cegterg:over :     15.31s CPU      7.75s WALL (     445 calls)
     cegterg:upda :     12.44s CPU      6.28s WALL (     445 calls)
     cegterg:last :      4.39s CPU      2.21s WALL (     144 calls)
     cdiaghg:chol :      3.14s CPU      1.63s WALL (     589 calls)
     cdiaghg:inve :      1.93s CPU      1.04s WALL (     589 calls)
     cdiaghg:para :      3.03s CPU      1.61s WALL (    1178 calls)

     Called by h_psi:
     h_psi:pot    :    145.93s CPU     76.92s WALL (     601 calls)
     h_psi:calbec :     19.74s CPU     10.00s WALL (     601 calls)
     vloc_psi     :    104.16s CPU     55.89s WALL (     601 calls)
     add_vuspsi   :     22.02s CPU     11.02s WALL (     601 calls)

     General routines
     calbec       :     28.70s CPU     14.56s WALL (     805 calls)
     fft          :      0.60s CPU      0.32s WALL (     365 calls)
     fftw         :    116.40s CPU     62.64s WALL (  131166 calls)
 
     Parallel routines
     fft_scatter  :     21.08s CPU     11.27s WALL (  131531 calls)
 
     PWSCF        :  5m31.65s CPU     3m14.40s WALL

 
   This run was terminated on:  16:10:11  26Dec2016            

=------------------------------------------------------------------------------=
   JOB DONE.
=------------------------------------------------------------------------------=
