239
diamond nv
C  0.0 3.571148115637671 0.0
C  3.571148115637671 3.571148115637671 0.0
C  7.142296231275342 3.571148115637671 0.0
C  0.0 7.142296231275342 0.0
C  3.571148115637671 7.142296231275342 0.0
C  7.142296231275342 7.142296231275342 0.0
C  0.0 10.713444346913013 0.0
C  3.571148115637671 10.713444346913013 0.0
C  7.142296231275342 10.713444346913013 0.0
C  0.0 3.571148115637671 3.571148115637671
C  3.571148115637671 3.571148115637671 3.571148115637671
C  7.142296231275342 3.571148115637671 3.571148115637671
C  0.0 7.142296231275342 3.571148115637671
Fe  3.571148115637671 7.142296231275342 3.571148115637671
C  7.142296231275342 7.142296231275342 3.571148115637671
C  0.0 10.713444346913013 3.571148115637671
C  3.571148115637671 10.713444346913013 3.571148115637671
C  7.142296231275342 10.713444346913013 3.571148115637671
C  0.0 3.571148115637671 7.142296231275342
C  3.571148115637671 3.571148115637671 7.142296231275342
C  7.142296231275342 3.571148115637671 7.142296231275342
C  0.0 7.142296231275342 7.142296231275342
C  3.571148115637671 7.142296231275342 7.142296231275342
C  7.142296231275342 7.142296231275342 7.142296231275342
C  0.0 10.713444346913013 7.142296231275342
C  3.571148115637671 10.713444346913013 7.142296231275342
C  7.142296231275342 10.713444346913013 7.142296231275342
C  1.7855740578188355 1.7855740578188355 0.0
C  5.3567221734565065 1.7855740578188355 0.0
C  1.7855740578188355 5.3567221734565065 0.0
C  5.3567221734565065 5.3567221734565065 0.0
C  8.927870289094177 5.3567221734565065 0.0
C  12.49901840473185 5.3567221734565065 0.0
C  1.7855740578188355 8.927870289094177 0.0
C  5.3567221734565065 8.927870289094177 0.0
C  8.927870289094177 8.927870289094177 0.0
C  12.49901840473185 8.927870289094177 0.0
C  1.7855740578188355 12.49901840473185 0.0
C  5.3567221734565065 12.49901840473185 0.0
C  1.7855740578188355 1.7855740578188355 3.571148115637671
C  5.3567221734565065 1.7855740578188355 3.571148115637671
C  1.7855740578188355 5.3567221734565065 3.571148115637671
C  5.3567221734565065 5.3567221734565065 3.571148115637671
C  8.927870289094177 5.3567221734565065 3.571148115637671
C  12.49901840473185 5.3567221734565065 3.571148115637671
C  1.7855740578188355 8.927870289094177 3.571148115637671
C  5.3567221734565065 8.927870289094177 3.571148115637671
C  8.927870289094177 8.927870289094177 3.571148115637671
C  12.49901840473185 8.927870289094177 3.571148115637671
C  1.7855740578188355 12.49901840473185 3.571148115637671
C  5.3567221734565065 12.49901840473185 3.571148115637671
C  1.7855740578188355 1.7855740578188355 7.142296231275342
C  5.3567221734565065 1.7855740578188355 7.142296231275342
C  1.7855740578188355 5.3567221734565065 7.142296231275342
C  5.3567221734565065 5.3567221734565065 7.142296231275342
C  8.927870289094177 5.3567221734565065 7.142296231275342
C  12.49901840473185 5.3567221734565065 7.142296231275342
C  1.7855740578188355 8.927870289094177 7.142296231275342
C  5.3567221734565065 8.927870289094177 7.142296231275342
C  8.927870289094177 8.927870289094177 7.142296231275342
C  12.49901840473185 8.927870289094177 7.142296231275342
C  1.7855740578188355 12.49901840473185 7.142296231275342
C  5.3567221734565065 12.49901840473185 7.142296231275342
C  0.0 1.7855740578188355 1.7855740578188355
C  3.571148115637671 1.7855740578188355 1.7855740578188355
C  7.142296231275342 1.7855740578188355 1.7855740578188355
C  0.0 5.3567221734565065 1.7855740578188355
C  3.571148115637671 5.3567221734565065 1.7855740578188355
C  7.142296231275342 5.3567221734565065 1.7855740578188355
C  0.0 8.927870289094177 1.7855740578188355
C  3.571148115637671 8.927870289094177 1.7855740578188355
C  7.142296231275342 8.927870289094177 1.7855740578188355
C  0.0 12.49901840473185 1.7855740578188355
C  3.571148115637671 12.49901840473185 1.7855740578188355
C  7.142296231275342 12.49901840473185 1.7855740578188355
C  0.0 1.7855740578188355 5.3567221734565065
C  3.571148115637671 1.7855740578188355 5.3567221734565065
C  7.142296231275342 1.7855740578188355 5.3567221734565065
C  0.0 5.3567221734565065 5.3567221734565065
C  3.571148115637671 5.3567221734565065 5.3567221734565065
C  7.142296231275342 5.3567221734565065 5.3567221734565065
C  0.0 8.927870289094177 5.3567221734565065
C  3.571148115637671 8.927870289094177 5.3567221734565065
C  7.142296231275342 8.927870289094177 5.3567221734565065
C  0.0 12.49901840473185 5.3567221734565065
C  3.571148115637671 12.49901840473185 5.3567221734565065
C  7.142296231275342 12.49901840473185 5.3567221734565065
C  0.0 5.3567221734565065 8.927870289094177
C  3.571148115637671 5.3567221734565065 8.927870289094177
C  7.142296231275342 5.3567221734565065 8.927870289094177
C  0.0 8.927870289094177 8.927870289094177
C  3.571148115637671 8.927870289094177 8.927870289094177
C  7.142296231275342 8.927870289094177 8.927870289094177
C  0.0 5.3567221734565065 12.49901840473185
C  3.571148115637671 5.3567221734565065 12.49901840473185
C  7.142296231275342 5.3567221734565065 12.49901840473185
C  0.0 8.927870289094177 12.49901840473185
C  3.571148115637671 8.927870289094177 12.49901840473185
C  7.142296231275342 8.927870289094177 12.49901840473185
C  1.7855740578188355 3.571148115637671 1.7855740578188355
C  5.3567221734565065 3.571148115637671 1.7855740578188355
C  8.927870289094177 3.571148115637671 1.7855740578188355
C  12.49901840473185 3.571148115637671 1.7855740578188355
C  1.7855740578188355 7.142296231275342 1.7855740578188355
C  5.3567221734565065 7.142296231275342 1.7855740578188355
C  8.927870289094177 7.142296231275342 1.7855740578188355
C  12.49901840473185 7.142296231275342 1.7855740578188355
C  1.7855740578188355 10.713444346913013 1.7855740578188355
C  5.3567221734565065 10.713444346913013 1.7855740578188355
C  8.927870289094177 10.713444346913013 1.7855740578188355
C  12.49901840473185 10.713444346913013 1.7855740578188355
C  1.7855740578188355 3.571148115637671 5.3567221734565065
C  5.3567221734565065 3.571148115637671 5.3567221734565065
C  8.927870289094177 3.571148115637671 5.3567221734565065
C  12.49901840473185 3.571148115637671 5.3567221734565065
C  1.7855740578188355 7.142296231275342 5.3567221734565065
C  5.3567221734565065 7.142296231275342 5.3567221734565065
C  8.927870289094177 7.142296231275342 5.3567221734565065
C  12.49901840473185 7.142296231275342 5.3567221734565065
C  1.7855740578188355 10.713444346913013 5.3567221734565065
C  5.3567221734565065 10.713444346913013 5.3567221734565065
C  8.927870289094177 10.713444346913013 5.3567221734565065
C  12.49901840473185 10.713444346913013 5.3567221734565065
C  1.7855740578188355 3.571148115637671 8.927870289094177
C  5.3567221734565065 3.571148115637671 8.927870289094177
C  1.7855740578188355 7.142296231275342 8.927870289094177
C  5.3567221734565065 7.142296231275342 8.927870289094177
C  1.7855740578188355 10.713444346913013 8.927870289094177
C  5.3567221734565065 10.713444346913013 8.927870289094177
C  1.7855740578188355 3.571148115637671 12.49901840473185
C  5.3567221734565065 3.571148115637671 12.49901840473185
C  1.7855740578188355 7.142296231275342 12.49901840473185
C  5.3567221734565065 7.142296231275342 12.49901840473185
C  1.7855740578188355 10.713444346913013 12.49901840473185
C  5.3567221734565065 10.713444346913013 12.49901840473185
C  0.8927870289094177 4.463935144547088 0.8927870289094177
C  4.463935144547088 4.463935144547088 0.8927870289094177
C  8.03508326018476 4.463935144547088 0.8927870289094177
C  0.8927870289094177 8.03508326018476 0.8927870289094177
C  4.463935144547088 8.03508326018476 0.8927870289094177
C  8.03508326018476 8.03508326018476 0.8927870289094177
C  0.8927870289094177 11.60623137582243 0.8927870289094177
C  4.463935144547088 11.60623137582243 0.8927870289094177
C  4.463935144547088 0.8927870289094177 4.463935144547088
C  0.8927870289094177 4.463935144547088 4.463935144547088
C  4.463935144547088 4.463935144547088 4.463935144547088
C  8.03508326018476 4.463935144547088 4.463935144547088
C  0.8927870289094177 8.03508326018476 4.463935144547088
C  4.463935144547088 8.03508326018476 4.463935144547088
C  8.03508326018476 8.03508326018476 4.463935144547088
C  11.60623137582243 8.03508326018476 4.463935144547088
C  0.8927870289094177 11.60623137582243 4.463935144547088
C  4.463935144547088 11.60623137582243 4.463935144547088
C  8.03508326018476 11.60623137582243 4.463935144547088
C  0.8927870289094177 4.463935144547088 8.03508326018476
C  4.463935144547088 4.463935144547088 8.03508326018476
C  0.8927870289094177 8.03508326018476 8.03508326018476
C  4.463935144547088 8.03508326018476 8.03508326018476
C  8.03508326018476 8.03508326018476 8.03508326018476
C  4.463935144547088 11.60623137582243 8.03508326018476
C  4.463935144547088 8.03508326018476 11.60623137582243
C  2.6783610867282532 2.6783610867282532 0.8927870289094177
C  6.249509202365925 2.6783610867282532 0.8927870289094177
C  2.6783610867282532 6.249509202365925 0.8927870289094177
C  6.249509202365925 6.249509202365925 0.8927870289094177
C  13.391805433641267 6.249509202365925 0.8927870289094177
C  2.6783610867282532 9.820657318003596 0.8927870289094177
C  6.249509202365925 9.820657318003596 0.8927870289094177
C  13.391805433641267 9.820657318003596 0.8927870289094177
C  2.6783610867282532 2.6783610867282532 4.463935144547088
C  6.249509202365925 2.6783610867282532 4.463935144547088
C  13.391805433641267 2.6783610867282532 4.463935144547088
C  2.6783610867282532 6.249509202365925 4.463935144547088
C  6.249509202365925 6.249509202365925 4.463935144547088
C  9.820657318003596 6.249509202365925 4.463935144547088
C  13.391805433641267 6.249509202365925 4.463935144547088
C  2.6783610867282532 9.820657318003596 4.463935144547088
C  6.249509202365925 9.820657318003596 4.463935144547088
C  13.391805433641267 9.820657318003596 4.463935144547088
C  2.6783610867282532 13.391805433641267 4.463935144547088
C  2.6783610867282532 2.6783610867282532 8.03508326018476
C  2.6783610867282532 6.249509202365925 8.03508326018476
C  6.249509202365925 6.249509202365925 8.03508326018476
C  13.391805433641267 6.249509202365925 8.03508326018476
C  2.6783610867282532 9.820657318003596 8.03508326018476
C  6.249509202365925 9.820657318003596 8.03508326018476
C  2.6783610867282532 6.249509202365925 11.60623137582243
C  2.6783610867282532 0.8927870289094177 2.6783610867282532
C  2.6783610867282532 4.463935144547088 2.6783610867282532
C  6.249509202365925 4.463935144547088 2.6783610867282532
C  13.391805433641267 4.463935144547088 2.6783610867282532
C  2.6783610867282532 8.03508326018476 2.6783610867282532
C  6.249509202365925 8.03508326018476 2.6783610867282532
C  9.820657318003596 8.03508326018476 2.6783610867282532
C  13.391805433641267 8.03508326018476 2.6783610867282532
C  2.6783610867282532 11.60623137582243 2.6783610867282532
C  6.249509202365925 11.60623137582243 2.6783610867282532
C  13.391805433641267 11.60623137582243 2.6783610867282532
C  2.6783610867282532 4.463935144547088 6.249509202365925
C  6.249509202365925 4.463935144547088 6.249509202365925
C  13.391805433641267 4.463935144547088 6.249509202365925
C  2.6783610867282532 8.03508326018476 6.249509202365925
C  6.249509202365925 8.03508326018476 6.249509202365925
C  13.391805433641267 8.03508326018476 6.249509202365925
C  2.6783610867282532 11.60623137582243 6.249509202365925
C  6.249509202365925 11.60623137582243 6.249509202365925
C  2.6783610867282532 8.03508326018476 9.820657318003596
C  2.6783610867282532 4.463935144547088 13.391805433641267
C  6.249509202365925 4.463935144547088 13.391805433641267
C  2.6783610867282532 8.03508326018476 13.391805433641267
C  6.249509202365925 8.03508326018476 13.391805433641267
C  13.391805433641267 8.03508326018476 13.391805433641267
C  2.6783610867282532 11.60623137582243 13.391805433641267
C  0.8927870289094177 2.6783610867282532 2.6783610867282532
C  4.463935144547088 2.6783610867282532 2.6783610867282532
C  8.03508326018476 2.6783610867282532 2.6783610867282532
C  0.8927870289094177 6.249509202365925 2.6783610867282532
C  4.463935144547088 6.249509202365925 2.6783610867282532
C  8.03508326018476 6.249509202365925 2.6783610867282532
C  11.60623137582243 6.249509202365925 2.6783610867282532
C  0.8927870289094177 9.820657318003596 2.6783610867282532
C  4.463935144547088 9.820657318003596 2.6783610867282532
C  8.03508326018476 9.820657318003596 2.6783610867282532
C  4.463935144547088 13.391805433641267 2.6783610867282532
C  0.8927870289094177 2.6783610867282532 6.249509202365925
C  4.463935144547088 2.6783610867282532 6.249509202365925
C  0.8927870289094177 6.249509202365925 6.249509202365925
C  4.463935144547088 6.249509202365925 6.249509202365925
C  8.03508326018476 6.249509202365925 6.249509202365925
C  0.8927870289094177 9.820657318003596 6.249509202365925
C  4.463935144547088 9.820657318003596 6.249509202365925
C  8.03508326018476 9.820657318003596 6.249509202365925
C  4.463935144547088 6.249509202365925 9.820657318003596
C  4.463935144547088 2.6783610867282532 13.391805433641267
C  0.8927870289094177 6.249509202365925 13.391805433641267
C  4.463935144547088 6.249509202365925 13.391805433641267
C  8.03508326018476 6.249509202365925 13.391805433641267
C  0.8927870289094177 9.820657318003596 13.391805433641267
C  4.463935144547088 9.820657318003596 13.391805433641267
