47
diamond nv
C  3.571148115637671 7.142296231275342 0.0
C  3.571148115637671 3.571148115637671 3.571148115637671
C  0.0 7.142296231275342 3.571148115637671
Fe  3.571148115637671 7.142296231275342 3.571148115637671
C  7.142296231275342 7.142296231275342 3.571148115637671
C  3.571148115637671 10.713444346913013 3.571148115637671
C  3.571148115637671 7.142296231275342 7.142296231275342
C  1.7855740578188355 5.3567221734565065 3.571148115637671
C  5.3567221734565065 5.3567221734565065 3.571148115637671
C  1.7855740578188355 8.927870289094177 3.571148115637671
C  5.3567221734565065 8.927870289094177 3.571148115637671
C  3.571148115637671 5.3567221734565065 1.7855740578188355
C  3.571148115637671 8.927870289094177 1.7855740578188355
C  3.571148115637671 5.3567221734565065 5.3567221734565065
C  3.571148115637671 8.927870289094177 5.3567221734565065
C  1.7855740578188355 7.142296231275342 1.7855740578188355
C  5.3567221734565065 7.142296231275342 1.7855740578188355
C  1.7855740578188355 7.142296231275342 5.3567221734565065
C  5.3567221734565065 7.142296231275342 5.3567221734565065
C  4.463935144547088 4.463935144547088 0.8927870289094177
C  0.8927870289094177 8.03508326018476 0.8927870289094177
C  4.463935144547088 8.03508326018476 0.8927870289094177
C  0.8927870289094177 4.463935144547088 4.463935144547088
C  4.463935144547088 4.463935144547088 4.463935144547088
C  0.8927870289094177 8.03508326018476 4.463935144547088
C  4.463935144547088 8.03508326018476 4.463935144547088
C  2.6783610867282532 6.249509202365925 0.8927870289094177
C  6.249509202365925 6.249509202365925 0.8927870289094177
C  2.6783610867282532 9.820657318003596 0.8927870289094177
C  2.6783610867282532 6.249509202365925 4.463935144547088
C  6.249509202365925 6.249509202365925 4.463935144547088
C  2.6783610867282532 9.820657318003596 4.463935144547088
C  6.249509202365925 9.820657318003596 4.463935144547088
C  2.6783610867282532 4.463935144547088 2.6783610867282532
C  6.249509202365925 4.463935144547088 2.6783610867282532
C  2.6783610867282532 8.03508326018476 2.6783610867282532
C  6.249509202365925 8.03508326018476 2.6783610867282532
C  2.6783610867282532 4.463935144547088 6.249509202365925
C  2.6783610867282532 8.03508326018476 6.249509202365925
C  6.249509202365925 8.03508326018476 6.249509202365925
C  0.8927870289094177 6.249509202365925 2.6783610867282532
C  4.463935144547088 6.249509202365925 2.6783610867282532
C  0.8927870289094177 9.820657318003596 2.6783610867282532
C  4.463935144547088 9.820657318003596 2.6783610867282532
C  0.8927870289094177 6.249509202365925 6.249509202365925
C  4.463935144547088 6.249509202365925 6.249509202365925
C  4.463935144547088 9.820657318003596 6.249509202365925
