 running on  256 total cores
 distrk:  each k-point on  256 cores,    1 groups
 distr:  one band on   16 cores,   16 groups
 using from now: INCAR     
 vasp.5.4.1 05Feb16 (build Jun 30 2016 18:21:48) complex                        
  
 POSCAR found :  2 types and      63 ions
 scaLAPACK will be used

 ----------------------------------------------------------------------------- 
|                                                                             |
|  ADVICE TO THIS USER RUNNING 'VASP/VAMP'   (HEAR YOUR MASTER'S VOICE ...):  |
|                                                                             |
|      You have a (more or less) 'large supercell' and for larger cells       |
|      it might be more efficient to use real space projection opertators     |
|      So try LREAL= Auto  in the INCAR   file.                               |
|      Mind: At the moment your POTCAR file does not contain real space       |
|       projectors, and has to be modified,  BUT if you                       |
|      want to do an extremely  accurate calculation you might also keep the  |
|      reciprocal projection scheme          (i.e. LREAL=.FALSE.)             |
|                                                                             |
 ----------------------------------------------------------------------------- 

 WARNING: for PREC=h ENMAX is automatically increase by 25 %
        this was not the case for versions prior to vasp.4.4
 WARNING: for PREC=h ENMAX is automatically increase by 25 %
        this was not the case for versions prior to vasp.4.4
 LDA part: xc-table for Pade appr. of Perdew

 ----------------------------------------------------------------------------- 
|                                                                             |
|           W    W    AA    RRRRR   N    N  II  N    N   GGGG   !!!           |
|           W    W   A  A   R    R  NN   N  II  NN   N  G    G  !!!           |
|           W    W  A    A  R    R  N N  N  II  N N  N  G       !!!           |
|           W WW W  AAAAAA  RRRRR   N  N N  II  N  N N  G  GGG   !            |
|           WW  WW  A    A  R   R   N   NN  II  N   NN  G    G                |
|           W    W  A    A  R    R  N    N  II  N    N   GGGG   !!!           |
|                                                                             |
|      The number of bands has been changed from the values supplied          |
|      in the INCAR file. This is a result of running the parallel version.   |
|      The orbitals not found in the WAVECAR file will be initialized with    |
|      random numbers, which is usually adequate. For correlated              |
|      calculations, however, you should redo the groundstate calculation.    |
|      I found NBANDS    =      136  now  NBANDS  =     144                   |
|                                                                             |
 ----------------------------------------------------------------------------- 

 POSCAR, INCAR and KPOINTS ok, starting setup
 FFT: planning ...
 WAVECAR not read
 entering main loop
       N       E                     dE             d eps       ncg     rms          rms(c)
DAV:   1     0.988107463861E+03    0.98811E+03   -0.13547E+05   576   0.167E+03
DAV:   2    -0.474262862729E+03   -0.14624E+04   -0.14199E+04   752   0.309E+02
DAV:   3    -0.541268073079E+03   -0.67005E+02   -0.66261E+02   656   0.694E+01
DAV:   4    -0.542902650706E+03   -0.16346E+01   -0.16255E+01   672   0.111E+01
DAV:   5    -0.542942708568E+03   -0.40058E-01   -0.40036E-01   656   0.173E+00BRMIX: very serious problems
 the old and the new charge density differ
 old charge density:   253.00000 new  253.99997
    0.510E+01
DAV:   6    -0.547951804472E+03   -0.50091E+01   -0.30307E+01   624   0.143E+01    0.227E+01
DAV:   7    -0.550474149467E+03   -0.25223E+01   -0.22528E+01   624   0.115E+01    0.106E+01
DAV:   8    -0.550058695351E+03    0.41545E+00   -0.19246E+00   640   0.433E+00    0.493E+00
DAV:   9    -0.550139903494E+03   -0.81208E-01   -0.23054E-01   640   0.155E+00    0.269E+00
DAV:  10    -0.550142812751E+03   -0.29093E-02   -0.23638E-02   672   0.551E-01    0.525E-01
DAV:  11    -0.550143048770E+03   -0.23602E-03   -0.10094E-02   656   0.343E-01    0.224E-01
DAV:  12    -0.550143572304E+03   -0.52353E-03   -0.22367E-03   640   0.172E-01    0.714E-02
DAV:  13    -0.550143699851E+03   -0.12755E-03   -0.30448E-04   528   0.666E-02    0.360E-02
DAV:  14    -0.550143738611E+03   -0.38760E-04   -0.51540E-05   384   0.275E-02
   1 F= -.55014374E+03 E0= -.55014374E+03  d E =0.000000E+00  mag=    -2.0026
 writing wavefunctions
 running on  256 total cores
 distrk:  each k-point on  256 cores,    1 groups
 distr:  one band on   16 cores,   16 groups
 using from now: INCAR     
 vasp.5.4.1 05Feb16 (build Jun 30 2016 18:21:48) complex                        
  
 POSCAR found :  2 types and      63 ions
 scaLAPACK will be used

 ----------------------------------------------------------------------------- 
|                                                                             |
|  ADVICE TO THIS USER RUNNING 'VASP/VAMP'   (HEAR YOUR MASTER'S VOICE ...):  |
|                                                                             |
|      You have a (more or less) 'large supercell' and for larger cells       |
|      it might be more efficient to use real space projection opertators     |
|      So try LREAL= Auto  in the INCAR   file.                               |
|      Mind: At the moment your POTCAR file does not contain real space       |
|       projectors, and has to be modified,  BUT if you                       |
|      want to do an extremely  accurate calculation you might also keep the  |
|      reciprocal projection scheme          (i.e. LREAL=.FALSE.)             |
|                                                                             |
 ----------------------------------------------------------------------------- 

 WARNING: for PREC=h ENMAX is automatically increase by 25 %
        this was not the case for versions prior to vasp.4.4
 WARNING: for PREC=h ENMAX is automatically increase by 25 %
        this was not the case for versions prior to vasp.4.4
 LDA part: xc-table for Pade appr. of Perdew

 ----------------------------------------------------------------------------- 
|                                                                             |
|           W    W    AA    RRRRR   N    N  II  N    N   GGGG   !!!           |
|           W    W   A  A   R    R  NN   N  II  NN   N  G    G  !!!           |
|           W    W  A    A  R    R  N N  N  II  N N  N  G       !!!           |
|           W WW W  AAAAAA  RRRRR   N  N N  II  N  N N  G  GGG   !            |
|           WW  WW  A    A  R   R   N   NN  II  N   NN  G    G                |
|           W    W  A    A  R    R  N    N  II  N    N   GGGG   !!!           |
|                                                                             |
|      The number of bands has been changed from the values supplied          |
|      in the INCAR file. This is a result of running the parallel version.   |
|      The orbitals not found in the WAVECAR file will be initialized with    |
|      random numbers, which is usually adequate. For correlated              |
|      calculations, however, you should redo the groundstate calculation.    |
|      I found NBANDS    =      136  now  NBANDS  =     144                   |
|                                                                             |
 ----------------------------------------------------------------------------- 

 POSCAR, INCAR and KPOINTS ok, starting setup
 FFT: planning ...
 WAVECAR not read
 entering main loop
       N       E                     dE             d eps       ncg     rms          rms(c)
DAV:   1     0.988061078936E+03    0.98806E+03   -0.13547E+05   576   0.167E+03
DAV:   2    -0.474248733048E+03   -0.14623E+04   -0.14198E+04   752   0.309E+02
DAV:   3    -0.541267284051E+03   -0.67019E+02   -0.66273E+02   656   0.694E+01
DAV:   4    -0.542903330716E+03   -0.16360E+01   -0.16270E+01   672   0.111E+01
DAV:   5    -0.542943786875E+03   -0.40456E-01   -0.40438E-01   672   0.173E+00BRMIX: very serious problems
 the old and the new charge density differ
 old charge density:   253.00000 new  253.99997
    0.510E+01
DAV:   6    -0.547951817433E+03   -0.50080E+01   -0.30316E+01   624   0.142E+01    0.227E+01
DAV:   7    -0.550474436350E+03   -0.25226E+01   -0.22524E+01   624   0.115E+01    0.106E+01
DAV:   8    -0.550058785400E+03    0.41565E+00   -0.19235E+00   640   0.432E+00    0.494E+00
DAV:   9    -0.550139850226E+03   -0.81065E-01   -0.23036E-01   640   0.155E+00    0.269E+00
DAV:  10    -0.550142810212E+03   -0.29600E-02   -0.23545E-02   672   0.550E-01    0.525E-01
DAV:  11    -0.550143048480E+03   -0.23827E-03   -0.10099E-02   656   0.343E-01    0.224E-01
DAV:  12    -0.550143571366E+03   -0.52289E-03   -0.22288E-03   640   0.172E-01    0.715E-02
DAV:  13    -0.550143699380E+03   -0.12801E-03   -0.30557E-04   528   0.666E-02    0.359E-02
DAV:  14    -0.550143738006E+03   -0.38626E-04   -0.51205E-05   384   0.275E-02
   1 F= -.55014374E+03 E0= -.55014374E+03  d E =0.000000E+00  mag=    -2.0026
 writing wavefunctions
 running on  256 total cores
 distrk:  each k-point on  256 cores,    1 groups
 distr:  one band on   16 cores,   16 groups
 using from now: INCAR     
 vasp.5.4.1 05Feb16 (build Jun 30 2016 18:21:48) complex                        
  
 POSCAR found :  2 types and      63 ions
 scaLAPACK will be used

 ----------------------------------------------------------------------------- 
|                                                                             |
|  ADVICE TO THIS USER RUNNING 'VASP/VAMP'   (HEAR YOUR MASTER'S VOICE ...):  |
|                                                                             |
|      You have a (more or less) 'large supercell' and for larger cells       |
|      it might be more efficient to use real space projection opertators     |
|      So try LREAL= Auto  in the INCAR   file.                               |
|      Mind: At the moment your POTCAR file does not contain real space       |
|       projectors, and has to be modified,  BUT if you                       |
|      want to do an extremely  accurate calculation you might also keep the  |
|      reciprocal projection scheme          (i.e. LREAL=.FALSE.)             |
|                                                                             |
 ----------------------------------------------------------------------------- 

 WARNING: for PREC=h ENMAX is automatically increase by 25 %
        this was not the case for versions prior to vasp.4.4
 WARNING: for PREC=h ENMAX is automatically increase by 25 %
        this was not the case for versions prior to vasp.4.4
 LDA part: xc-table for Pade appr. of Perdew

 ----------------------------------------------------------------------------- 
|                                                                             |
|           W    W    AA    RRRRR   N    N  II  N    N   GGGG   !!!           |
|           W    W   A  A   R    R  NN   N  II  NN   N  G    G  !!!           |
|           W    W  A    A  R    R  N N  N  II  N N  N  G       !!!           |
|           W WW W  AAAAAA  RRRRR   N  N N  II  N  N N  G  GGG   !            |
|           WW  WW  A    A  R   R   N   NN  II  N   NN  G    G                |
|           W    W  A    A  R    R  N    N  II  N    N   GGGG   !!!           |
|                                                                             |
|      The number of bands has been changed from the values supplied          |
|      in the INCAR file. This is a result of running the parallel version.   |
|      The orbitals not found in the WAVECAR file will be initialized with    |
|      random numbers, which is usually adequate. For correlated              |
|      calculations, however, you should redo the groundstate calculation.    |
|      I found NBANDS    =      136  now  NBANDS  =     144                   |
|                                                                             |
 ----------------------------------------------------------------------------- 

 POSCAR, INCAR and KPOINTS ok, starting setup
 FFT: planning ...
 WAVECAR not read
 entering main loop
       N       E                     dE             d eps       ncg     rms          rms(c)
DAV:   1     0.988075139150E+03    0.98808E+03   -0.13547E+05   576   0.167E+03
DAV:   2    -0.471727651247E+03   -0.14598E+04   -0.14166E+04   736   0.309E+02
DAV:   3    -0.541181207874E+03   -0.69454E+02   -0.68685E+02   656   0.709E+01
DAV:   4    -0.542899561809E+03   -0.17184E+01   -0.17092E+01   672   0.113E+01
DAV:   5    -0.542942568589E+03   -0.43007E-01   -0.42986E-01   656   0.178E+00BRMIX: very serious problems
 the old and the new charge density differ
 old charge density:   253.00000 new  253.99997
    0.510E+01
DAV:   6    -0.547951627759E+03   -0.50091E+01   -0.30319E+01   624   0.143E+01    0.227E+01
DAV:   7    -0.550474467076E+03   -0.25228E+01   -0.22525E+01   624   0.115E+01    0.106E+01
DAV:   8    -0.550058843493E+03    0.41562E+00   -0.19242E+00   640   0.433E+00    0.493E+00
DAV:   9    -0.550139966887E+03   -0.81123E-01   -0.23053E-01   640   0.155E+00    0.269E+00
DAV:  10    -0.550142883926E+03   -0.29170E-02   -0.23617E-02   672   0.551E-01    0.525E-01
DAV:  11    -0.550143120824E+03   -0.23690E-03   -0.10098E-02   656   0.343E-01    0.224E-01
DAV:  12    -0.550143643955E+03   -0.52313E-03   -0.22339E-03   640   0.172E-01    0.715E-02
DAV:  13    -0.550143771717E+03   -0.12776E-03   -0.30529E-04   528   0.666E-02    0.360E-02
DAV:  14    -0.550143810430E+03   -0.38714E-04   -0.51399E-05   384   0.275E-02
   1 F= -.55014381E+03 E0= -.55014381E+03  d E =0.000000E+00  mag=    -2.0026
 writing wavefunctions
