 running on  256 total cores
 distrk:  each k-point on  256 cores,    1 groups
 distr:  one band on   16 cores,   16 groups
 using from now: INCAR     
 vasp.5.4.1 05Feb16 (build Jun 30 2016 18:21:48) complex                        
  
 POSCAR found :  2 types and      63 ions
 scaLAPACK will be used

 ----------------------------------------------------------------------------- 
|                                                                             |
|  ADVICE TO THIS USER RUNNING 'VASP/VAMP'   (HEAR YOUR MASTER'S VOICE ...):  |
|                                                                             |
|      You have a (more or less) 'large supercell' and for larger cells       |
|      it might be more efficient to use real space projection opertators     |
|      So try LREAL= Auto  in the INCAR   file.                               |
|      Mind: At the moment your POTCAR file does not contain real space       |
|       projectors, and has to be modified,  BUT if you                       |
|      want to do an extremely  accurate calculation you might also keep the  |
|      reciprocal projection scheme          (i.e. LREAL=.FALSE.)             |
|                                                                             |
 ----------------------------------------------------------------------------- 

 WARNING: for PREC=h ENMAX is automatically increase by 25 %
        this was not the case for versions prior to vasp.4.4
 WARNING: for PREC=h ENMAX is automatically increase by 25 %
        this was not the case for versions prior to vasp.4.4
 LDA part: xc-table for Pade appr. of Perdew

 ----------------------------------------------------------------------------- 
|                                                                             |
|           W    W    AA    RRRRR   N    N  II  N    N   GGGG   !!!           |
|           W    W   A  A   R    R  NN   N  II  NN   N  G    G  !!!           |
|           W    W  A    A  R    R  N N  N  II  N N  N  G       !!!           |
|           W WW W  AAAAAA  RRRRR   N  N N  II  N  N N  G  GGG   !            |
|           WW  WW  A    A  R   R   N   NN  II  N   NN  G    G                |
|           W    W  A    A  R    R  N    N  II  N    N   GGGG   !!!           |
|                                                                             |
|      The number of bands has been changed from the values supplied          |
|      in the INCAR file. This is a result of running the parallel version.   |
|      The orbitals not found in the WAVECAR file will be initialized with    |
|      random numbers, which is usually adequate. For correlated              |
|      calculations, however, you should redo the groundstate calculation.    |
|      I found NBANDS    =      136  now  NBANDS  =     144                   |
|                                                                             |
 ----------------------------------------------------------------------------- 

 POSCAR, INCAR and KPOINTS ok, starting setup
 FFT: planning ...
 WAVECAR not read
 entering main loop
       N       E                     dE             d eps       ncg     rms          rms(c)
DAV:   1     0.988082669507E+03    0.98808E+03   -0.13547E+05   576   0.167E+03
DAV:   2    -0.474258658482E+03   -0.14623E+04   -0.14198E+04   752   0.309E+02
DAV:   3    -0.541269815943E+03   -0.67011E+02   -0.66266E+02   656   0.694E+01
DAV:   4    -0.542905075403E+03   -0.16353E+01   -0.16262E+01   672   0.111E+01
DAV:   5    -0.542945136301E+03   -0.40061E-01   -0.40039E-01   656   0.173E+00BRMIX: very serious problems
 the old and the new charge density differ
 old charge density:   253.00000 new  253.99997
    0.510E+01
DAV:   6    -0.547953738680E+03   -0.50086E+01   -0.30317E+01   624   0.143E+01    0.227E+01
DAV:   7    -0.550476647036E+03   -0.25229E+01   -0.22526E+01   624   0.115E+01    0.106E+01
DAV:   8    -0.550060990967E+03    0.41566E+00   -0.19239E+00   640   0.432E+00    0.493E+00
DAV:   9    -0.550142134336E+03   -0.81143E-01   -0.23045E-01   640   0.155E+00    0.269E+00
DAV:  10    -0.550145068822E+03   -0.29345E-02   -0.23569E-02   672   0.550E-01    0.525E-01
DAV:  11    -0.550145307327E+03   -0.23851E-03   -0.10090E-02   656   0.343E-01    0.224E-01
DAV:  12    -0.550145830315E+03   -0.52299E-03   -0.22305E-03   640   0.172E-01    0.715E-02
DAV:  13    -0.550145958206E+03   -0.12789E-03   -0.30508E-04   528   0.666E-02    0.359E-02
DAV:  14    -0.550145996861E+03   -0.38655E-04   -0.51275E-05   384   0.275E-02
   1 F= -.55014600E+03 E0= -.55014600E+03  d E =0.000000E+00  mag=    -2.0026
 writing wavefunctions
 running on  256 total cores
 distrk:  each k-point on  256 cores,    1 groups
 distr:  one band on   16 cores,   16 groups
 using from now: INCAR     
 vasp.5.4.1 05Feb16 (build Jun 30 2016 18:21:48) complex                        
  
 POSCAR found :  2 types and      63 ions
 scaLAPACK will be used

 ----------------------------------------------------------------------------- 
|                                                                             |
|  ADVICE TO THIS USER RUNNING 'VASP/VAMP'   (HEAR YOUR MASTER'S VOICE ...):  |
|                                                                             |
|      You have a (more or less) 'large supercell' and for larger cells       |
|      it might be more efficient to use real space projection opertators     |
|      So try LREAL= Auto  in the INCAR   file.                               |
|      Mind: At the moment your POTCAR file does not contain real space       |
|       projectors, and has to be modified,  BUT if you                       |
|      want to do an extremely  accurate calculation you might also keep the  |
|      reciprocal projection scheme          (i.e. LREAL=.FALSE.)             |
|                                                                             |
 ----------------------------------------------------------------------------- 

 WARNING: for PREC=h ENMAX is automatically increase by 25 %
        this was not the case for versions prior to vasp.4.4
 WARNING: for PREC=h ENMAX is automatically increase by 25 %
        this was not the case for versions prior to vasp.4.4
 LDA part: xc-table for Pade appr. of Perdew

 ----------------------------------------------------------------------------- 
|                                                                             |
|           W    W    AA    RRRRR   N    N  II  N    N   GGGG   !!!           |
|           W    W   A  A   R    R  NN   N  II  NN   N  G    G  !!!           |
|           W    W  A    A  R    R  N N  N  II  N N  N  G       !!!           |
|           W WW W  AAAAAA  RRRRR   N  N N  II  N  N N  G  GGG   !            |
|           WW  WW  A    A  R   R   N   NN  II  N   NN  G    G                |
|           W    W  A    A  R    R  N    N  II  N    N   GGGG   !!!           |
|                                                                             |
|      The number of bands has been changed from the values supplied          |
|      in the INCAR file. This is a result of running the parallel version.   |
|      The orbitals not found in the WAVECAR file will be initialized with    |
|      random numbers, which is usually adequate. For correlated              |
|      calculations, however, you should redo the groundstate calculation.    |
|      I found NBANDS    =      136  now  NBANDS  =     144                   |
|                                                                             |
 ----------------------------------------------------------------------------- 

 POSCAR, INCAR and KPOINTS ok, starting setup
 FFT: planning ...
 WAVECAR not read
 entering main loop
       N       E                     dE             d eps       ncg     rms          rms(c)
DAV:   1     0.988054596570E+03    0.98805E+03   -0.13547E+05   576   0.167E+03
DAV:   2    -0.474258598428E+03   -0.14623E+04   -0.14199E+04   752   0.309E+02
DAV:   3    -0.541268183898E+03   -0.67010E+02   -0.66264E+02   656   0.694E+01
DAV:   4    -0.542903403684E+03   -0.16352E+01   -0.16261E+01   672   0.111E+01
DAV:   5    -0.542943450525E+03   -0.40047E-01   -0.40025E-01   656   0.173E+00BRMIX: very serious problems
 the old and the new charge density differ
 old charge density:   253.00000 new  253.99997
    0.510E+01
DAV:   6    -0.547951513049E+03   -0.50081E+01   -0.30319E+01   624   0.143E+01    0.227E+01
DAV:   7    -0.550474409363E+03   -0.25229E+01   -0.22526E+01   624   0.115E+01    0.106E+01
DAV:   8    -0.550058749885E+03    0.41566E+00   -0.19240E+00   640   0.432E+00    0.494E+00
DAV:   9    -0.550139892228E+03   -0.81142E-01   -0.23047E-01   640   0.155E+00    0.269E+00
DAV:  10    -0.550142829400E+03   -0.29372E-02   -0.23557E-02   672   0.550E-01    0.525E-01
DAV:  11    -0.550143067110E+03   -0.23771E-03   -0.10088E-02   656   0.343E-01    0.224E-01
DAV:  12    -0.550143590068E+03   -0.52296E-03   -0.22303E-03   640   0.172E-01    0.714E-02
DAV:  13    -0.550143717909E+03   -0.12784E-03   -0.30474E-04   528   0.666E-02    0.359E-02
DAV:  14    -0.550143756555E+03   -0.38646E-04   -0.51298E-05   384   0.275E-02
   1 F= -.55014376E+03 E0= -.55014376E+03  d E =0.000000E+00  mag=    -2.0026
 writing wavefunctions
 running on  256 total cores
 distrk:  each k-point on  256 cores,    1 groups
 distr:  one band on   16 cores,   16 groups
 using from now: INCAR     
 vasp.5.4.1 05Feb16 (build Jun 30 2016 18:21:48) complex                        
  
 POSCAR found :  2 types and      63 ions
 scaLAPACK will be used

 ----------------------------------------------------------------------------- 
|                                                                             |
|  ADVICE TO THIS USER RUNNING 'VASP/VAMP'   (HEAR YOUR MASTER'S VOICE ...):  |
|                                                                             |
|      You have a (more or less) 'large supercell' and for larger cells       |
|      it might be more efficient to use real space projection opertators     |
|      So try LREAL= Auto  in the INCAR   file.                               |
|      Mind: At the moment your POTCAR file does not contain real space       |
|       projectors, and has to be modified,  BUT if you                       |
|      want to do an extremely  accurate calculation you might also keep the  |
|      reciprocal projection scheme          (i.e. LREAL=.FALSE.)             |
|                                                                             |
 ----------------------------------------------------------------------------- 

 WARNING: for PREC=h ENMAX is automatically increase by 25 %
        this was not the case for versions prior to vasp.4.4
 WARNING: for PREC=h ENMAX is automatically increase by 25 %
        this was not the case for versions prior to vasp.4.4
 LDA part: xc-table for Pade appr. of Perdew

 ----------------------------------------------------------------------------- 
|                                                                             |
|           W    W    AA    RRRRR   N    N  II  N    N   GGGG   !!!           |
|           W    W   A  A   R    R  NN   N  II  NN   N  G    G  !!!           |
|           W    W  A    A  R    R  N N  N  II  N N  N  G       !!!           |
|           W WW W  AAAAAA  RRRRR   N  N N  II  N  N N  G  GGG   !            |
|           WW  WW  A    A  R   R   N   NN  II  N   NN  G    G                |
|           W    W  A    A  R    R  N    N  II  N    N   GGGG   !!!           |
|                                                                             |
|      The number of bands has been changed from the values supplied          |
|      in the INCAR file. This is a result of running the parallel version.   |
|      The orbitals not found in the WAVECAR file will be initialized with    |
|      random numbers, which is usually adequate. For correlated              |
|      calculations, however, you should redo the groundstate calculation.    |
|      I found NBANDS    =      136  now  NBANDS  =     144                   |
|                                                                             |
 ----------------------------------------------------------------------------- 

 POSCAR, INCAR and KPOINTS ok, starting setup
 FFT: planning ...
 WAVECAR not read
 entering main loop
       N       E                     dE             d eps       ncg     rms          rms(c)
DAV:   1     0.988105286696E+03    0.98811E+03   -0.13547E+05   576   0.167E+03
DAV:   2    -0.474253129333E+03   -0.14624E+04   -0.14197E+04   752   0.309E+02
DAV:   3    -0.541267116221E+03   -0.67014E+02   -0.66270E+02   656   0.694E+01
DAV:   4    -0.542902621181E+03   -0.16355E+01   -0.16264E+01   672   0.111E+01
DAV:   5    -0.542942702321E+03   -0.40081E-01   -0.40059E-01   656   0.173E+00BRMIX: very serious problems
 the old and the new charge density differ
 old charge density:   253.00000 new  253.99997
    0.510E+01
DAV:   6    -0.547951531365E+03   -0.50088E+01   -0.30315E+01   624   0.143E+01    0.227E+01
DAV:   7    -0.550474367592E+03   -0.25228E+01   -0.22526E+01   624   0.115E+01    0.106E+01
DAV:   8    -0.550058763228E+03    0.41560E+00   -0.19240E+00   640   0.432E+00    0.493E+00
DAV:   9    -0.550139891484E+03   -0.81128E-01   -0.23044E-01   640   0.155E+00    0.269E+00
DAV:  10    -0.550142828547E+03   -0.29371E-02   -0.23616E-02   672   0.551E-01    0.525E-01
DAV:  11    -0.550143066416E+03   -0.23787E-03   -0.10091E-02   656   0.343E-01    0.224E-01
DAV:  12    -0.550143589490E+03   -0.52307E-03   -0.22318E-03   640   0.172E-01    0.714E-02
DAV:  13    -0.550143717328E+03   -0.12784E-03   -0.30519E-04   528   0.666E-02    0.359E-02
DAV:  14    -0.550143756012E+03   -0.38685E-04   -0.51271E-05   384   0.275E-02
   1 F= -.55014376E+03 E0= -.55014376E+03  d E =0.000000E+00  mag=    -2.0026
 writing wavefunctions
