 running on  256 total cores
 distrk:  each k-point on  256 cores,    1 groups
 distr:  one band on   16 cores,   16 groups
 using from now: INCAR     
 vasp.5.4.1 05Feb16 (build Jun 30 2016 18:21:48) complex                        
  
 POSCAR found :  2 types and      63 ions
 scaLAPACK will be used

 ----------------------------------------------------------------------------- 
|                                                                             |
|  ADVICE TO THIS USER RUNNING 'VASP/VAMP'   (HEAR YOUR MASTER'S VOICE ...):  |
|                                                                             |
|      You have a (more or less) 'large supercell' and for larger cells       |
|      it might be more efficient to use real space projection opertators     |
|      So try LREAL= Auto  in the INCAR   file.                               |
|      Mind: At the moment your POTCAR file does not contain real space       |
|       projectors, and has to be modified,  BUT if you                       |
|      want to do an extremely  accurate calculation you might also keep the  |
|      reciprocal projection scheme          (i.e. LREAL=.FALSE.)             |
|                                                                             |
 ----------------------------------------------------------------------------- 

 WARNING: for PREC=h ENMAX is automatically increase by 25 %
        this was not the case for versions prior to vasp.4.4
 WARNING: for PREC=h ENMAX is automatically increase by 25 %
        this was not the case for versions prior to vasp.4.4
 LDA part: xc-table for Pade appr. of Perdew

 ----------------------------------------------------------------------------- 
|                                                                             |
|           W    W    AA    RRRRR   N    N  II  N    N   GGGG   !!!           |
|           W    W   A  A   R    R  NN   N  II  NN   N  G    G  !!!           |
|           W    W  A    A  R    R  N N  N  II  N N  N  G       !!!           |
|           W WW W  AAAAAA  RRRRR   N  N N  II  N  N N  G  GGG   !            |
|           WW  WW  A    A  R   R   N   NN  II  N   NN  G    G                |
|           W    W  A    A  R    R  N    N  II  N    N   GGGG   !!!           |
|                                                                             |
|      The number of bands has been changed from the values supplied          |
|      in the INCAR file. This is a result of running the parallel version.   |
|      The orbitals not found in the WAVECAR file will be initialized with    |
|      random numbers, which is usually adequate. For correlated              |
|      calculations, however, you should redo the groundstate calculation.    |
|      I found NBANDS    =      136  now  NBANDS  =     144                   |
|                                                                             |
 ----------------------------------------------------------------------------- 

 POSCAR, INCAR and KPOINTS ok, starting setup
 FFT: planning ...
 WAVECAR not read
 entering main loop
       N       E                     dE             d eps       ncg     rms          rms(c)
DAV:   1     0.988025096018E+03    0.98803E+03   -0.13547E+05   576   0.167E+03
DAV:   2    -0.474245490855E+03   -0.14623E+04   -0.14198E+04   752   0.309E+02
DAV:   3    -0.541259818382E+03   -0.67014E+02   -0.66270E+02   656   0.694E+01
DAV:   4    -0.542895011086E+03   -0.16352E+01   -0.16261E+01   672   0.111E+01
DAV:   5    -0.542935082369E+03   -0.40071E-01   -0.40049E-01   656   0.173E+00BRMIX: very serious problems
 the old and the new charge density differ
 old charge density:   253.00000 new  253.99997
    0.510E+01
DAV:   6    -0.547950012561E+03   -0.50149E+01   -0.30308E+01   624   0.142E+01    0.227E+01
DAV:   7    -0.550474726791E+03   -0.25247E+01   -0.22522E+01   624   0.115E+01    0.106E+01
DAV:   8    -0.550059024183E+03    0.41570E+00   -0.19229E+00   640   0.432E+00    0.493E+00
DAV:   9    -0.550140199605E+03   -0.81175E-01   -0.23035E-01   640   0.155E+00    0.269E+00
DAV:  10    -0.550143140785E+03   -0.29412E-02   -0.23550E-02   672   0.550E-01    0.525E-01
DAV:  11    -0.550143378712E+03   -0.23793E-03   -0.10088E-02   656   0.343E-01    0.224E-01
DAV:  12    -0.550143901850E+03   -0.52314E-03   -0.22293E-03   640   0.172E-01    0.714E-02
DAV:  13    -0.550144029545E+03   -0.12769E-03   -0.30455E-04   528   0.665E-02    0.359E-02
DAV:  14    -0.550144068196E+03   -0.38651E-04   -0.51332E-05   384   0.275E-02
   1 F= -.55014407E+03 E0= -.55014407E+03  d E =0.000000E+00  mag=    -2.0026
 writing wavefunctions
 running on  256 total cores
 distrk:  each k-point on  256 cores,    1 groups
 distr:  one band on   16 cores,   16 groups
 using from now: INCAR     
 vasp.5.4.1 05Feb16 (build Jun 30 2016 18:21:48) complex                        
  
 POSCAR found :  2 types and      63 ions
 scaLAPACK will be used

 ----------------------------------------------------------------------------- 
|                                                                             |
|  ADVICE TO THIS USER RUNNING 'VASP/VAMP'   (HEAR YOUR MASTER'S VOICE ...):  |
|                                                                             |
|      You have a (more or less) 'large supercell' and for larger cells       |
|      it might be more efficient to use real space projection opertators     |
|      So try LREAL= Auto  in the INCAR   file.                               |
|      Mind: At the moment your POTCAR file does not contain real space       |
|       projectors, and has to be modified,  BUT if you                       |
|      want to do an extremely  accurate calculation you might also keep the  |
|      reciprocal projection scheme          (i.e. LREAL=.FALSE.)             |
|                                                                             |
 ----------------------------------------------------------------------------- 

 WARNING: for PREC=h ENMAX is automatically increase by 25 %
        this was not the case for versions prior to vasp.4.4
 WARNING: for PREC=h ENMAX is automatically increase by 25 %
        this was not the case for versions prior to vasp.4.4
 LDA part: xc-table for Pade appr. of Perdew

 ----------------------------------------------------------------------------- 
|                                                                             |
|           W    W    AA    RRRRR   N    N  II  N    N   GGGG   !!!           |
|           W    W   A  A   R    R  NN   N  II  NN   N  G    G  !!!           |
|           W    W  A    A  R    R  N N  N  II  N N  N  G       !!!           |
|           W WW W  AAAAAA  RRRRR   N  N N  II  N  N N  G  GGG   !            |
|           WW  WW  A    A  R   R   N   NN  II  N   NN  G    G                |
|           W    W  A    A  R    R  N    N  II  N    N   GGGG   !!!           |
|                                                                             |
|      The number of bands has been changed from the values supplied          |
|      in the INCAR file. This is a result of running the parallel version.   |
|      The orbitals not found in the WAVECAR file will be initialized with    |
|      random numbers, which is usually adequate. For correlated              |
|      calculations, however, you should redo the groundstate calculation.    |
|      I found NBANDS    =      136  now  NBANDS  =     144                   |
|                                                                             |
 ----------------------------------------------------------------------------- 

 POSCAR, INCAR and KPOINTS ok, starting setup
 FFT: planning ...
 WAVECAR not read
 entering main loop
       N       E                     dE             d eps       ncg     rms          rms(c)
DAV:   1     0.987970758815E+03    0.98797E+03   -0.13547E+05   576   0.167E+03
DAV:   2    -0.474255154974E+03   -0.14622E+04   -0.14197E+04   752   0.309E+02
DAV:   3    -0.541261323628E+03   -0.67006E+02   -0.66263E+02   656   0.694E+01
DAV:   4    -0.542896098841E+03   -0.16348E+01   -0.16257E+01   672   0.111E+01
DAV:   5    -0.542936155817E+03   -0.40057E-01   -0.40035E-01   656   0.173E+00BRMIX: very serious problems
 the old and the new charge density differ
 old charge density:   253.00000 new  253.99997
    0.510E+01
DAV:   6    -0.547950125743E+03   -0.50140E+01   -0.30310E+01   624   0.142E+01    0.227E+01
DAV:   7    -0.550474762711E+03   -0.25246E+01   -0.22524E+01   624   0.115E+01    0.106E+01
DAV:   8    -0.550059127313E+03    0.41564E+00   -0.19234E+00   640   0.432E+00    0.493E+00
DAV:   9    -0.550140286696E+03   -0.81159E-01   -0.23047E-01   640   0.155E+00    0.269E+00
DAV:  10    -0.550143212202E+03   -0.29255E-02   -0.23570E-02   672   0.550E-01    0.525E-01
DAV:  11    -0.550143449214E+03   -0.23701E-03   -0.10097E-02   656   0.343E-01    0.224E-01
DAV:  12    -0.550143972505E+03   -0.52329E-03   -0.22315E-03   640   0.172E-01    0.714E-02
DAV:  13    -0.550144100261E+03   -0.12776E-03   -0.30502E-04   528   0.666E-02    0.360E-02
DAV:  14    -0.550144138948E+03   -0.38687E-04   -0.51323E-05   384   0.275E-02
   1 F= -.55014414E+03 E0= -.55014414E+03  d E =0.000000E+00  mag=    -2.0026
 writing wavefunctions
 running on  256 total cores
 distrk:  each k-point on  256 cores,    1 groups
 distr:  one band on   16 cores,   16 groups
 using from now: INCAR     
 vasp.5.4.1 05Feb16 (build Jun 30 2016 18:21:48) complex                        
  
 POSCAR found :  2 types and      63 ions
 scaLAPACK will be used

 ----------------------------------------------------------------------------- 
|                                                                             |
|  ADVICE TO THIS USER RUNNING 'VASP/VAMP'   (HEAR YOUR MASTER'S VOICE ...):  |
|                                                                             |
|      You have a (more or less) 'large supercell' and for larger cells       |
|      it might be more efficient to use real space projection opertators     |
|      So try LREAL= Auto  in the INCAR   file.                               |
|      Mind: At the moment your POTCAR file does not contain real space       |
|       projectors, and has to be modified,  BUT if you                       |
|      want to do an extremely  accurate calculation you might also keep the  |
|      reciprocal projection scheme          (i.e. LREAL=.FALSE.)             |
|                                                                             |
 ----------------------------------------------------------------------------- 

 WARNING: for PREC=h ENMAX is automatically increase by 25 %
        this was not the case for versions prior to vasp.4.4
 WARNING: for PREC=h ENMAX is automatically increase by 25 %
        this was not the case for versions prior to vasp.4.4
 LDA part: xc-table for Pade appr. of Perdew

 ----------------------------------------------------------------------------- 
|                                                                             |
|           W    W    AA    RRRRR   N    N  II  N    N   GGGG   !!!           |
|           W    W   A  A   R    R  NN   N  II  NN   N  G    G  !!!           |
|           W    W  A    A  R    R  N N  N  II  N N  N  G       !!!           |
|           W WW W  AAAAAA  RRRRR   N  N N  II  N  N N  G  GGG   !            |
|           WW  WW  A    A  R   R   N   NN  II  N   NN  G    G                |
|           W    W  A    A  R    R  N    N  II  N    N   GGGG   !!!           |
|                                                                             |
|      The number of bands has been changed from the values supplied          |
|      in the INCAR file. This is a result of running the parallel version.   |
|      The orbitals not found in the WAVECAR file will be initialized with    |
|      random numbers, which is usually adequate. For correlated              |
|      calculations, however, you should redo the groundstate calculation.    |
|      I found NBANDS    =      136  now  NBANDS  =     144                   |
|                                                                             |
 ----------------------------------------------------------------------------- 

 POSCAR, INCAR and KPOINTS ok, starting setup
 FFT: planning ...
 WAVECAR not read
 entering main loop
       N       E                     dE             d eps       ncg     rms          rms(c)
DAV:   1     0.988197201900E+03    0.98820E+03   -0.13547E+05   576   0.167E+03
DAV:   2    -0.474258275637E+03   -0.14625E+04   -0.14200E+04   752   0.309E+02
DAV:   3    -0.541275054430E+03   -0.67017E+02   -0.66271E+02   656   0.694E+01
DAV:   4    -0.542910903364E+03   -0.16358E+01   -0.16268E+01   672   0.111E+01
DAV:   5    -0.542950972706E+03   -0.40069E-01   -0.40047E-01   656   0.173E+00BRMIX: very serious problems
 the old and the new charge density differ
 old charge density:   253.00000 new  253.99997
    0.510E+01
DAV:   6    -0.547951547002E+03   -0.50006E+01   -0.30324E+01   624   0.143E+01    0.227E+01
DAV:   7    -0.550474755556E+03   -0.25232E+01   -0.22532E+01   624   0.115E+01    0.106E+01
DAV:   8    -0.550059156585E+03    0.41560E+00   -0.19249E+00   640   0.433E+00    0.494E+00
DAV:   9    -0.550140270395E+03   -0.81114E-01   -0.23062E-01   640   0.155E+00    0.269E+00
DAV:  10    -0.550143209580E+03   -0.29392E-02   -0.23603E-02   672   0.551E-01    0.526E-01
DAV:  11    -0.550143446871E+03   -0.23729E-03   -0.10094E-02   656   0.343E-01    0.224E-01
DAV:  12    -0.550143970284E+03   -0.52341E-03   -0.22358E-03   640   0.172E-01    0.715E-02
DAV:  13    -0.550144098132E+03   -0.12785E-03   -0.30505E-04   528   0.666E-02    0.360E-02
DAV:  14    -0.550144136849E+03   -0.38718E-04   -0.51468E-05   384   0.276E-02
   1 F= -.55014414E+03 E0= -.55014414E+03  d E =0.000000E+00  mag=    -2.0026
 writing wavefunctions
