 running on  256 total cores
 distrk:  each k-point on  256 cores,    1 groups
 distr:  one band on   16 cores,   16 groups
 using from now: INCAR     
 vasp.5.4.1 05Feb16 (build Jun 30 2016 18:21:48) complex                        
  
 POSCAR found :  2 types and      63 ions
 scaLAPACK will be used

 ----------------------------------------------------------------------------- 
|                                                                             |
|  ADVICE TO THIS USER RUNNING 'VASP/VAMP'   (HEAR YOUR MASTER'S VOICE ...):  |
|                                                                             |
|      You have a (more or less) 'large supercell' and for larger cells       |
|      it might be more efficient to use real space projection opertators     |
|      So try LREAL= Auto  in the INCAR   file.                               |
|      Mind: At the moment your POTCAR file does not contain real space       |
|       projectors, and has to be modified,  BUT if you                       |
|      want to do an extremely  accurate calculation you might also keep the  |
|      reciprocal projection scheme          (i.e. LREAL=.FALSE.)             |
|                                                                             |
 ----------------------------------------------------------------------------- 

 WARNING: for PREC=h ENMAX is automatically increase by 25 %
        this was not the case for versions prior to vasp.4.4
 WARNING: for PREC=h ENMAX is automatically increase by 25 %
        this was not the case for versions prior to vasp.4.4
 LDA part: xc-table for Pade appr. of Perdew

 ----------------------------------------------------------------------------- 
|                                                                             |
|           W    W    AA    RRRRR   N    N  II  N    N   GGGG   !!!           |
|           W    W   A  A   R    R  NN   N  II  NN   N  G    G  !!!           |
|           W    W  A    A  R    R  N N  N  II  N N  N  G       !!!           |
|           W WW W  AAAAAA  RRRRR   N  N N  II  N  N N  G  GGG   !            |
|           WW  WW  A    A  R   R   N   NN  II  N   NN  G    G                |
|           W    W  A    A  R    R  N    N  II  N    N   GGGG   !!!           |
|                                                                             |
|      The number of bands has been changed from the values supplied          |
|      in the INCAR file. This is a result of running the parallel version.   |
|      The orbitals not found in the WAVECAR file will be initialized with    |
|      random numbers, which is usually adequate. For correlated              |
|      calculations, however, you should redo the groundstate calculation.    |
|      I found NBANDS    =      136  now  NBANDS  =     144                   |
|                                                                             |
 ----------------------------------------------------------------------------- 

 POSCAR, INCAR and KPOINTS ok, starting setup
 FFT: planning ...
 WAVECAR not read
 entering main loop
       N       E                     dE             d eps       ncg     rms          rms(c)
DAV:   1     0.988051915965E+03    0.98805E+03   -0.13547E+05   576   0.167E+03
DAV:   2    -0.474252945372E+03   -0.14623E+04   -0.14198E+04   752   0.309E+02
DAV:   3    -0.541267416822E+03   -0.67014E+02   -0.66269E+02   656   0.694E+01
DAV:   4    -0.542902396243E+03   -0.16350E+01   -0.16259E+01   672   0.111E+01
DAV:   5    -0.542942435204E+03   -0.40039E-01   -0.40017E-01   656   0.173E+00BRMIX: very serious problems
 the old and the new charge density differ
 old charge density:   253.00000 new  253.99997
    0.510E+01
DAV:   6    -0.547951132907E+03   -0.50087E+01   -0.30315E+01   624   0.143E+01    0.227E+01
DAV:   7    -0.550474246975E+03   -0.25231E+01   -0.22527E+01   624   0.115E+01    0.106E+01
DAV:   8    -0.550058763606E+03    0.41548E+00   -0.19245E+00   640   0.433E+00    0.494E+00
DAV:   9    -0.550139913732E+03   -0.81150E-01   -0.23053E-01   640   0.155E+00    0.269E+00
DAV:  10    -0.550142826990E+03   -0.29133E-02   -0.23622E-02   672   0.551E-01    0.525E-01
DAV:  11    -0.550143063737E+03   -0.23675E-03   -0.10102E-02   656   0.343E-01    0.224E-01
DAV:  12    -0.550143586753E+03   -0.52302E-03   -0.22342E-03   640   0.172E-01    0.715E-02
DAV:  13    -0.550143714605E+03   -0.12785E-03   -0.30537E-04   528   0.666E-02    0.360E-02
DAV:  14    -0.550143753309E+03   -0.38704E-04   -0.51384E-05   384   0.275E-02
   1 F= -.55014375E+03 E0= -.55014375E+03  d E =0.000000E+00  mag=    -2.0026
 writing wavefunctions
 running on  256 total cores
 distrk:  each k-point on  256 cores,    1 groups
 distr:  one band on   16 cores,   16 groups
 using from now: INCAR     
 vasp.5.4.1 05Feb16 (build Jun 30 2016 18:21:48) complex                        
  
 POSCAR found :  2 types and      63 ions
 scaLAPACK will be used

 ----------------------------------------------------------------------------- 
|                                                                             |
|  ADVICE TO THIS USER RUNNING 'VASP/VAMP'   (HEAR YOUR MASTER'S VOICE ...):  |
|                                                                             |
|      You have a (more or less) 'large supercell' and for larger cells       |
|      it might be more efficient to use real space projection opertators     |
|      So try LREAL= Auto  in the INCAR   file.                               |
|      Mind: At the moment your POTCAR file does not contain real space       |
|       projectors, and has to be modified,  BUT if you                       |
|      want to do an extremely  accurate calculation you might also keep the  |
|      reciprocal projection scheme          (i.e. LREAL=.FALSE.)             |
|                                                                             |
 ----------------------------------------------------------------------------- 

 WARNING: for PREC=h ENMAX is automatically increase by 25 %
        this was not the case for versions prior to vasp.4.4
 WARNING: for PREC=h ENMAX is automatically increase by 25 %
        this was not the case for versions prior to vasp.4.4
 LDA part: xc-table for Pade appr. of Perdew

 ----------------------------------------------------------------------------- 
|                                                                             |
|           W    W    AA    RRRRR   N    N  II  N    N   GGGG   !!!           |
|           W    W   A  A   R    R  NN   N  II  NN   N  G    G  !!!           |
|           W    W  A    A  R    R  N N  N  II  N N  N  G       !!!           |
|           W WW W  AAAAAA  RRRRR   N  N N  II  N  N N  G  GGG   !            |
|           WW  WW  A    A  R   R   N   NN  II  N   NN  G    G                |
|           W    W  A    A  R    R  N    N  II  N    N   GGGG   !!!           |
|                                                                             |
|      The number of bands has been changed from the values supplied          |
|      in the INCAR file. This is a result of running the parallel version.   |
|      The orbitals not found in the WAVECAR file will be initialized with    |
|      random numbers, which is usually adequate. For correlated              |
|      calculations, however, you should redo the groundstate calculation.    |
|      I found NBANDS    =      136  now  NBANDS  =     144                   |
|                                                                             |
 ----------------------------------------------------------------------------- 

 POSCAR, INCAR and KPOINTS ok, starting setup
 FFT: planning ...
 WAVECAR not read
 entering main loop
       N       E                     dE             d eps       ncg     rms          rms(c)
DAV:   1     0.988058443852E+03    0.98806E+03   -0.13547E+05   576   0.167E+03
DAV:   2    -0.474255344550E+03   -0.14623E+04   -0.14198E+04   752   0.309E+02
DAV:   3    -0.541266678206E+03   -0.67011E+02   -0.66268E+02   656   0.694E+01
DAV:   4    -0.542901998605E+03   -0.16353E+01   -0.16262E+01   672   0.111E+01
DAV:   5    -0.542942045919E+03   -0.40047E-01   -0.40025E-01   640   0.173E+00BRMIX: very serious problems
 the old and the new charge density differ
 old charge density:   253.00000 new  253.99997
    0.510E+01
DAV:   6    -0.547951551772E+03   -0.50095E+01   -0.30317E+01   624   0.143E+01    0.227E+01
DAV:   7    -0.550474171919E+03   -0.25226E+01   -0.22526E+01   624   0.115E+01    0.106E+01
DAV:   8    -0.550058761392E+03    0.41541E+00   -0.19239E+00   640   0.432E+00    0.493E+00
DAV:   9    -0.550139931013E+03   -0.81170E-01   -0.23044E-01   640   0.155E+00    0.269E+00
DAV:  10    -0.550142841989E+03   -0.29110E-02   -0.23600E-02   672   0.551E-01    0.525E-01
DAV:  11    -0.550143080563E+03   -0.23857E-03   -0.10084E-02   656   0.343E-01    0.224E-01
DAV:  12    -0.550143603547E+03   -0.52298E-03   -0.22320E-03   640   0.172E-01    0.714E-02
DAV:  13    -0.550143731470E+03   -0.12792E-03   -0.30501E-04   528   0.666E-02    0.359E-02
DAV:  14    -0.550143770139E+03   -0.38669E-04   -0.51272E-05   384   0.275E-02
   1 F= -.55014377E+03 E0= -.55014377E+03  d E =0.000000E+00  mag=    -2.0026
 writing wavefunctions
 running on  256 total cores
 distrk:  each k-point on  256 cores,    1 groups
 distr:  one band on   16 cores,   16 groups
 using from now: INCAR     
 vasp.5.4.1 05Feb16 (build Jun 30 2016 18:21:48) complex                        
  
 POSCAR found :  2 types and      63 ions
 scaLAPACK will be used

 ----------------------------------------------------------------------------- 
|                                                                             |
|  ADVICE TO THIS USER RUNNING 'VASP/VAMP'   (HEAR YOUR MASTER'S VOICE ...):  |
|                                                                             |
|      You have a (more or less) 'large supercell' and for larger cells       |
|      it might be more efficient to use real space projection opertators     |
|      So try LREAL= Auto  in the INCAR   file.                               |
|      Mind: At the moment your POTCAR file does not contain real space       |
|       projectors, and has to be modified,  BUT if you                       |
|      want to do an extremely  accurate calculation you might also keep the  |
|      reciprocal projection scheme          (i.e. LREAL=.FALSE.)             |
|                                                                             |
 ----------------------------------------------------------------------------- 

 WARNING: for PREC=h ENMAX is automatically increase by 25 %
        this was not the case for versions prior to vasp.4.4
 WARNING: for PREC=h ENMAX is automatically increase by 25 %
        this was not the case for versions prior to vasp.4.4
 LDA part: xc-table for Pade appr. of Perdew

 ----------------------------------------------------------------------------- 
|                                                                             |
|           W    W    AA    RRRRR   N    N  II  N    N   GGGG   !!!           |
|           W    W   A  A   R    R  NN   N  II  NN   N  G    G  !!!           |
|           W    W  A    A  R    R  N N  N  II  N N  N  G       !!!           |
|           W WW W  AAAAAA  RRRRR   N  N N  II  N  N N  G  GGG   !            |
|           WW  WW  A    A  R   R   N   NN  II  N   NN  G    G                |
|           W    W  A    A  R    R  N    N  II  N    N   GGGG   !!!           |
|                                                                             |
|      The number of bands has been changed from the values supplied          |
|      in the INCAR file. This is a result of running the parallel version.   |
|      The orbitals not found in the WAVECAR file will be initialized with    |
|      random numbers, which is usually adequate. For correlated              |
|      calculations, however, you should redo the groundstate calculation.    |
|      I found NBANDS    =      136  now  NBANDS  =     144                   |
|                                                                             |
 ----------------------------------------------------------------------------- 

 POSCAR, INCAR and KPOINTS ok, starting setup
 FFT: planning ...
 WAVECAR not read
 entering main loop
       N       E                     dE             d eps       ncg     rms          rms(c)
DAV:   1     0.988111515957E+03    0.98811E+03   -0.13547E+05   576   0.167E+03
DAV:   2    -0.474256189627E+03   -0.14624E+04   -0.14199E+04   752   0.309E+02
DAV:   3    -0.541268714288E+03   -0.67013E+02   -0.66266E+02   656   0.694E+01
DAV:   4    -0.542904009287E+03   -0.16353E+01   -0.16263E+01   672   0.111E+01
DAV:   5    -0.542944077825E+03   -0.40069E-01   -0.40047E-01   656   0.173E+00BRMIX: very serious problems
 the old and the new charge density differ
 old charge density:   253.00000 new  253.99997
    0.510E+01
DAV:   6    -0.547951450645E+03   -0.50074E+01   -0.30322E+01   624   0.143E+01    0.227E+01
DAV:   7    -0.550474467410E+03   -0.25230E+01   -0.22526E+01   624   0.115E+01    0.106E+01
DAV:   8    -0.550058773763E+03    0.41569E+00   -0.19241E+00   640   0.432E+00    0.494E+00
DAV:   9    -0.550139901097E+03   -0.81127E-01   -0.23054E-01   640   0.155E+00    0.269E+00
DAV:  10    -0.550142843602E+03   -0.29425E-02   -0.23583E-02   672   0.551E-01    0.526E-01
DAV:  11    -0.550143080158E+03   -0.23656E-03   -0.10103E-02   656   0.343E-01    0.224E-01
DAV:  12    -0.550143603466E+03   -0.52331E-03   -0.22326E-03   640   0.172E-01    0.715E-02
DAV:  13    -0.550143731186E+03   -0.12772E-03   -0.30507E-04   528   0.666E-02    0.360E-02
DAV:  14    -0.550143769896E+03   -0.38711E-04   -0.51438E-05   384   0.275E-02
   1 F= -.55014377E+03 E0= -.55014377E+03  d E =0.000000E+00  mag=    -2.0026
 writing wavefunctions
