 running on  256 total cores
 distrk:  each k-point on  256 cores,    1 groups
 distr:  one band on   16 cores,   16 groups
 using from now: INCAR     
 vasp.5.4.1 05Feb16 (build Jun 30 2016 18:21:48) complex                        
  
 POSCAR found :  2 types and      63 ions
 scaLAPACK will be used

 ----------------------------------------------------------------------------- 
|                                                                             |
|  ADVICE TO THIS USER RUNNING 'VASP/VAMP'   (HEAR YOUR MASTER'S VOICE ...):  |
|                                                                             |
|      You have a (more or less) 'large supercell' and for larger cells       |
|      it might be more efficient to use real space projection opertators     |
|      So try LREAL= Auto  in the INCAR   file.                               |
|      Mind: At the moment your POTCAR file does not contain real space       |
|       projectors, and has to be modified,  BUT if you                       |
|      want to do an extremely  accurate calculation you might also keep the  |
|      reciprocal projection scheme          (i.e. LREAL=.FALSE.)             |
|                                                                             |
 ----------------------------------------------------------------------------- 

 WARNING: for PREC=h ENMAX is automatically increase by 25 %
        this was not the case for versions prior to vasp.4.4
 WARNING: for PREC=h ENMAX is automatically increase by 25 %
        this was not the case for versions prior to vasp.4.4
 LDA part: xc-table for Pade appr. of Perdew

 ----------------------------------------------------------------------------- 
|                                                                             |
|           W    W    AA    RRRRR   N    N  II  N    N   GGGG   !!!           |
|           W    W   A  A   R    R  NN   N  II  NN   N  G    G  !!!           |
|           W    W  A    A  R    R  N N  N  II  N N  N  G       !!!           |
|           W WW W  AAAAAA  RRRRR   N  N N  II  N  N N  G  GGG   !            |
|           WW  WW  A    A  R   R   N   NN  II  N   NN  G    G                |
|           W    W  A    A  R    R  N    N  II  N    N   GGGG   !!!           |
|                                                                             |
|      The number of bands has been changed from the values supplied          |
|      in the INCAR file. This is a result of running the parallel version.   |
|      The orbitals not found in the WAVECAR file will be initialized with    |
|      random numbers, which is usually adequate. For correlated              |
|      calculations, however, you should redo the groundstate calculation.    |
|      I found NBANDS    =      136  now  NBANDS  =     144                   |
|                                                                             |
 ----------------------------------------------------------------------------- 

 POSCAR, INCAR and KPOINTS ok, starting setup
 FFT: planning ...
 WAVECAR not read
 entering main loop
       N       E                     dE             d eps       ncg     rms          rms(c)
DAV:   1     0.988111621975E+03    0.98811E+03   -0.13547E+05   576   0.167E+03
DAV:   2    -0.471741457164E+03   -0.14599E+04   -0.14167E+04   736   0.309E+02
DAV:   3    -0.541176930423E+03   -0.69435E+02   -0.68667E+02   656   0.709E+01
DAV:   4    -0.542894652012E+03   -0.17177E+01   -0.17085E+01   672   0.113E+01
DAV:   5    -0.542937626013E+03   -0.42974E-01   -0.42953E-01   656   0.178E+00BRMIX: very serious problems
 the old and the new charge density differ
 old charge density:   253.00000 new  253.99997
    0.510E+01
DAV:   6    -0.547951499264E+03   -0.50139E+01   -0.30307E+01   624   0.142E+01    0.227E+01
DAV:   7    -0.550474391258E+03   -0.25229E+01   -0.22521E+01   624   0.115E+01    0.106E+01
DAV:   8    -0.550058692655E+03    0.41570E+00   -0.19233E+00   640   0.432E+00    0.493E+00
DAV:   9    -0.550139825094E+03   -0.81132E-01   -0.23028E-01   640   0.155E+00    0.269E+00
DAV:  10    -0.550142794721E+03   -0.29696E-02   -0.23590E-02   672   0.551E-01    0.525E-01
DAV:  11    -0.550143033256E+03   -0.23854E-03   -0.10086E-02   656   0.343E-01    0.224E-01
DAV:  12    -0.550143556294E+03   -0.52304E-03   -0.22313E-03   640   0.172E-01    0.714E-02
DAV:  13    -0.550143684106E+03   -0.12781E-03   -0.30486E-04   528   0.666E-02    0.359E-02
DAV:  14    -0.550143722742E+03   -0.38637E-04   -0.51253E-05   384   0.275E-02
   1 F= -.55014372E+03 E0= -.55014372E+03  d E =0.000000E+00  mag=    -2.0026
 writing wavefunctions
 running on  256 total cores
 distrk:  each k-point on  256 cores,    1 groups
 distr:  one band on   16 cores,   16 groups
 using from now: INCAR     
 vasp.5.4.1 05Feb16 (build Jun 30 2016 18:21:48) complex                        
  
 POSCAR found :  2 types and      63 ions
 scaLAPACK will be used

 ----------------------------------------------------------------------------- 
|                                                                             |
|  ADVICE TO THIS USER RUNNING 'VASP/VAMP'   (HEAR YOUR MASTER'S VOICE ...):  |
|                                                                             |
|      You have a (more or less) 'large supercell' and for larger cells       |
|      it might be more efficient to use real space projection opertators     |
|      So try LREAL= Auto  in the INCAR   file.                               |
|      Mind: At the moment your POTCAR file does not contain real space       |
|       projectors, and has to be modified,  BUT if you                       |
|      want to do an extremely  accurate calculation you might also keep the  |
|      reciprocal projection scheme          (i.e. LREAL=.FALSE.)             |
|                                                                             |
 ----------------------------------------------------------------------------- 

 WARNING: for PREC=h ENMAX is automatically increase by 25 %
        this was not the case for versions prior to vasp.4.4
 WARNING: for PREC=h ENMAX is automatically increase by 25 %
        this was not the case for versions prior to vasp.4.4
 LDA part: xc-table for Pade appr. of Perdew

 ----------------------------------------------------------------------------- 
|                                                                             |
|           W    W    AA    RRRRR   N    N  II  N    N   GGGG   !!!           |
|           W    W   A  A   R    R  NN   N  II  NN   N  G    G  !!!           |
|           W    W  A    A  R    R  N N  N  II  N N  N  G       !!!           |
|           W WW W  AAAAAA  RRRRR   N  N N  II  N  N N  G  GGG   !            |
|           WW  WW  A    A  R   R   N   NN  II  N   NN  G    G                |
|           W    W  A    A  R    R  N    N  II  N    N   GGGG   !!!           |
|                                                                             |
|      The number of bands has been changed from the values supplied          |
|      in the INCAR file. This is a result of running the parallel version.   |
|      The orbitals not found in the WAVECAR file will be initialized with    |
|      random numbers, which is usually adequate. For correlated              |
|      calculations, however, you should redo the groundstate calculation.    |
|      I found NBANDS    =      136  now  NBANDS  =     144                   |
|                                                                             |
 ----------------------------------------------------------------------------- 

 POSCAR, INCAR and KPOINTS ok, starting setup
 FFT: planning ...
 WAVECAR not read
 entering main loop
       N       E                     dE             d eps       ncg     rms          rms(c)
DAV:   1     0.988057209756E+03    0.98806E+03   -0.13547E+05   576   0.167E+03
DAV:   2    -0.474251949589E+03   -0.14623E+04   -0.14198E+04   752   0.309E+02
DAV:   3    -0.541273023881E+03   -0.67021E+02   -0.66276E+02   656   0.694E+01
DAV:   4    -0.542908450842E+03   -0.16354E+01   -0.16264E+01   672   0.111E+01
DAV:   5    -0.542948541770E+03   -0.40091E-01   -0.40069E-01   656   0.173E+00BRMIX: very serious problems
 the old and the new charge density differ
 old charge density:   253.00000 new  253.99997
    0.510E+01
DAV:   6    -0.547951221606E+03   -0.50027E+01   -0.30329E+01   624   0.143E+01    0.227E+01
DAV:   7    -0.550474313538E+03   -0.25231E+01   -0.22532E+01   624   0.115E+01    0.106E+01
DAV:   8    -0.550058758606E+03    0.41555E+00   -0.19248E+00   640   0.433E+00    0.493E+00
DAV:   9    -0.550139928858E+03   -0.81170E-01   -0.23078E-01   640   0.156E+00    0.269E+00
DAV:  10    -0.550142797433E+03   -0.28686E-02   -0.23576E-02   672   0.551E-01    0.526E-01
DAV:  11    -0.550143034801E+03   -0.23737E-03   -0.10105E-02   656   0.343E-01    0.224E-01
DAV:  12    -0.550143557712E+03   -0.52291E-03   -0.22336E-03   640   0.172E-01    0.715E-02
DAV:  13    -0.550143685559E+03   -0.12785E-03   -0.30568E-04   528   0.666E-02    0.360E-02
DAV:  14    -0.550143724290E+03   -0.38731E-04   -0.51492E-05   384   0.276E-02
   1 F= -.55014372E+03 E0= -.55014372E+03  d E =0.000000E+00  mag=    -2.0026
 writing wavefunctions
 running on  256 total cores
 distrk:  each k-point on  256 cores,    1 groups
 distr:  one band on   16 cores,   16 groups
 using from now: INCAR     
 vasp.5.4.1 05Feb16 (build Jun 30 2016 18:21:48) complex                        
  
 POSCAR found :  2 types and      63 ions
 scaLAPACK will be used

 ----------------------------------------------------------------------------- 
|                                                                             |
|  ADVICE TO THIS USER RUNNING 'VASP/VAMP'   (HEAR YOUR MASTER'S VOICE ...):  |
|                                                                             |
|      You have a (more or less) 'large supercell' and for larger cells       |
|      it might be more efficient to use real space projection opertators     |
|      So try LREAL= Auto  in the INCAR   file.                               |
|      Mind: At the moment your POTCAR file does not contain real space       |
|       projectors, and has to be modified,  BUT if you                       |
|      want to do an extremely  accurate calculation you might also keep the  |
|      reciprocal projection scheme          (i.e. LREAL=.FALSE.)             |
|                                                                             |
 ----------------------------------------------------------------------------- 

 WARNING: for PREC=h ENMAX is automatically increase by 25 %
        this was not the case for versions prior to vasp.4.4
 WARNING: for PREC=h ENMAX is automatically increase by 25 %
        this was not the case for versions prior to vasp.4.4
 LDA part: xc-table for Pade appr. of Perdew

 ----------------------------------------------------------------------------- 
|                                                                             |
|           W    W    AA    RRRRR   N    N  II  N    N   GGGG   !!!           |
|           W    W   A  A   R    R  NN   N  II  NN   N  G    G  !!!           |
|           W    W  A    A  R    R  N N  N  II  N N  N  G       !!!           |
|           W WW W  AAAAAA  RRRRR   N  N N  II  N  N N  G  GGG   !            |
|           WW  WW  A    A  R   R   N   NN  II  N   NN  G    G                |
|           W    W  A    A  R    R  N    N  II  N    N   GGGG   !!!           |
|                                                                             |
|      The number of bands has been changed from the values supplied          |
|      in the INCAR file. This is a result of running the parallel version.   |
|      The orbitals not found in the WAVECAR file will be initialized with    |
|      random numbers, which is usually adequate. For correlated              |
|      calculations, however, you should redo the groundstate calculation.    |
|      I found NBANDS    =      136  now  NBANDS  =     144                   |
|                                                                             |
 ----------------------------------------------------------------------------- 

 POSCAR, INCAR and KPOINTS ok, starting setup
 FFT: planning ...
 WAVECAR not read
 entering main loop
       N       E                     dE             d eps       ncg     rms          rms(c)
DAV:   1     0.987998023986E+03    0.98800E+03   -0.13547E+05   576   0.167E+03
DAV:   2    -0.474258935495E+03   -0.14623E+04   -0.14197E+04   752   0.309E+02
DAV:   3    -0.541264610940E+03   -0.67006E+02   -0.66260E+02   656   0.694E+01
DAV:   4    -0.542900898386E+03   -0.16363E+01   -0.16272E+01   672   0.111E+01
DAV:   5    -0.542940960735E+03   -0.40062E-01   -0.40040E-01   656   0.173E+00BRMIX: very serious problems
 the old and the new charge density differ
 old charge density:   253.00000 new  253.99997
    0.510E+01
DAV:   6    -0.547951266398E+03   -0.50103E+01   -0.30307E+01   624   0.143E+01    0.227E+01
DAV:   7    -0.550474536320E+03   -0.25233E+01   -0.22528E+01   624   0.115E+01    0.106E+01
DAV:   8    -0.550059171303E+03    0.41537E+00   -0.19250E+00   640   0.433E+00    0.493E+00
DAV:   9    -0.550140357835E+03   -0.81187E-01   -0.23030E-01   640   0.155E+00    0.269E+00
DAV:  10    -0.550143233711E+03   -0.28759E-02   -0.23619E-02   672   0.551E-01    0.525E-01
DAV:  11    -0.550143475831E+03   -0.24212E-03   -0.10062E-02   656   0.342E-01    0.224E-01
DAV:  12    -0.550143997869E+03   -0.52204E-03   -0.22273E-03   640   0.172E-01    0.714E-02
DAV:  13    -0.550144125920E+03   -0.12805E-03   -0.30501E-04   528   0.666E-02    0.359E-02
DAV:  14    -0.550144164455E+03   -0.38535E-04   -0.50925E-05   384   0.274E-02
   1 F= -.55014416E+03 E0= -.55014416E+03  d E =0.000000E+00  mag=    -2.0026
 writing wavefunctions
 running on  256 total cores
 distrk:  each k-point on  256 cores,    1 groups
 distr:  one band on   16 cores,   16 groups
 using from now: INCAR     
 vasp.5.4.1 05Feb16 (build Jun 30 2016 18:21:48) complex                        
  
 POSCAR found :  2 types and      63 ions
 scaLAPACK will be used

 ----------------------------------------------------------------------------- 
|                                                                             |
|  ADVICE TO THIS USER RUNNING 'VASP/VAMP'   (HEAR YOUR MASTER'S VOICE ...):  |
|                                                                             |
|      You have a (more or less) 'large supercell' and for larger cells       |
|      it might be more efficient to use real space projection opertators     |
|      So try LREAL= Auto  in the INCAR   file.                               |
|      Mind: At the moment your POTCAR file does not contain real space       |
|       projectors, and has to be modified,  BUT if you                       |
|      want to do an extremely  accurate calculation you might also keep the  |
|      reciprocal projection scheme          (i.e. LREAL=.FALSE.)             |
|                                                                             |
 ----------------------------------------------------------------------------- 

 WARNING: for PREC=h ENMAX is automatically increase by 25 %
        this was not the case for versions prior to vasp.4.4
 WARNING: for PREC=h ENMAX is automatically increase by 25 %
        this was not the case for versions prior to vasp.4.4
 LDA part: xc-table for Pade appr. of Perdew

 ----------------------------------------------------------------------------- 
|                                                                             |
|           W    W    AA    RRRRR   N    N  II  N    N   GGGG   !!!           |
|           W    W   A  A   R    R  NN   N  II  NN   N  G    G  !!!           |
|           W    W  A    A  R    R  N N  N  II  N N  N  G       !!!           |
|           W WW W  AAAAAA  RRRRR   N  N N  II  N  N N  G  GGG   !            |
|           WW  WW  A    A  R   R   N   NN  II  N   NN  G    G                |
|           W    W  A    A  R    R  N    N  II  N    N   GGGG   !!!           |
|                                                                             |
|      The number of bands has been changed from the values supplied          |
|      in the INCAR file. This is a result of running the parallel version.   |
|      The orbitals not found in the WAVECAR file will be initialized with    |
|      random numbers, which is usually adequate. For correlated              |
|      calculations, however, you should redo the groundstate calculation.    |
|      I found NBANDS    =      136  now  NBANDS  =     144                   |
|                                                                             |
 ----------------------------------------------------------------------------- 

 POSCAR, INCAR and KPOINTS ok, starting setup
 FFT: planning ...
 WAVECAR not read
 entering main loop
       N       E                     dE             d eps       ncg     rms          rms(c)
DAV:   1     0.988170799934E+03    0.98817E+03   -0.13547E+05   576   0.167E+03
DAV:   2    -0.474254146162E+03   -0.14624E+04   -0.14199E+04   752   0.309E+02
DAV:   3    -0.541271683458E+03   -0.67018E+02   -0.66273E+02   656   0.694E+01
DAV:   4    -0.542906013166E+03   -0.16343E+01   -0.16253E+01   672   0.111E+01
DAV:   5    -0.542946076762E+03   -0.40064E-01   -0.40042E-01   656   0.173E+00BRMIX: very serious problems
 the old and the new charge density differ
 old charge density:   253.00000 new  253.99997
    0.510E+01
DAV:   6    -0.547948932090E+03   -0.50029E+01   -0.30328E+01   624   0.143E+01    0.227E+01
DAV:   7    -0.550475011243E+03   -0.25261E+01   -0.22528E+01   624   0.115E+01    0.106E+01
DAV:   8    -0.550059156673E+03    0.41585E+00   -0.19232E+00   640   0.432E+00    0.494E+00
DAV:   9    -0.550140235266E+03   -0.81079E-01   -0.23064E-01   640   0.155E+00    0.269E+00
DAV:  10    -0.550143233355E+03   -0.29981E-02   -0.23537E-02   672   0.550E-01    0.526E-01
DAV:  11    -0.550143468640E+03   -0.23528E-03   -0.10122E-02   656   0.343E-01    0.224E-01
DAV:  12    -0.550143992654E+03   -0.52401E-03   -0.22353E-03   640   0.172E-01    0.715E-02
DAV:  13    -0.550144120386E+03   -0.12773E-03   -0.30531E-04   528   0.666E-02    0.360E-02
DAV:  14    -0.550144159189E+03   -0.38803E-04   -0.51699E-05   384   0.276E-02
   1 F= -.55014416E+03 E0= -.55014416E+03  d E =0.000000E+00  mag=    -2.0026
 writing wavefunctions
