215

C     0.000000     0.000000     0.000000     0.032991     0.037254    -0.070245
C     1.786846     1.786846     0.000000     0.402684     0.431099     0.013071
C     0.000000     1.786846     1.786846    -0.006139     0.162503    -0.554097
C     1.786846     0.000000     1.786846     0.122997    -0.006932    -0.565187
C     0.893423     0.893423     0.893423     0.198027     0.223613    -0.421640
C     2.680269     2.680269     0.893423     0.348084     0.348898     0.427954
C     2.680269     0.893423     2.680269    -0.174965    -0.226961    -0.194673
C     0.893423     2.680269     2.680269    -0.200992    -0.153411    -0.173933
C     0.000000     0.000000     3.573692    -0.386645    -0.361020    -0.535748
C     1.786846     1.786846     3.573692    -0.992367    -0.998780    -0.140567
C     0.000000     1.786846     5.360538    -0.341085    -0.037380    -0.248793
C     1.786846     0.000000     5.360538    -0.066144    -0.317216    -0.235355
C     0.893423     0.893423     4.467115    -0.694489    -0.671721    -0.283133
C     2.680269     2.680269     4.467115    -1.652310    -1.713912     0.821894
C     2.680269     0.893423     6.253961    -0.068047    -0.478322     0.326712
C     0.893423     2.680269     6.253961    -0.464216    -0.067141     0.312640
C     0.000000     0.000000     7.147384     0.261548     0.286636    -0.260104
C     1.786846     1.786846     7.147384     0.117881     0.114462     0.189653
C     0.000000     1.786846     8.934230     0.380887     0.370640    -0.163561
C     1.786846     0.000000     8.934230     0.393414     0.388633    -0.156379
C     0.893423     0.893423     8.040807     0.323201     0.323408    -0.075037
C     2.680269     2.680269     8.040807     0.376200     0.375512     0.035164
C     2.680269     0.893423     9.827653     0.380096     0.293491    -0.083282
C     0.893423     2.680269     9.827653     0.287378     0.354255    -0.090656
C     0.000000     3.573692     0.000000     0.508566     0.284129    -0.112049
C     1.786846     5.360538     0.000000     0.375766    -0.034354    -0.114477
C     0.000000     5.360538     1.786846     0.463601     0.291117    -0.320862
C     1.786846     3.573692     1.786846     0.450330     0.074549     0.605656
C     0.893423     4.467115     0.893423     0.637994     0.150157     0.086563
C     2.680269     6.253961     0.893423     0.046823    -0.339941     0.420752
C     2.680269     4.467115     2.680269     0.146651    -0.435884     1.638595
C     0.893423     6.253961     2.680269     0.079115     0.000866     0.024873
C     0.000000     3.573692     3.573692    -0.105927     0.212475    -0.380149
C     1.786846     5.360538     3.573692    -0.136250    -0.117054     0.408692
C     0.000000     5.360538     5.360538    -0.019285     0.368438     0.038573
C     1.786846     3.573692     5.360538    -0.944996    -0.697606     0.296490
C     0.893423     4.467115     4.467115    -0.381978    -0.071998     0.155009
C     2.680269     6.253961     4.467115     0.210849    -0.150466    -0.398492
C     2.680269     4.467115     6.253961    -0.020029    -0.300704    -0.650238
C     0.893423     6.253961     6.253961     0.181461     0.291990    -0.145804
C     0.000000     3.573692     7.147384     0.091326     0.494967     0.238637
C     1.786846     5.360538     7.147384     0.315355     0.175033    -0.331613
C     0.000000     5.360538     8.934230     0.189769     0.518301     0.181530
C     1.786846     3.573692     8.934230     0.431152     0.571047     0.165943
C     0.893423     4.467115     8.040807     0.402671     0.581951     0.052776
C     2.680269     6.253961     8.040807     0.183248    -0.140467     0.012925
C     2.680269     4.467115     9.827653     0.197912     0.308341     0.518064
C     0.893423     6.253961     9.827653    -0.018897     0.276863     0.475388
C     0.000000     7.147384     0.000000     0.158445     0.137944    -0.449169
C     1.786846     8.934230     0.000000    -0.478395    -0.002138    -0.297857
C     0.000000     8.934230     1.786846    -0.110251     0.171815     0.073186
C     1.786846     7.147384     1.786846    -0.103020    -0.100581    -0.020201
C     0.893423     8.040807     0.893423    -0.168945     0.039795    -0.173978
C     2.680269     9.827653     0.893423    -0.507653    -0.043175    -0.228055
C     2.680269     8.040807     2.680269    -0.207657    -0.018649    -0.191006
C     0.893423     9.827653     2.680269    -0.080004     0.135421     0.118197
C     0.000000     7.147384     3.573692     0.066911     0.121532    -0.077418
C     1.786846     8.934230     3.573692    -0.139651    -0.045714    -0.033432
C     0.000000     8.934230     5.360538    -0.017021    -0.005232    -0.092603
C     1.786846     7.147384     5.360538     0.182765    -0.106055    -0.244694
C     0.893423     8.040807     4.467115     0.038561    -0.037963    -0.132912
C     2.680269     9.827653     4.467115    -0.180614    -0.293725     0.178821
C     2.680269     8.040807     6.253961    -0.102917    -0.475993     0.007236
C     0.893423     9.827653     6.253961    -0.048641    -0.228201     0.049835
C     0.000000     7.147384     7.147384     0.054442     0.364719     0.015012
C     1.786846     8.934230     7.147384    -0.133675    -0.385805     0.158629
C     0.000000     8.934230     8.934230    -0.196120     0.140621     0.183900
C     1.786846     7.147384     8.934230     0.052769     0.020067     0.340120
C     0.893423     8.040807     8.040807    -0.101237     0.043800     0.314505
C     2.680269     9.827653     8.040807    -0.245005    -0.461089     0.201253
C     2.680269     8.040807     9.827653     0.032062    -0.048609     0.453965
C     0.893423     9.827653     9.827653    -0.038586    -0.032942     0.216406
C     3.573692     0.000000     0.000000     0.251619     0.498694    -0.147546
C     5.360538     1.786846     0.000000    -0.055763     0.387006    -0.146385
C     3.573692     1.786846     1.786846     0.066019     0.386710     0.548450
C     5.360538     0.000000     1.786846     0.283147     0.455562    -0.338385
C     4.467115     0.893423     0.893423     0.132976     0.607926     0.033727
C     6.253961     2.680269     0.893423    -0.327579     0.043174     0.399207
C     6.253961     0.893423     2.680269     0.027301     0.043464     0.020318
C     4.467115     2.680269     2.680269    -0.386010     0.013716     1.567261
C     3.573692     0.000000     3.573692     0.189894    -0.119614    -0.379232
C     5.360538     1.786846     3.573692    -0.097263    -0.222135     0.368094
C     3.573692     1.786846     5.360538    -0.694337    -0.998812     0.299883
C     5.360538     0.000000     5.360538     0.388192    -0.021777     0.071406
C     4.467115     0.893423     4.467115    -0.062134    -0.431331     0.155871
C     6.253961     2.680269     4.467115    -0.212102     0.218599    -0.441722
C     6.253961     0.893423     6.253961     0.292754     0.204906    -0.127680
C     4.467115     2.680269     6.253961    -0.347812    -0.003124    -0.692057
C     3.573692     0.000000     7.147384     0.510593     0.101065     0.259583
C     5.360538     1.786846     7.147384     0.162211     0.344906    -0.355415
C     3.573692     1.786846     8.934230     0.593793     0.438667     0.169514
C     5.360538     0.000000     8.934230     0.533690     0.196829     0.189217
C     4.467115     0.893423     8.040807     0.596787     0.423956     0.051934
C     6.253961     2.680269     8.040807    -0.146146     0.182764    -0.026683
C     6.253961     0.893423     9.827653     0.293467    -0.023849     0.477407
C     4.467115     2.680269     9.827653     0.337244     0.191525     0.516462
C     3.573692     3.573692     0.000000     0.166756     0.190255     0.225541
C     5.360538     5.360538     0.000000    -0.439845    -0.426765     0.041062
C     3.573692     5.360538     1.786846     0.329513    -0.199227     1.167131
C     5.360538     3.573692     1.786846    -0.182829     0.285645     1.135062
C     4.467115     4.467115     0.893423    -0.083873    -0.092875     0.813309
C     6.253961     6.253961     0.893423    -0.164310    -0.146950    -0.386367
C     6.253961     4.467115     2.680269     0.842523     0.746304    -0.207725
C     4.467115     6.253961     2.680269     0.742427     0.862340    -0.198570
N     3.573692     3.573692     3.573692    -1.037455    -1.171498     2.208953
C     5.360538     5.360538     3.573692     2.155058     2.174208    -1.025123
C     3.573692     5.360538     5.360538     0.481458    -0.775170    -1.258109
C     5.360538     3.573692     5.360538    -0.916099     0.543664    -1.379889
C     6.253961     6.253961     4.467115     1.460931     1.477824    -0.330422
C     6.253961     4.467115     6.253961    -0.574705     0.175236    -0.983837
C     4.467115     6.253961     6.253961     0.155185    -0.477093    -0.903119
C     3.573692     3.573692     7.147384     0.018758     0.036125    -0.401363
C     5.360538     5.360538     7.147384    -0.197967    -0.170058    -0.578408
C     3.573692     5.360538     8.934230     0.132146     0.039002     0.264328
C     5.360538     3.573692     8.934230     0.059848     0.119259     0.247933
C     4.467115     4.467115     8.040807    -0.010652    -0.013333    -0.143080
C     6.253961     6.253961     8.040807    -0.323605    -0.340205    -0.085987
C     6.253961     4.467115     9.827653     0.001908    -0.006853     0.412639
C     4.467115     6.253961     9.827653     0.029097    -0.031332     0.427087
C     3.573692     7.147384     0.000000    -0.455872    -0.385759    -0.168944
C     5.360538     8.934230     0.000000    -0.465311    -0.191390    -0.188008
C     3.573692     8.934230     1.786846    -0.584330    -0.132193    -0.321649
C     5.360538     7.147384     1.786846     0.065839     0.470414    -0.532929
C     4.467115     8.040807     0.893423    -0.492221    -0.017569    -0.476955
C     6.253961     9.827653     0.893423    -0.352304    -0.277105     0.071311
C     6.253961     8.040807     2.680269     0.144767     0.483290    -0.091195
C     4.467115     9.827653     2.680269    -0.521201    -0.254927    -0.025920
C     3.573692     7.147384     3.573692     0.195758     0.212859    -0.224864
C     5.360538     8.934230     3.573692    -0.278648     0.062700     0.089389
C     3.573692     8.934230     5.360538    -0.222719    -0.334373     0.226223
C     5.360538     7.147384     5.360538     0.435554     0.306753    -0.240375
C     4.467115     8.040807     4.467115    -0.026102     0.075881     0.038822
C     6.253961     9.827653     4.467115    -0.394716    -0.047709     0.429434
C     6.253961     8.040807     6.253961    -0.024991     0.045603     0.377037
C     4.467115     9.827653     6.253961    -0.441230    -0.397632     0.410321
C     3.573692     7.147384     7.147384     0.056565    -0.606598    -0.390606
C     5.360538     8.934230     7.147384    -0.281522    -0.280149     0.342183
C     3.573692     8.934230     8.934230    -0.137735    -0.407539     0.148996
C     5.360538     7.147384     8.934230    -0.203322    -0.346890     0.066024
C     4.467115     8.040807     8.040807    -0.222834    -0.609843     0.026341
C     6.253961     9.827653     8.040807    -0.235068     0.009503     0.052842
C     6.253961     8.040807     9.827653    -0.069776    -0.046855    -0.224476
C     4.467115     9.827653     9.827653    -0.002804    -0.024646    -0.136303
C     7.147384     0.000000     0.000000     0.122160     0.187621    -0.445081
C     8.934230     1.786846     0.000000    -0.015436    -0.466601    -0.278382
C     7.147384     1.786846     1.786846    -0.089072    -0.097681    -0.011442
C     8.934230     0.000000     1.786846     0.165699    -0.083030     0.107756
C     8.040807     0.893423     0.893423     0.035242    -0.149223    -0.154463
C     9.827653     2.680269     0.893423    -0.052139    -0.498292    -0.213487
C     9.827653     0.893423     2.680269     0.133831    -0.059323     0.153398
C     8.040807     2.680269     2.680269    -0.016515    -0.185193    -0.167855
C     7.147384     0.000000     3.573692     0.147121     0.077617    -0.039095
C     8.934230     1.786846     3.573692    -0.033750    -0.109503     0.013284
C     7.147384     1.786846     5.360538    -0.138801     0.217574    -0.240872
C     8.934230     0.000000     5.360538     0.009860    -0.001761    -0.052990
C     8.040807     0.893423     4.467115    -0.035207     0.074284    -0.089730
C     9.827653     2.680269     4.467115    -0.263138    -0.171992     0.212861
C     9.827653     0.893423     6.253961    -0.198283    -0.052414     0.075441
C     8.040807     2.680269     6.253961    -0.496215    -0.092054    -0.004299
C     7.147384     0.000000     7.147384     0.382317     0.061476     0.046476
C     8.934230     1.786846     7.147384    -0.374364    -0.135206     0.167426
C     7.147384     1.786846     8.934230     0.034358     0.043845     0.322777
C     8.934230     0.000000     8.934230     0.162444    -0.221460     0.204006
C     8.040807     0.893423     8.040807     0.072314    -0.114317     0.332285
C     9.827653     2.680269     8.040807    -0.443407    -0.253269     0.206160
C     9.827653     0.893423     9.827653    -0.016146    -0.043572     0.223314
C     8.040807     2.680269     9.827653    -0.033794     0.012812     0.435363
C     7.147384     3.573692     0.000000    -0.381115    -0.433175    -0.167976
C     8.934230     5.360538     0.000000    -0.183984    -0.441087    -0.179808
C     7.147384     5.360538     1.786846     0.461470     0.082482    -0.527672
C     8.934230     3.573692     1.786846    -0.123800    -0.560361    -0.299015
C     8.040807     4.467115     0.893423    -0.013971    -0.463875    -0.462517
C     9.827653     6.253961     0.893423    -0.249206    -0.343302     0.072490
C     9.827653     4.467115     2.680269    -0.222737    -0.516066    -0.010911
C     8.040807     6.253961     2.680269     0.502677     0.138910    -0.079848
C     7.147384     3.573692     3.573692     0.188504     0.206107    -0.231883
C     8.934230     5.360538     3.573692     0.086440    -0.286072     0.103460
C     7.147384     5.360538     5.360538     0.271654     0.438342    -0.265496
C     8.934230     3.573692     5.360538    -0.327028    -0.221535     0.239646
C     8.040807     4.467115     4.467115     0.067199    -0.028170     0.039435
C     9.827653     6.253961     4.467115    -0.015007    -0.412229     0.448083
C     9.827653     4.467115     6.253961    -0.379378    -0.458530     0.426048
C     8.040807     6.253961     6.253961     0.040385    -0.053431     0.365196
C     7.147384     3.573692     7.147384    -0.666738     0.063874    -0.459309
C     8.934230     5.360538     7.147384    -0.287119    -0.311293     0.328217
C     7.147384     5.360538     8.934230    -0.333532    -0.236194     0.045328
C     8.934230     3.573692     8.934230    -0.413208    -0.155531     0.121260
C     8.040807     4.467115     8.040807    -0.634926    -0.251625    -0.023967
C     9.827653     6.253961     8.040807    -0.009024    -0.251485     0.051252
C     9.827653     4.467115     9.827653    -0.037257    -0.003166    -0.144487
C     8.040807     6.253961     9.827653    -0.044492    -0.092747    -0.233725
C     7.147384     7.147384     0.000000    -0.411196    -0.397329    -0.115919
C     8.934230     8.934230     0.000000    -0.344627    -0.346344     0.417580
C     7.147384     8.934230     1.786846    -0.187493     0.034244     0.082437
C     8.934230     7.147384     1.786846     0.063029    -0.192988     0.089830
C     8.040807     8.040807     0.893423    -0.376084    -0.386818     0.215554
C     9.827653     9.827653     0.893423    -0.190372    -0.200259     0.082159
C     9.827653     8.040807     2.680269     0.025726    -0.167459     0.232193
C     8.040807     9.827653     2.680269    -0.157551    -0.010558     0.221207
C     7.147384     7.147384     3.573692     1.065908     1.057343    -0.120439
C     8.934230     8.934230     3.573692     0.286279     0.264211     0.293265
C     7.147384     8.934230     5.360538     0.018672     0.221094     0.514615
C     8.934230     7.147384     5.360538     0.234821    -0.008651     0.517716
C     8.040807     8.040807     4.467115     0.633811     0.608585     0.474459
C     9.827653     9.827653     4.467115     0.169132     0.173560     0.005970
C     9.827653     8.040807     6.253961     0.224222    -0.008350     0.327815
C     8.040807     9.827653     6.253961    -0.004397     0.233500     0.321261
C     7.147384     7.147384     7.147384    -0.129480    -0.146210     0.275690
C     8.934230     8.934230     7.147384     0.087855     0.093766     0.238249
C     7.147384     8.934230     8.934230    -0.111896     0.031891    -0.117191
C     8.934230     7.147384     8.934230     0.023425    -0.126353    -0.119746
C     8.040807     8.040807     8.040807    -0.030879    -0.034869     0.065748
C     9.827653     9.827653     8.040807     0.144159     0.157308     0.104797
C     9.827653     8.040807     9.827653     0.079277    -0.055578    -0.239157
C     8.040807     9.827653     9.827653    -0.049219     0.094998    -0.236584
