215

C     0.000000     0.000000     0.000000    -0.025555    -0.010592     0.036147
C     1.786846     1.786846     0.000000    -0.168129    -0.194092     0.430888
C     0.000000     1.786846     1.786846    -0.304626     0.168591     0.087490
C     1.786846     0.000000     1.786846     0.106602    -0.126262    -0.000462
C     0.893423     0.893423     0.893423    -0.170753    -0.070774     0.241526
C     2.680269     2.680269     0.893423    -0.262291    -0.298668     0.383864
C     2.680269     0.893423     2.680269     0.157192    -0.112483     0.007185
C     0.893423     2.680269     2.680269    -0.271382     0.255106     0.141476
C     0.000000     0.000000     3.573692     0.014560     0.119183    -0.282819
C     1.786846     1.786846     3.573692     0.192463     0.282185    -0.108801
C     0.000000     1.786846     5.360538    -0.106031     0.240683    -0.303480
C     1.786846     0.000000     5.360538     0.026719    -0.000102    -0.310127
C     0.893423     0.893423     4.467115     0.065899     0.243867    -0.323325
C     2.680269     2.680269     4.467115     0.387688     0.274995    -0.093073
C     2.680269     0.893423     6.253961    -0.042035    -0.145278    -0.153765
C     0.893423     2.680269     6.253961    -0.116578     0.220603    -0.255332
C     0.000000     0.000000     7.147384     0.220743     0.200251    -0.168742
C     1.786846     1.786846     7.147384    -0.138375     0.037147    -0.144076
C     0.000000     1.786846     8.934230     0.050598     0.371072    -0.375136
C     1.786846     0.000000     8.934230     0.330110     0.044329    -0.395763
C     0.893423     0.893423     8.040807     0.119884     0.175710    -0.286027
C     2.680269     2.680269     8.040807    -0.394773    -0.215124     0.471379
C     2.680269     0.893423     9.827653     0.218476    -0.068889    -0.272727
C     0.893423     2.680269     9.827653    -0.108334     0.301023    -0.292195
C     0.000000     3.573692     0.000000    -0.235311     0.082874     0.196120
C     1.786846     5.360538     0.000000    -0.480336     0.076198     0.233959
C     0.000000     5.360538     1.786846    -0.202859     0.103605     0.401980
C     1.786846     3.573692     1.786846    -0.254534     0.031882     0.115449
C     0.893423     4.467115     0.893423    -0.412325     0.094743     0.321556
C     2.680269     6.253961     0.893423    -0.567677     0.269353    -0.020809
C     2.680269     4.467115     2.680269     0.135262     0.027273    -0.329447
C     0.893423     6.253961     2.680269     0.097540    -0.149477     0.515351
C     0.000000     3.573692     3.573692    -0.331803     0.236251     0.162655
C     1.786846     5.360538     3.573692     0.563524    -0.510363     0.207729
C     0.000000     5.360538     5.360538    -0.231331     0.274424    -0.135208
C     1.786846     3.573692     5.360538     0.227815     0.015385     0.142338
C     0.893423     4.467115     4.467115     0.054150     0.016592     0.172477
C     2.680269     6.253961     4.467115     1.603127    -1.689123     0.236907
C     2.680269     4.467115     6.253961     0.395511    -0.567830     0.632411
C     0.893423     6.253961     6.253961     0.094522    -0.114966    -0.156275
C     0.000000     3.573692     7.147384    -0.369400     0.529036    -0.434872
C     1.786846     5.360538     7.147384    -0.003773     0.081133    -0.132195
C     0.000000     5.360538     8.934230    -0.338772     0.465274    -0.174342
C     1.786846     3.573692     8.934230    -0.474366     0.345294    -0.167767
C     0.893423     4.467115     8.040807    -0.377817     0.450385    -0.333041
C     2.680269     6.253961     8.040807    -0.254307     0.331392    -0.173276
C     2.680269     4.467115     9.827653    -0.308364     0.464629    -0.374599
C     0.893423     6.253961     9.827653    -0.267405     0.489122    -0.111978
C     0.000000     7.147384     0.000000    -0.019431     0.049446    -0.103932
C     1.786846     8.934230     0.000000    -0.187189     0.070417    -0.026833
C     0.000000     8.934230     1.786846    -0.000983     0.155478    -0.018276
C     1.786846     7.147384     1.786846    -0.347067     0.042218     0.376729
C     0.893423     8.040807     0.893423    -0.158413     0.083814     0.071796
C     2.680269     9.827653     0.893423    -0.246313     0.122908     0.107293
C     2.680269     8.040807     2.680269    -0.281047    -0.138127     0.459764
C     0.893423     9.827653     2.680269    -0.055362     0.042629     0.094085
C     0.000000     7.147384     3.573692     0.102365    -0.043097     0.224840
C     1.786846     8.934230     3.573692    -0.177427    -0.149236     0.316163
C     0.000000     8.934230     5.360538     0.200951    -0.250674     0.016746
C     1.786846     7.147384     5.360538     0.896537    -1.069003    -0.075840
C     0.893423     8.040807     4.467115     0.453998    -0.634515     0.238697
C     2.680269     9.827653     4.467115    -0.447129     0.027808     0.281520
C     2.680269     8.040807     6.253961     0.033901    -0.440652    -0.042876
C     0.893423     9.827653     6.253961    -0.137115    -0.083397     0.037318
C     0.000000     7.147384     7.147384    -0.191661     0.230943    -0.177459
C     1.786846     8.934230     7.147384    -0.173610    -0.083742    -0.086466
C     0.000000     8.934230     8.934230    -0.202517     0.177137     0.257051
C     1.786846     7.147384     8.934230    -0.308889     0.489728    -0.130556
C     0.893423     8.040807     8.040807    -0.369268     0.319084    -0.027839
C     2.680269     9.827653     8.040807    -0.164953     0.147996    -0.106998
C     2.680269     8.040807     9.827653    -0.145883     0.374824    -0.073688
C     0.893423     9.827653     9.827653     0.033164     0.114093     0.342833
C     3.573692     0.000000     0.000000     0.199945    -0.210681     0.116128
C     5.360538     1.786846     0.000000     0.206521    -0.428699     0.202961
C     3.573692     1.786846     1.786846     0.076920    -0.307912    -0.027651
C     5.360538     0.000000     1.786846     0.227282    -0.127927     0.239653
C     4.467115     0.893423     0.893423     0.228582    -0.387454     0.168458
C     6.253961     2.680269     0.893423     0.303242    -0.473317     0.047738
C     6.253961     0.893423     2.680269    -0.014021     0.137387     0.347074
C     4.467115     2.680269     2.680269     0.065800    -0.058242    -0.410257
C     3.573692     0.000000     3.573692     0.131248    -0.137526     0.034091
C     5.360538     1.786846     3.573692    -0.507098     0.385588     0.173199
C     3.573692     1.786846     5.360538    -0.080722    -0.057593     0.354558
C     5.360538     0.000000     5.360538     0.299236    -0.095882    -0.241534
C     4.467115     0.893423     4.467115    -0.063712     0.022444     0.142078
C     6.253961     2.680269     4.467115    -1.751365     1.211308     0.462601
C     6.253961     0.893423     6.253961    -0.028945     0.039177    -0.083479
C     4.467115     2.680269     6.253961    -0.599762    -0.382910     1.313378
C     3.573692     0.000000     7.147384     0.357024    -0.366737    -0.357653
C     5.360538     1.786846     7.147384     0.104710    -0.409249     0.369420
C     3.573692     1.786846     8.934230     0.156309    -0.331078    -0.077927
C     5.360538     0.000000     8.934230     0.395953    -0.384816    -0.037696
C     4.467115     0.893423     8.040807     0.282535    -0.533267    -0.001524
C     6.253961     2.680269     8.040807     0.306835    -0.235915     0.049255
C     6.253961     0.893423     9.827653     0.407322    -0.169833    -0.059355
C     4.467115     2.680269     9.827653     0.275497    -0.064975    -0.337485
C     3.573692     3.573692     0.000000    -0.270342    -0.293903     0.469329
C     5.360538     5.360538     0.000000    -0.032890    -0.164029     0.327213
C     3.573692     5.360538     1.786846    -0.188583     0.364759    -0.613403
C     5.360538     3.573692     1.786846     0.155805    -0.127007    -0.505931
C     4.467115     4.467115     0.893423    -0.158670    -0.108765    -0.076594
C     6.253961     6.253961     0.893423     0.198445     0.185220    -0.133699
C     6.253961     4.467115     2.680269     0.375745     0.362855    -1.220217
C     4.467115     6.253961     2.680269     0.105229     1.118954    -1.606819
N     3.573692     3.573692     3.573692     0.439944     0.182348    -0.622292
C     5.360538     5.360538     3.573692     1.207937     1.940644    -2.976932
C     3.573692     5.360538     5.360538     2.104610    -2.257347     0.031386
C     5.360538     3.573692     5.360538    -1.972030     0.872322     1.049411
C     6.253961     6.253961     4.467115    -0.006824     0.333659    -0.628953
C     6.253961     4.467115     6.253961    -0.749905     0.184300     0.654133
C     4.467115     6.253961     6.253961     0.444653    -0.647309     0.416246
C     3.573692     3.573692     7.147384    -0.394295    -0.485715     1.286426
C     5.360538     5.360538     7.147384     0.077472     0.101027     0.999062
C     3.573692     5.360538     8.934230    -0.296310     0.453723    -0.040445
C     5.360538     3.573692     8.934230     0.357911    -0.089477     0.012092
C     4.467115     4.467115     8.040807    -0.114671    -0.005093     0.721437
C     6.253961     6.253961     8.040807     0.191074     0.232686     0.299308
C     6.253961     4.467115     9.827653     0.441387     0.071533    -0.424375
C     4.467115     6.253961     9.827653    -0.113613     0.452676    -0.385279
C     3.573692     7.147384     0.000000    -0.484479     0.275328     0.113343
C     5.360538     8.934230     0.000000    -0.269109     0.312807     0.011080
C     3.573692     8.934230     1.786846    -0.463147     0.221231     0.413444
C     5.360538     7.147384     1.786846     0.021383     0.999489    -0.775510
C     4.467115     8.040807     0.893423    -0.453462     0.732551    -0.187026
C     6.253961     9.827653     0.893423    -0.300001     0.133602     0.265237
C     6.253961     8.040807     2.680269    -0.144142     0.476993     0.109747
C     4.467115     9.827653     2.680269    -0.498397     0.180852     0.556527
C     3.573692     7.147384     3.573692     0.317426    -0.376958    -0.059559
C     5.360538     8.934230     3.573692    -0.316465     0.112477     0.482979
C     3.573692     8.934230     5.360538    -0.369932    -0.104169     0.078634
C     5.360538     7.147384     5.360538    -0.074720    -0.292752     0.022415
C     4.467115     8.040807     4.467115    -0.208384    -0.211401     0.243478
C     6.253961     9.827653     4.467115    -0.154269     0.038016     0.387907
C     6.253961     8.040807     6.253961    -0.147883    -0.087705     0.023710
C     4.467115     9.827653     6.253961    -0.375576     0.199235    -0.107716
C     3.573692     7.147384     7.147384     0.024007    -0.174018    -0.187191
C     5.360538     8.934230     7.147384    -0.327628     0.236253    -0.235494
C     3.573692     8.934230     8.934230    -0.150381     0.274205    -0.191392
C     5.360538     7.147384     8.934230    -0.055837     0.469332    -0.227185
C     4.467115     8.040807     8.040807    -0.184012     0.229433    -0.312048
C     6.253961     9.827653     8.040807    -0.257979     0.272386    -0.193372
C     6.253961     8.040807     9.827653    -0.089045     0.268328    -0.281173
C     4.467115     9.827653     9.827653    -0.017372     0.126381    -0.069042
C     7.147384     0.000000     0.000000     0.119296    -0.116811    -0.180820
C     8.934230     1.786846     0.000000     0.240286    -0.311834    -0.043346
C     7.147384     1.786846     1.786846     0.101858    -0.238354     0.309920
C     8.934230     0.000000     1.786846     0.304719    -0.023765    -0.183882
C     8.040807     0.893423     0.893423     0.202213    -0.191680    -0.017297
C     9.827653     2.680269     0.893423     0.230098    -0.312561     0.124251
C     9.827653     0.893423     2.680269     0.169286     0.001041    -0.054711
C     8.040807     2.680269     2.680269    -0.333252    -0.064991     0.496171
C     7.147384     0.000000     3.573692     0.159544     0.256057    -0.044557
C     8.934230     1.786846     3.573692    -0.053464     0.060922     0.117853
C     7.147384     1.786846     5.360538    -0.867295     0.779283    -0.102516
C     8.934230     0.000000     5.360538    -0.138465     0.327692    -0.196165
C     8.040807     0.893423     4.467115    -0.399510     0.564843     0.003077
C     9.827653     2.680269     4.467115     0.193746    -0.248163     0.033768
C     9.827653     0.893423     6.253961    -0.021624     0.002167    -0.189122
C     8.040807     2.680269     6.253961    -0.303717     0.144560    -0.187250
C     7.147384     0.000000     7.147384     0.280658    -0.079440    -0.258490
C     8.934230     1.786846     7.147384    -0.013511    -0.010700    -0.296756
C     7.147384     1.786846     8.934230     0.463900    -0.189287    -0.075312
C     8.934230     0.000000     8.934230     0.037233    -0.083940     0.142730
C     8.040807     0.893423     8.040807     0.289351    -0.153055    -0.168636
C     9.827653     2.680269     8.040807     0.161726    -0.077005    -0.262531
C     9.827653     0.893423     9.827653    -0.056290     0.013746     0.245678
C     8.040807     2.680269     9.827653     0.373540    -0.051830    -0.130927
C     7.147384     3.573692     0.000000     0.400750    -0.581863     0.264373
C     8.934230     5.360538     0.000000     0.288370    -0.412699     0.183865
C     7.147384     5.360538     1.786846     0.699583    -0.028870    -0.487287
C     8.934230     3.573692     1.786846     0.227163    -0.472473     0.508505
C     8.040807     4.467115     0.893423     0.636039    -0.521232     0.079269
C     9.827653     6.253961     0.893423     0.142752    -0.444640     0.306948
C     9.827653     4.467115     2.680269     0.309677    -0.557017     0.512104
C     8.040807     6.253961     2.680269     0.391397    -0.263959     0.202013
C     7.147384     3.573692     3.573692    -0.909468     0.453854     0.168289
C     8.934230     5.360538     3.573692     0.092077    -0.436545     0.459409
C     7.147384     5.360538     5.360538    -0.706310    -0.099887    -0.026307
C     8.934230     3.573692     5.360538    -0.072032    -0.186668    -0.137258
C     8.040807     4.467115     4.467115    -0.510037    -0.128808     0.213477
C     9.827653     6.253961     4.467115     0.225140    -0.333671     0.304043
C     9.827653     4.467115     6.253961     0.347263    -0.274293    -0.298407
C     8.040807     6.253961     6.253961    -0.211603    -0.214784    -0.084803
C     7.147384     3.573692     7.147384    -0.066162     0.009950    -0.083552
C     8.934230     5.360538     7.147384     0.307780    -0.258870    -0.416773
C     7.147384     5.360538     8.934230     0.513694     0.099931    -0.304021
C     8.934230     3.573692     8.934230     0.324488    -0.062330    -0.290164
C     8.040807     4.467115     8.040807     0.340293    -0.076270    -0.374536
C     9.827653     6.253961     8.040807     0.363565    -0.183426    -0.289219
C     9.827653     4.467115     9.827653     0.140876    -0.007200    -0.117110
C     8.040807     6.253961     9.827653     0.320287     0.039591    -0.367208
C     7.147384     7.147384     0.000000     0.027546    -0.103198     0.271101
C     8.934230     8.934230     0.000000    -0.319867    -0.294284     0.286456
C     7.147384     8.934230     1.786846    -0.192973     0.144067     0.319589
C     8.934230     7.147384     1.786846     0.159054    -0.377434     0.362897
C     8.040807     8.040807     0.893423    -0.150449    -0.261512     0.522323
C     9.827653     9.827653     0.893423    -0.359771    -0.286543    -0.046911
C     9.827653     8.040807     2.680269    -0.017069    -0.266542     0.216783
C     8.040807     9.827653     2.680269    -0.112293    -0.088038     0.222888
C     7.147384     7.147384     3.573692     0.257570     0.253353    -0.033957
C     8.934230     8.934230     3.573692     0.015959    -0.133096     0.212711
C     7.147384     8.934230     5.360538    -0.052559    -0.080595     0.314707
C     8.934230     7.147384     5.360538     0.067768    -0.278200     0.227697
C     8.040807     8.040807     4.467115     0.145103    -0.028246     0.260282
C     9.827653     9.827653     4.467115    -0.009271    -0.071833     0.024573
C     9.827653     8.040807     6.253961     0.094822    -0.126915     0.218388
C     8.040807     9.827653     6.253961     0.020892    -0.082393     0.272470
C     7.147384     7.147384     7.147384    -0.030281    -0.012551     0.042832
C     8.934230     8.934230     7.147384     0.042366    -0.096193     0.260678
C     7.147384     8.934230     8.934230    -0.184292     0.235434    -0.197379
C     8.934230     7.147384     8.934230     0.293572    -0.076386    -0.277799
C     8.040807     8.040807     8.040807     0.018285     0.007579    -0.025864
C     9.827653     9.827653     8.040807    -0.096541    -0.121918     0.393921
C     9.827653     8.040807     9.827653     0.084331    -0.115429    -0.020317
C     8.040807     9.827653     9.827653    -0.278491     0.116858     0.037587
