215

C     0.000000     0.000000     0.000000     0.241373     0.250353    -0.491725
C     1.786846     1.786846     0.000000     0.318569     0.327383    -0.484219
C     0.000000     1.786846     1.786846     0.237688     0.205619    -0.522697
C     1.786846     0.000000     1.786846     0.195314     0.246531    -0.524188
C     0.893423     0.893423     0.893423    -0.261762    -0.271501     0.533263
C     2.680269     2.680269     0.893423    -0.339700    -0.347007     0.586944
C     2.680269     0.893423     2.680269    -0.123442    -0.298832     0.473066
C     0.893423     2.680269     2.680269    -0.288113    -0.133366     0.470449
C     0.000000     0.000000     3.573692     0.240663     0.250916    -0.180919
C     1.786846     1.786846     3.573692     0.211290     0.224330    -0.197127
C     0.000000     1.786846     5.360538     0.285746     0.164342     0.192165
C     1.786846     0.000000     5.360538     0.151019     0.295601     0.193212
C     0.893423     0.893423     4.467115    -0.246989    -0.259534    -0.042323
C     2.680269     2.680269     4.467115    -0.195348    -0.208991    -0.109652
C     2.680269     0.893423     6.253961    -0.071730    -0.368768    -0.427584
C     0.893423     2.680269     6.253961    -0.357717    -0.084546    -0.424535
C     0.000000     0.000000     7.147384     0.340084     0.350621     0.336670
C     1.786846     1.786846     7.147384     0.302872     0.316334     0.536886
C     0.000000     1.786846     8.934230     0.487745     0.308929     0.558809
C     1.786846     0.000000     8.934230     0.298808     0.496967     0.559990
C     0.893423     0.893423     8.040807    -0.368978    -0.379816    -0.489767
C     2.680269     2.680269     8.040807    -0.320498    -0.332125    -0.631214
C     2.680269     0.893423     9.827653    -0.273302    -0.512888    -0.640786
C     0.893423     2.680269     9.827653    -0.503809    -0.281580    -0.639402
C     0.000000     3.573692     0.000000     0.293325     0.092111    -0.543603
C     1.786846     5.360538     0.000000     0.463524    -0.140800    -0.550240
C     0.000000     5.360538     1.786846     0.254258    -0.055408    -0.624084
C     1.786846     3.573692     1.786846     0.421385     0.100364    -0.643173
C     0.893423     4.467115     0.893423    -0.383101     0.021548     0.640988
C     2.680269     6.253961     0.893423    -0.483335     0.341401     0.636014
C     2.680269     4.467115     2.680269    -0.453968     0.055827     0.659829
C     0.893423     6.253961     2.680269    -0.266137     0.092440     0.562900
C     0.000000     3.573692     3.573692     0.229037     0.008340    -0.260290
C     1.786846     5.360538     3.573692     0.364092    -0.069963    -0.363892
C     0.000000     5.360538     5.360538     0.234598    -0.054334     0.244112
C     1.786846     3.573692     5.360538     0.346503     0.020263     0.380607
C     0.893423     4.467115     4.467115    -0.314208     0.060230    -0.020484
C     2.680269     6.253961     4.467115    -0.392696     0.179509    -0.123241
C     2.680269     4.467115     6.253961    -0.467375     0.000882    -0.594392
C     0.893423     6.253961     6.253961    -0.291463     0.119346    -0.477911
C     0.000000     3.573692     7.147384     0.433020     0.037999     0.476416
C     1.786846     5.360538     7.147384     0.449769    -0.111202     0.584103
C     0.000000     5.360538     8.934230     0.488008    -0.035797     0.652821
C     1.786846     3.573692     8.934230     0.458088     0.177960     0.652727
C     0.893423     4.467115     8.040807    -0.475702    -0.006746    -0.609898
C     2.680269     6.253961     8.040807    -0.404057     0.260553    -0.627890
C     2.680269     4.467115     9.827653    -0.394248    -0.063862    -0.668157
C     0.893423     6.253961     9.827653    -0.468884     0.180519    -0.701177
C     0.000000     7.147384     0.000000     0.254270    -0.171409    -0.605930
C     1.786846     8.934230     0.000000     0.258427    -0.333003    -0.627086
C     0.000000     8.934230     1.786846     0.125738    -0.236613    -0.567845
C     1.786846     7.147384     1.786846     0.391863    -0.273346    -0.707121
C     0.893423     8.040807     0.893423    -0.251758     0.249356     0.632993
C     2.680269     9.827653     0.893423    -0.196636     0.382361     0.629411
C     2.680269     8.040807     2.680269    -0.308475     0.321371     0.640745
C     0.893423     9.827653     2.680269    -0.111779     0.269423     0.479144
C     0.000000     7.147384     3.573692     0.102636    -0.086267    -0.275114
C     1.786846     8.934230     3.573692     0.182886    -0.265862    -0.357800
C     0.000000     8.934230     5.360538     0.082593    -0.251728     0.169797
C     1.786846     7.147384     5.360538     0.195929    -0.134920     0.341329
C     0.893423     8.040807     4.467115    -0.119882     0.165636     0.011016
C     2.680269     9.827653     4.467115    -0.151562     0.319417     0.098985
C     2.680269     8.040807     6.253961    -0.231140     0.331178    -0.487770
C     0.893423     9.827653     6.253961    -0.109537     0.343126    -0.320757
C     0.000000     7.147384     7.147384     0.276681    -0.138031     0.473083
C     1.786846     8.934230     7.147384     0.192737    -0.397648     0.500264
C     0.000000     8.934230     8.934230     0.267056    -0.360327     0.581450
C     1.786846     7.147384     8.934230     0.391001    -0.329980     0.657298
C     0.893423     8.040807     8.040807    -0.293415     0.328489    -0.580635
C     2.680269     9.827653     8.040807    -0.184751     0.497624    -0.576711
C     2.680269     8.040807     9.827653    -0.307238     0.485409    -0.675422
C     0.893423     9.827653     9.827653    -0.236482     0.454232    -0.631123
C     3.573692     0.000000     0.000000     0.088807     0.302940    -0.544240
C     5.360538     1.786846     0.000000    -0.137804     0.473066    -0.549859
C     3.573692     1.786846     1.786846     0.096763     0.431883    -0.645715
C     5.360538     0.000000     1.786846    -0.051366     0.264494    -0.627866
C     4.467115     0.893423     0.893423     0.020775    -0.393999     0.642635
C     6.253961     2.680269     0.893423     0.335144    -0.491170     0.634905
C     6.253961     0.893423     2.680269     0.083134    -0.278296     0.567881
C     4.467115     2.680269     2.680269     0.053825    -0.464482     0.662959
C     3.573692     0.000000     3.573692     0.002027     0.237558    -0.263351
C     5.360538     1.786846     3.573692    -0.061458     0.377205    -0.367960
C     3.573692     1.786846     5.360538     0.011546     0.359828     0.383659
C     5.360538     0.000000     5.360538    -0.048998     0.243326     0.245836
C     4.467115     0.893423     4.467115     0.060481    -0.325898    -0.019256
C     6.253961     2.680269     4.467115     0.167108    -0.409147    -0.124767
C     6.253961     0.893423     6.253961     0.109062    -0.302307    -0.480967
C     4.467115     2.680269     6.253961    -0.002145    -0.482922    -0.597427
C     3.573692     0.000000     7.147384     0.031693     0.440986     0.480269
C     5.360538     1.786846     7.147384    -0.104183     0.460245     0.588109
C     3.573692     1.786846     8.934230     0.171373     0.468346     0.654366
C     5.360538     0.000000     8.934230    -0.032060     0.496170     0.654809
C     4.467115     0.893423     8.040807    -0.006559    -0.484629    -0.613470
C     6.253961     2.680269     8.040807     0.251798    -0.414827    -0.627607
C     6.253961     0.893423     9.827653     0.174877    -0.477470    -0.701519
C     4.467115     2.680269     9.827653    -0.062224    -0.402933    -0.668669
C     3.573692     3.573692     0.000000     0.255011     0.258262    -0.466595
C     5.360538     5.360538     0.000000    -0.191502    -0.195114    -0.477924
C     3.573692     5.360538     1.786846     0.347697    -0.319149    -0.723708
C     5.360538     3.573692     1.786846    -0.313696     0.352346    -0.723921
C     4.467115     4.467115     0.893423    -0.040974    -0.039997     0.640106
C     6.253961     6.253961     0.893423     0.361621     0.368849     0.593771
C     6.253961     4.467115     2.680269     0.417918     0.125386     0.875618
C     4.467115     6.253961     2.680269     0.123884     0.427284     0.876522
N     3.573692     3.573692     3.573692     0.151086     0.156707    -0.307793
C     5.360538     5.360538     3.573692    -0.525939    -0.532951    -0.935884
C     3.573692     5.360538     5.360538     0.459396    -0.029851     0.549627
C     5.360538     3.573692     5.360538    -0.016676     0.476488     0.555790
C     6.253961     6.253961     4.467115     0.551986     0.563411     0.491353
C     6.253961     4.467115     6.253961     0.182383    -0.250163    -0.750266
C     4.467115     6.253961     6.253961    -0.241190     0.198280    -0.745793
C     3.573692     3.573692     7.147384     0.268991     0.277495     0.678136
C     5.360538     5.360538     7.147384    -0.083361    -0.088825     0.748978
C     3.573692     5.360538     8.934230     0.295382    -0.109259     0.644327
C     5.360538     3.573692     8.934230    -0.105386     0.301936     0.643835
C     4.467115     4.467115     8.040807    -0.114268    -0.115598    -0.670615
C     6.253961     6.253961     8.040807     0.278754     0.290005    -0.691782
C     6.253961     4.467115     9.827653     0.290143    -0.112231    -0.639797
C     4.467115     6.253961     9.827653    -0.110266     0.296736    -0.641734
C     3.573692     7.147384     0.000000     0.239632    -0.400812    -0.547621
C     5.360538     8.934230     0.000000    -0.135248    -0.414027    -0.583669
C     3.573692     8.934230     1.786846     0.179943    -0.399620    -0.654562
C     5.360538     7.147384     1.786846    -0.231670    -0.461890    -0.659246
C     4.467115     8.040807     0.893423    -0.004242     0.457219     0.608817
C     6.253961     9.827653     0.893423     0.139813     0.371031     0.591355
C     6.253961     8.040807     2.680269     0.226916     0.308035     0.648060
C     4.467115     9.827653     2.680269    -0.034790     0.361203     0.557431
C     3.573692     7.147384     3.573692     0.208010    -0.345260    -0.486243
C     5.360538     8.934230     3.573692    -0.103411    -0.307821    -0.419578
C     3.573692     8.934230     5.360538     0.115466    -0.348023     0.212694
C     5.360538     7.147384     5.360538    -0.179205    -0.381328     0.266870
C     4.467115     8.040807     4.467115     0.004247     0.341431     0.112786
C     6.253961     9.827653     4.467115     0.119719     0.247205     0.136856
C     6.253961     8.040807     6.253961     0.314477     0.352208    -0.604050
C     4.467115     9.827653     6.253961    -0.023576     0.405263    -0.418517
C     3.573692     7.147384     7.147384     0.262659    -0.391587     0.603413
C     5.360538     8.934230     7.147384    -0.129955    -0.443250     0.637163
C     3.573692     8.934230     8.934230     0.202760    -0.548847     0.633209
C     5.360538     7.147384     8.934230    -0.078914    -0.446639     0.658526
C     4.467115     8.040807     8.040807    -0.093986     0.507912    -0.638759
C     6.253961     9.827653     8.040807     0.146234     0.458697    -0.631696
C     6.253961     8.040807     9.827653     0.217094     0.521558    -0.646375
C     4.467115     9.827653     9.827653    -0.080515     0.596124    -0.638714
C     7.147384     0.000000     0.000000    -0.165261     0.265846    -0.604891
C     8.934230     1.786846     0.000000    -0.323377     0.269038    -0.622705
C     7.147384     1.786846     1.786846    -0.263541     0.404249    -0.708197
C     8.934230     0.000000     1.786846    -0.225806     0.139341    -0.567357
C     8.040807     0.893423     0.893423     0.240411    -0.264014     0.631574
C     9.827653     2.680269     0.893423     0.371363    -0.205842     0.624667
C     9.827653     0.893423     2.680269     0.257041    -0.125602     0.478216
C     8.040807     2.680269     2.680269     0.309843    -0.320248     0.640600
C     7.147384     0.000000     3.573692    -0.075604     0.114600    -0.277631
C     8.934230     1.786846     3.573692    -0.253107     0.196475    -0.357903
C     7.147384     1.786846     5.360538    -0.122213     0.209477     0.342872
C     8.934230     0.000000     5.360538    -0.238794     0.095661     0.171045
C     8.040807     0.893423     4.467115     0.152679    -0.133115     0.010988
C     9.827653     2.680269     4.467115     0.306954    -0.163183     0.098653
C     9.827653     0.893423     6.253961     0.330146    -0.122471    -0.320332
C     8.040807     2.680269     6.253961     0.319855    -0.244003    -0.487469
C     7.147384     0.000000     7.147384    -0.128101     0.286975     0.475618
C     8.934230     1.786846     7.147384    -0.386435     0.204795     0.498409
C     7.147384     1.786846     8.934230    -0.321789     0.400660     0.655744
C     8.934230     0.000000     8.934230    -0.350515     0.276992     0.579865
C     8.040807     0.893423     8.040807     0.318298    -0.304331    -0.579825
C     9.827653     2.680269     8.040807     0.487219    -0.194644    -0.571983
C     9.827653     0.893423     9.827653     0.444374    -0.245280    -0.627846
C     8.040807     2.680269     9.827653     0.477284    -0.315649    -0.671631
C     7.147384     3.573692     0.000000    -0.394002     0.243421    -0.543622
C     8.934230     5.360538     0.000000    -0.403081    -0.137736    -0.578763
C     7.147384     5.360538     1.786846    -0.453189    -0.237147    -0.656174
C     8.934230     3.573692     1.786846    -0.388503     0.186426    -0.651232
C     8.040807     4.467115     0.893423     0.447834    -0.004457     0.604511
C     9.827653     6.253961     0.893423     0.358393     0.145879     0.587007
C     9.827653     4.467115     2.680269     0.349252    -0.036761     0.554494
C     8.040807     6.253961     2.680269     0.296429     0.235972     0.645967
C     7.147384     3.573692     3.573692    -0.332876     0.217252    -0.485505
C     8.934230     5.360538     3.573692    -0.295812    -0.107308    -0.417401
C     7.147384     5.360538     5.360538    -0.367650    -0.183509     0.268030
C     8.934230     3.573692     5.360538    -0.336507     0.124197     0.212670
C     8.040807     4.467115     4.467115     0.329184     0.001483     0.111351
C     9.827653     6.253961     4.467115     0.234535     0.128374     0.135807
C     9.827653     4.467115     6.253961     0.394528    -0.026590    -0.416455
C     8.040807     6.253961     6.253961     0.339574     0.325297    -0.604482
C     7.147384     3.573692     7.147384    -0.381626     0.272432     0.601333
C     8.934230     5.360538     7.147384    -0.432579    -0.133532     0.634149
C     7.147384     5.360538     8.934230    -0.436537    -0.083108     0.655864
C     8.934230     3.573692     8.934230    -0.540126     0.210304     0.627626
C     8.040807     4.467115     8.040807     0.498539    -0.097482    -0.634255
C     9.827653     6.253961     8.040807     0.448520     0.153421    -0.626766
C     9.827653     4.467115     9.827653     0.587860    -0.083510    -0.632035
C     8.040807     6.253961     9.827653     0.512531     0.223424    -0.643180
C     7.147384     7.147384     0.000000    -0.337587    -0.344982    -0.563656
C     8.934230     8.934230     0.000000    -0.219538    -0.230935    -0.544048
C     7.147384     8.934230     1.786846    -0.168428    -0.270862    -0.595796
C     8.934230     7.147384     1.786846    -0.258096    -0.178475    -0.593397
C     8.040807     8.040807     0.893423     0.251336     0.262338     0.597746
C     9.827653     9.827653     0.893423     0.173614     0.186749     0.481762
C     9.827653     8.040807     2.680269     0.174007     0.099427     0.500400
C     8.040807     9.827653     2.680269     0.086573     0.188203     0.501882
C     7.147384     7.147384     3.573692    -0.209745    -0.221786    -0.535091
C     8.934230     8.934230     3.573692    -0.078778    -0.093083    -0.413064
C     7.147384     8.934230     5.360538    -0.187510    -0.225947     0.212446
C     8.934230     7.147384     5.360538    -0.212614    -0.200626     0.213063
C     8.040807     8.040807     4.467115     0.126343     0.140220     0.191468
C     9.827653     9.827653     4.467115     0.035911     0.050854     0.164025
C     9.827653     8.040807     6.253961     0.184483     0.119165    -0.369658
C     8.040807     9.827653     6.253961     0.105209     0.197856    -0.370515
C     7.147384     7.147384     7.147384    -0.358511    -0.371850     0.730361
C     8.934230     8.934230     7.147384    -0.202782    -0.216701     0.555435
C     7.147384     8.934230     8.934230    -0.272646    -0.472171     0.678082
C     8.934230     7.147384     8.934230    -0.461381    -0.282790     0.674953
C     8.040807     8.040807     8.040807     0.340549     0.353219    -0.693768
C     9.827653     9.827653     8.040807     0.146287     0.158346    -0.515090
C     9.827653     8.040807     9.827653     0.414644     0.262248    -0.569743
C     8.040807     9.827653     9.827653     0.252841     0.423455    -0.572990
