 running on   32 total cores
 distrk:  each k-point on   32 cores,    1 groups
 distr:  one band on    1 cores,   32 groups
 using from now: INCAR     
 vasp.5.4.4.18Apr17-6-g9f103f2a35 (build Apr 28 2017 11:27:08) gamma-only       
  
 POSCAR found type information on POSCAR  C  N 
 POSCAR found :  2 types and     511 ions
 scaLAPACK will be used

 ----------------------------------------------------------------------------- 
|                                                                             |
|           W    W    AA    RRRRR   N    N  II  N    N   GGGG   !!!           |
|           W    W   A  A   R    R  NN   N  II  NN   N  G    G  !!!           |
|           W    W  A    A  R    R  N N  N  II  N N  N  G       !!!           |
|           W WW W  AAAAAA  RRRRR   N  N N  II  N  N N  G  GGG   !            |
|           WW  WW  A    A  R   R   N   NN  II  N   NN  G    G                |
|           W    W  A    A  R    R  N    N  II  N    N   GGGG   !!!           |
|                                                                             |
|      For optimal performance we recommend to set                            |
|        NCORE= 4 - approx SQRT( number of cores)                             |
|      NCORE specifies how many cores store one orbital (NPAR=cpu/NCORE).     |
|      This setting can  greatly improve the performance of VASP for DFT.     |
|      The default,   NCORE=1            might be grossly inefficient         |
|      on modern multi-core architectures or massively parallel machines.     |
|      Do your own testing !!!!                                               |
|      Unfortunately you need to use the default for GW and RPA calculations. |
|      (for HF NCORE is supported but not extensively tested yet)             |
|                                                                             |
 ----------------------------------------------------------------------------- 


 ----------------------------------------------------------------------------- 
|                                                                             |
|  ADVICE TO THIS USER RUNNING 'VASP/VAMP'   (HEAR YOUR MASTER'S VOICE ...):  |
|                                                                             |
|      You have a (more or less) 'large supercell' and for larger cells       |
|      it might be more efficient to use real space projection opertators     |
|      So try LREAL= Auto  in the INCAR   file.                               |
|      Mind:          For very  accurate calculation you might also keep the  |
|      reciprocal projection scheme          (i.e. LREAL=.FALSE.)             |
|                                                                             |
 ----------------------------------------------------------------------------- 

 LDA part: xc-table for Pade appr. of Perdew
 found WAVECAR, reading the header
 POSCAR, INCAR and KPOINTS ok, starting setup
 FFT: planning ...
 reading WAVECAR
 the WAVECAR file was read successfully
 initial charge from wavefunction
 entering main loop
       N       E                     dE             d eps       ncg     rms          rms(c)
DAV:   1    -0.537464998699E+04   -0.53746E+04   -0.72684E+00  5920   0.464E+00    0.233E+00
DAV:   2    -0.537435767829E+04    0.29231E+00   -0.11551E+00  4672   0.172E+00    0.163E+00
DAV:   3    -0.537420211844E+04    0.15556E+00   -0.95772E-01  5184   0.129E+00    0.554E-01
DAV:   4    -0.537423343682E+04   -0.31318E-01   -0.38082E-01  4512   0.737E-01    0.556E-01
DAV:   5    -0.537423603701E+04   -0.26002E-02   -0.86326E-02  4512   0.383E-01    0.441E-01
DAV:   6    -0.537423434344E+04    0.16936E-02   -0.30655E-02  4480   0.232E-01    0.265E-01
DAV:   7    -0.537423419101E+04    0.15244E-03   -0.75201E-03  4512   0.118E-01    0.159E-01
DAV:   8    -0.537423387888E+04    0.31213E-03   -0.10197E-03  4512   0.567E-02    0.974E-02
DAV:   9    -0.537423370089E+04    0.17799E-03   -0.25399E-04  3008   0.364E-02    0.588E-02
DAV:  10    -0.537423361636E+04    0.84525E-04   -0.13183E-04  2560   0.273E-02
   1 F= -.53742336E+04 E0= -.53742336E+04  d E =0.000000E+00  mag=    -2.0000
 writing wavefunctions
