	1728
"Unknown, cubic"
C13    0.000000000     0.000000000     0.000000000
C    1.786846088     1.786846088     0.000000000
C13    0.000000000     1.786846088     1.786846088
C    1.786846088     0.000000000     1.786846088
C13    0.893423044     0.893423044     0.893423044
C    2.680269132     2.680269132     0.893423044
C    2.680269132     0.893423044     2.680269132
C13    0.893423044     2.680269132     2.680269132
C13    0.000000000     0.000000000     3.573692175
C    1.786846088     1.786846088     3.573692175
C13    0.000000000     1.786846088     5.360538263
C    1.786846088     0.000000000     5.360538263
C13    0.893423044     0.893423044     4.467115219
C    2.680269132     2.680269132     4.467115219
C    2.680269132     0.893423044     6.253961307
C13    0.893423044     2.680269132     6.253961307
C13    0.000000000     0.000000000     7.147384351
C    1.786846088     1.786846088     7.147384351
C13    0.000000000     1.786846088     8.934230438
C    1.786846088     0.000000000     8.934230438
C13    0.893423044     0.893423044     8.040807395
C    2.680269132     2.680269132     8.040807395
C    2.680269132     0.893423044     9.827653482
C13    0.893423044     2.680269132     9.827653482
C13    0.000000000     0.000000000    10.721076526
C    1.786846088     1.786846088    10.721076526
C13    0.000000000     1.786846088    12.507922614
C    1.786846088     0.000000000    12.507922614
C13    0.893423044     0.893423044    11.614499570
C    2.680269132     2.680269132    11.614499570
C    2.680269132     0.893423044    13.401345658
C13    0.893423044     2.680269132    13.401345658
C13    0.000000000     0.000000000    14.294768701
C    1.786846088     1.786846088    14.294768701
C13    0.000000000     1.786846088    16.081614789
C    1.786846088     0.000000000    16.081614789
C13    0.893423044     0.893423044    15.188191745
C    2.680269132     2.680269132    15.188191745
C    2.680269132     0.893423044    16.975037833
C13    0.893423044     2.680269132    16.975037833
C13    0.000000000     0.000000000    17.868460877
C    1.786846088     1.786846088    17.868460877
C13    0.000000000     1.786846088    19.655306964
C    1.786846088     0.000000000    19.655306964
C13    0.893423044     0.893423044    18.761883921
C    2.680269132     2.680269132    18.761883921
C    2.680269132     0.893423044    20.548730008
C13    0.893423044     2.680269132    20.548730008
C13    0.000000000     3.573692175     0.000000000
C    1.786846088     5.360538263     0.000000000
C13    0.000000000     5.360538263     1.786846088
C    1.786846088     3.573692175     1.786846088
C13    0.893423044     4.467115219     0.893423044
C    2.680269132     6.253961307     0.893423044
C    2.680269132     4.467115219     2.680269132
C13    0.893423044     6.253961307     2.680269132
C13    0.000000000     3.573692175     3.573692175
C    1.786846088     5.360538263     3.573692175
C13    0.000000000     5.360538263     5.360538263
C    1.786846088     3.573692175     5.360538263
C13    0.893423044     4.467115219     4.467115219
C    2.680269132     6.253961307     4.467115219
C    2.680269132     4.467115219     6.253961307
C13    0.893423044     6.253961307     6.253961307
C13    0.000000000     3.573692175     7.147384351
C    1.786846088     5.360538263     7.147384351
C13    0.000000000     5.360538263     8.934230438
C    1.786846088     3.573692175     8.934230438
C13    0.893423044     4.467115219     8.040807395
C    2.680269132     6.253961307     8.040807395
C    2.680269132     4.467115219     9.827653482
C13    0.893423044     6.253961307     9.827653482
C13    0.000000000     3.573692175    10.721076526
C    1.786846088     5.360538263    10.721076526
C13    0.000000000     5.360538263    12.507922614
C    1.786846088     3.573692175    12.507922614
C13    0.893423044     4.467115219    11.614499570
C    2.680269132     6.253961307    11.614499570
C    2.680269132     4.467115219    13.401345658
C13    0.893423044     6.253961307    13.401345658
C13    0.000000000     3.573692175    14.294768701
C    1.786846088     5.360538263    14.294768701
C13    0.000000000     5.360538263    16.081614789
C    1.786846088     3.573692175    16.081614789
C13    0.893423044     4.467115219    15.188191745
C    2.680269132     6.253961307    15.188191745
C    2.680269132     4.467115219    16.975037833
C13    0.893423044     6.253961307    16.975037833
C13    0.000000000     3.573692175    17.868460877
C    1.786846088     5.360538263    17.868460877
C13    0.000000000     5.360538263    19.655306964
C    1.786846088     3.573692175    19.655306964
C13    0.893423044     4.467115219    18.761883921
C    2.680269132     6.253961307    18.761883921
C    2.680269132     4.467115219    20.548730008
C13    0.893423044     6.253961307    20.548730008
C13    0.000000000     7.147384351     0.000000000
C    1.786846088     8.934230438     0.000000000
C13    0.000000000     8.934230438     1.786846088
C    1.786846088     7.147384351     1.786846088
C13    0.893423044     8.040807395     0.893423044
C    2.680269132     9.827653482     0.893423044
C    2.680269132     8.040807395     2.680269132
C13    0.893423044     9.827653482     2.680269132
C13    0.000000000     7.147384351     3.573692175
C    1.786846088     8.934230438     3.573692175
C13    0.000000000     8.934230438     5.360538263
C    1.786846088     7.147384351     5.360538263
C13    0.893423044     8.040807395     4.467115219
C    2.680269132     9.827653482     4.467115219
C    2.680269132     8.040807395     6.253961307
C13    0.893423044     9.827653482     6.253961307
C13    0.000000000     7.147384351     7.147384351
C    1.786846088     8.934230438     7.147384351
C13    0.000000000     8.934230438     8.934230438
C    1.786846088     7.147384351     8.934230438
C13    0.893423044     8.040807395     8.040807395
C    2.680269132     9.827653482     8.040807395
C    2.680269132     8.040807395     9.827653482
C13    0.893423044     9.827653482     9.827653482
C13    0.000000000     7.147384351    10.721076526
C    1.786846088     8.934230438    10.721076526
C13    0.000000000     8.934230438    12.507922614
C    1.786846088     7.147384351    12.507922614
C13    0.893423044     8.040807395    11.614499570
C    2.680269132     9.827653482    11.614499570
C    2.680269132     8.040807395    13.401345658
C13    0.893423044     9.827653482    13.401345658
C13    0.000000000     7.147384351    14.294768701
C    1.786846088     8.934230438    14.294768701
C13    0.000000000     8.934230438    16.081614789
C    1.786846088     7.147384351    16.081614789
C13    0.893423044     8.040807395    15.188191745
C    2.680269132     9.827653482    15.188191745
C    2.680269132     8.040807395    16.975037833
C13    0.893423044     9.827653482    16.975037833
C13    0.000000000     7.147384351    17.868460877
C    1.786846088     8.934230438    17.868460877
C13    0.000000000     8.934230438    19.655306964
C    1.786846088     7.147384351    19.655306964
C13    0.893423044     8.040807395    18.761883921
C    2.680269132     9.827653482    18.761883921
C    2.680269132     8.040807395    20.548730008
C13    0.893423044     9.827653482    20.548730008
C13    0.000000000    10.721076526     0.000000000
C    1.786846088    12.507922614     0.000000000
C13    0.000000000    12.507922614     1.786846088
C    1.786846088    10.721076526     1.786846088
C13    0.893423044    11.614499570     0.893423044
C    2.680269132    13.401345658     0.893423044
C    2.680269132    11.614499570     2.680269132
C13    0.893423044    13.401345658     2.680269132
C13    0.000000000    10.721076526     3.573692175
C    1.786846088    12.507922614     3.573692175
C13    0.000000000    12.507922614     5.360538263
C    1.786846088    10.721076526     5.360538263
C13    0.893423044    11.614499570     4.467115219
C    2.680269132    13.401345658     4.467115219
C    2.680269132    11.614499570     6.253961307
C13    0.893423044    13.401345658     6.253961307
C13    0.000000000    10.721076526     7.147384351
C    1.786846088    12.507922614     7.147384351
C13    0.000000000    12.507922614     8.934230438
C    1.786846088    10.721076526     8.934230438
C13    0.893423044    11.614499570     8.040807395
C    2.680269132    13.401345658     8.040807395
C    2.680269132    11.614499570     9.827653482
C13    0.893423044    13.401345658     9.827653482
C13    0.000000000    10.721076526    10.721076526
C    1.786846088    12.507922614    10.721076526
C13    0.000000000    12.507922614    12.507922614
C    1.786846088    10.721076526    12.507922614
C13    0.893423044    11.614499570    11.614499570
C    2.680269132    13.401345658    11.614499570
C    2.680269132    11.614499570    13.401345658
C13    0.893423044    13.401345658    13.401345658
C13    0.000000000    10.721076526    14.294768701
C    1.786846088    12.507922614    14.294768701
C13    0.000000000    12.507922614    16.081614789
C    1.786846088    10.721076526    16.081614789
C13    0.893423044    11.614499570    15.188191745
C    2.680269132    13.401345658    15.188191745
C    2.680269132    11.614499570    16.975037833
C13    0.893423044    13.401345658    16.975037833
C13    0.000000000    10.721076526    17.868460877
C    1.786846088    12.507922614    17.868460877
C13    0.000000000    12.507922614    19.655306964
C    1.786846088    10.721076526    19.655306964
C13    0.893423044    11.614499570    18.761883921
C    2.680269132    13.401345658    18.761883921
C    2.680269132    11.614499570    20.548730008
C13    0.893423044    13.401345658    20.548730008
C13    0.000000000    14.294768701     0.000000000
C    1.786846088    16.081614789     0.000000000
C13    0.000000000    16.081614789     1.786846088
C    1.786846088    14.294768701     1.786846088
C13    0.893423044    15.188191745     0.893423044
C    2.680269132    16.975037833     0.893423044
C    2.680269132    15.188191745     2.680269132
C13    0.893423044    16.975037833     2.680269132
C13    0.000000000    14.294768701     3.573692175
C    1.786846088    16.081614789     3.573692175
C13    0.000000000    16.081614789     5.360538263
C    1.786846088    14.294768701     5.360538263
C13    0.893423044    15.188191745     4.467115219
C    2.680269132    16.975037833     4.467115219
C    2.680269132    15.188191745     6.253961307
C13    0.893423044    16.975037833     6.253961307
C13    0.000000000    14.294768701     7.147384351
C    1.786846088    16.081614789     7.147384351
C13    0.000000000    16.081614789     8.934230438
C    1.786846088    14.294768701     8.934230438
C13    0.893423044    15.188191745     8.040807395
C    2.680269132    16.975037833     8.040807395
C    2.680269132    15.188191745     9.827653482
C13    0.893423044    16.975037833     9.827653482
C13    0.000000000    14.294768701    10.721076526
C    1.786846088    16.081614789    10.721076526
C13    0.000000000    16.081614789    12.507922614
C    1.786846088    14.294768701    12.507922614
C13    0.893423044    15.188191745    11.614499570
C    2.680269132    16.975037833    11.614499570
C    2.680269132    15.188191745    13.401345658
C13    0.893423044    16.975037833    13.401345658
C13    0.000000000    14.294768701    14.294768701
C    1.786846088    16.081614789    14.294768701
C13    0.000000000    16.081614789    16.081614789
C    1.786846088    14.294768701    16.081614789
C13    0.893423044    15.188191745    15.188191745
C    2.680269132    16.975037833    15.188191745
C    2.680269132    15.188191745    16.975037833
C13    0.893423044    16.975037833    16.975037833
C13    0.000000000    14.294768701    17.868460877
C    1.786846088    16.081614789    17.868460877
C13    0.000000000    16.081614789    19.655306964
C    1.786846088    14.294768701    19.655306964
C13    0.893423044    15.188191745    18.761883921
C    2.680269132    16.975037833    18.761883921
C    2.680269132    15.188191745    20.548730008
C13    0.893423044    16.975037833    20.548730008
C13    0.000000000    17.868460877     0.000000000
C    1.786846088    19.655306964     0.000000000
C13    0.000000000    19.655306964     1.786846088
C    1.786846088    17.868460877     1.786846088
C13    0.893423044    18.761883921     0.893423044
C    2.680269132    20.548730008     0.893423044
C    2.680269132    18.761883921     2.680269132
C13    0.893423044    20.548730008     2.680269132
C13    0.000000000    17.868460877     3.573692175
C    1.786846088    19.655306964     3.573692175
C13    0.000000000    19.655306964     5.360538263
C    1.786846088    17.868460877     5.360538263
C13    0.893423044    18.761883921     4.467115219
C    2.680269132    20.548730008     4.467115219
C    2.680269132    18.761883921     6.253961307
C13    0.893423044    20.548730008     6.253961307
C13    0.000000000    17.868460877     7.147384351
C    1.786846088    19.655306964     7.147384351
C13    0.000000000    19.655306964     8.934230438
C    1.786846088    17.868460877     8.934230438
C13    0.893423044    18.761883921     8.040807395
C    2.680269132    20.548730008     8.040807395
C    2.680269132    18.761883921     9.827653482
C13    0.893423044    20.548730008     9.827653482
C13    0.000000000    17.868460877    10.721076526
C    1.786846088    19.655306964    10.721076526
C13    0.000000000    19.655306964    12.507922614
C    1.786846088    17.868460877    12.507922614
C13    0.893423044    18.761883921    11.614499570
C    2.680269132    20.548730008    11.614499570
C    2.680269132    18.761883921    13.401345658
C13    0.893423044    20.548730008    13.401345658
C13    0.000000000    17.868460877    14.294768701
C    1.786846088    19.655306964    14.294768701
C13    0.000000000    19.655306964    16.081614789
C    1.786846088    17.868460877    16.081614789
C13    0.893423044    18.761883921    15.188191745
C    2.680269132    20.548730008    15.188191745
C    2.680269132    18.761883921    16.975037833
C13    0.893423044    20.548730008    16.975037833
C13    0.000000000    17.868460877    17.868460877
C    1.786846088    19.655306964    17.868460877
C13    0.000000000    19.655306964    19.655306964
C    1.786846088    17.868460877    19.655306964
C13    0.893423044    18.761883921    18.761883921
C    2.680269132    20.548730008    18.761883921
C    2.680269132    18.761883921    20.548730008
C13    0.893423044    20.548730008    20.548730008
C13    3.573692175     0.000000000     0.000000000
C    5.360538263     1.786846088     0.000000000
C13    3.573692175     1.786846088     1.786846088
C    5.360538263     0.000000000     1.786846088
C13    4.467115219     0.893423044     0.893423044
C    6.253961307     2.680269132     0.893423044
C    6.253961307     0.893423044     2.680269132
C13    4.467115219     2.680269132     2.680269132
C13    3.573692175     0.000000000     3.573692175
C    5.360538263     1.786846088     3.573692175
C13    3.573692175     1.786846088     5.360538263
C    5.360538263     0.000000000     5.360538263
C13    4.467115219     0.893423044     4.467115219
C    6.253961307     2.680269132     4.467115219
C    6.253961307     0.893423044     6.253961307
C13    4.467115219     2.680269132     6.253961307
C13    3.573692175     0.000000000     7.147384351
C    5.360538263     1.786846088     7.147384351
C13    3.573692175     1.786846088     8.934230438
C    5.360538263     0.000000000     8.934230438
C13    4.467115219     0.893423044     8.040807395
C    6.253961307     2.680269132     8.040807395
C    6.253961307     0.893423044     9.827653482
C13    4.467115219     2.680269132     9.827653482
C13    3.573692175     0.000000000    10.721076526
C    5.360538263     1.786846088    10.721076526
C13    3.573692175     1.786846088    12.507922614
C    5.360538263     0.000000000    12.507922614
C13    4.467115219     0.893423044    11.614499570
C    6.253961307     2.680269132    11.614499570
C    6.253961307     0.893423044    13.401345658
C13    4.467115219     2.680269132    13.401345658
C13    3.573692175     0.000000000    14.294768701
C    5.360538263     1.786846088    14.294768701
C13    3.573692175     1.786846088    16.081614789
C    5.360538263     0.000000000    16.081614789
C13    4.467115219     0.893423044    15.188191745
C    6.253961307     2.680269132    15.188191745
C    6.253961307     0.893423044    16.975037833
C13    4.467115219     2.680269132    16.975037833
C13    3.573692175     0.000000000    17.868460877
C    5.360538263     1.786846088    17.868460877
C13    3.573692175     1.786846088    19.655306964
C    5.360538263     0.000000000    19.655306964
C13    4.467115219     0.893423044    18.761883921
C    6.253961307     2.680269132    18.761883921
C    6.253961307     0.893423044    20.548730008
C13    4.467115219     2.680269132    20.548730008
C13    3.573692175     3.573692175     0.000000000
C    5.360538263     5.360538263     0.000000000
C13    3.573692175     5.360538263     1.786846088
C    5.360538263     3.573692175     1.786846088
C13    4.467115219     4.467115219     0.893423044
C    6.253961307     6.253961307     0.893423044
C    6.253961307     4.467115219     2.680269132
C13    4.467115219     6.253961307     2.680269132
C13    3.573692175     3.573692175     3.573692175
C    5.360538263     5.360538263     3.573692175
C13    3.573692175     5.360538263     5.360538263
C    5.360538263     3.573692175     5.360538263
C13    4.467115219     4.467115219     4.467115219
C    6.253961307     6.253961307     4.467115219
C    6.253961307     4.467115219     6.253961307
C13    4.467115219     6.253961307     6.253961307
C13    3.573692175     3.573692175     7.147384351
C    5.360538263     5.360538263     7.147384351
C13    3.573692175     5.360538263     8.934230438
C    5.360538263     3.573692175     8.934230438
C13    4.467115219     4.467115219     8.040807395
C    6.253961307     6.253961307     8.040807395
C    6.253961307     4.467115219     9.827653482
C13    4.467115219     6.253961307     9.827653482
C13    3.573692175     3.573692175    10.721076526
C    5.360538263     5.360538263    10.721076526
C13    3.573692175     5.360538263    12.507922614
C    5.360538263     3.573692175    12.507922614
C13    4.467115219     4.467115219    11.614499570
C    6.253961307     6.253961307    11.614499570
C    6.253961307     4.467115219    13.401345658
C13    4.467115219     6.253961307    13.401345658
C13    3.573692175     3.573692175    14.294768701
C    5.360538263     5.360538263    14.294768701
C13    3.573692175     5.360538263    16.081614789
C    5.360538263     3.573692175    16.081614789
C13    4.467115219     4.467115219    15.188191745
C    6.253961307     6.253961307    15.188191745
C    6.253961307     4.467115219    16.975037833
C13    4.467115219     6.253961307    16.975037833
C13    3.573692175     3.573692175    17.868460877
C    5.360538263     5.360538263    17.868460877
C13    3.573692175     5.360538263    19.655306964
C    5.360538263     3.573692175    19.655306964
C13    4.467115219     4.467115219    18.761883921
C    6.253961307     6.253961307    18.761883921
C    6.253961307     4.467115219    20.548730008
C13    4.467115219     6.253961307    20.548730008
C13    3.573692175     7.147384351     0.000000000
C    5.360538263     8.934230438     0.000000000
C13    3.573692175     8.934230438     1.786846088
C    5.360538263     7.147384351     1.786846088
C13    4.467115219     8.040807395     0.893423044
C    6.253961307     9.827653482     0.893423044
C    6.253961307     8.040807395     2.680269132
C13    4.467115219     9.827653482     2.680269132
C13    3.573692175     7.147384351     3.573692175
C    5.360538263     8.934230438     3.573692175
C13    3.573692175     8.934230438     5.360538263
C    5.360538263     7.147384351     5.360538263
C13    4.467115219     8.040807395     4.467115219
C    6.253961307     9.827653482     4.467115219
C    6.253961307     8.040807395     6.253961307
C13    4.467115219     9.827653482     6.253961307
C13    3.573692175     7.147384351     7.147384351
C    5.360538263     8.934230438     7.147384351
C13    3.573692175     8.934230438     8.934230438
C    5.360538263     7.147384351     8.934230438
C13    4.467115219     8.040807395     8.040807395
C    6.253961307     9.827653482     8.040807395
C    6.253961307     8.040807395     9.827653482
C13    4.467115219     9.827653482     9.827653482
C13    3.573692175     7.147384351    10.721076526
C    5.360538263     8.934230438    10.721076526
C13    3.573692175     8.934230438    12.507922614
C    5.360538263     7.147384351    12.507922614
C13    4.467115219     8.040807395    11.614499570
C    6.253961307     9.827653482    11.614499570
C    6.253961307     8.040807395    13.401345658
C13    4.467115219     9.827653482    13.401345658
C13    3.573692175     7.147384351    14.294768701
C    5.360538263     8.934230438    14.294768701
C13    3.573692175     8.934230438    16.081614789
C    5.360538263     7.147384351    16.081614789
C13    4.467115219     8.040807395    15.188191745
C    6.253961307     9.827653482    15.188191745
C    6.253961307     8.040807395    16.975037833
C13    4.467115219     9.827653482    16.975037833
C13    3.573692175     7.147384351    17.868460877
C    5.360538263     8.934230438    17.868460877
C13    3.573692175     8.934230438    19.655306964
C    5.360538263     7.147384351    19.655306964
C13    4.467115219     8.040807395    18.761883921
C    6.253961307     9.827653482    18.761883921
C    6.253961307     8.040807395    20.548730008
C13    4.467115219     9.827653482    20.548730008
C13    3.573692175    10.721076526     0.000000000
C    5.360538263    12.507922614     0.000000000
C13    3.573692175    12.507922614     1.786846088
C    5.360538263    10.721076526     1.786846088
C13    4.467115219    11.614499570     0.893423044
C    6.253961307    13.401345658     0.893423044
C    6.253961307    11.614499570     2.680269132
C13    4.467115219    13.401345658     2.680269132
C13    3.573692175    10.721076526     3.573692175
C    5.360538263    12.507922614     3.573692175
C13    3.573692175    12.507922614     5.360538263
C    5.360538263    10.721076526     5.360538263
C13    4.467115219    11.614499570     4.467115219
C    6.253961307    13.401345658     4.467115219
C    6.253961307    11.614499570     6.253961307
C13    4.467115219    13.401345658     6.253961307
C13    3.573692175    10.721076526     7.147384351
C    5.360538263    12.507922614     7.147384351
C13    3.573692175    12.507922614     8.934230438
C    5.360538263    10.721076526     8.934230438
C13    4.467115219    11.614499570     8.040807395
C    6.253961307    13.401345658     8.040807395
C    6.253961307    11.614499570     9.827653482
C13    4.467115219    13.401345658     9.827653482
C13    3.573692175    10.721076526    10.721076526
C    5.360538263    12.507922614    10.721076526
C13    3.573692175    12.507922614    12.507922614
C    5.360538263    10.721076526    12.507922614
C13    4.467115219    11.614499570    11.614499570
C    6.253961307    13.401345658    11.614499570
C    6.253961307    11.614499570    13.401345658
C13    4.467115219    13.401345658    13.401345658
C13    3.573692175    10.721076526    14.294768701
C    5.360538263    12.507922614    14.294768701
C13    3.573692175    12.507922614    16.081614789
C    5.360538263    10.721076526    16.081614789
C13    4.467115219    11.614499570    15.188191745
C    6.253961307    13.401345658    15.188191745
C    6.253961307    11.614499570    16.975037833
C13    4.467115219    13.401345658    16.975037833
C13    3.573692175    10.721076526    17.868460877
C    5.360538263    12.507922614    17.868460877
C13    3.573692175    12.507922614    19.655306964
C    5.360538263    10.721076526    19.655306964
C13    4.467115219    11.614499570    18.761883921
C    6.253961307    13.401345658    18.761883921
C    6.253961307    11.614499570    20.548730008
C13    4.467115219    13.401345658    20.548730008
C13    3.573692175    14.294768701     0.000000000
C    5.360538263    16.081614789     0.000000000
C13    3.573692175    16.081614789     1.786846088
C    5.360538263    14.294768701     1.786846088
C13    4.467115219    15.188191745     0.893423044
C    6.253961307    16.975037833     0.893423044
C    6.253961307    15.188191745     2.680269132
C13    4.467115219    16.975037833     2.680269132
C13    3.573692175    14.294768701     3.573692175
C    5.360538263    16.081614789     3.573692175
C13    3.573692175    16.081614789     5.360538263
C    5.360538263    14.294768701     5.360538263
C13    4.467115219    15.188191745     4.467115219
C    6.253961307    16.975037833     4.467115219
C    6.253961307    15.188191745     6.253961307
C13    4.467115219    16.975037833     6.253961307
C13    3.573692175    14.294768701     7.147384351
C    5.360538263    16.081614789     7.147384351
C13    3.573692175    16.081614789     8.934230438
C    5.360538263    14.294768701     8.934230438
C13    4.467115219    15.188191745     8.040807395
C    6.253961307    16.975037833     8.040807395
C    6.253961307    15.188191745     9.827653482
C13    4.467115219    16.975037833     9.827653482
C13    3.573692175    14.294768701    10.721076526
C    5.360538263    16.081614789    10.721076526
C13    3.573692175    16.081614789    12.507922614
C    5.360538263    14.294768701    12.507922614
C13    4.467115219    15.188191745    11.614499570
C    6.253961307    16.975037833    11.614499570
C    6.253961307    15.188191745    13.401345658
C13    4.467115219    16.975037833    13.401345658
C13    3.573692175    14.294768701    14.294768701
C    5.360538263    16.081614789    14.294768701
C13    3.573692175    16.081614789    16.081614789
C    5.360538263    14.294768701    16.081614789
C13    4.467115219    15.188191745    15.188191745
C    6.253961307    16.975037833    15.188191745
C    6.253961307    15.188191745    16.975037833
C13    4.467115219    16.975037833    16.975037833
C13    3.573692175    14.294768701    17.868460877
C    5.360538263    16.081614789    17.868460877
C13    3.573692175    16.081614789    19.655306964
C    5.360538263    14.294768701    19.655306964
C13    4.467115219    15.188191745    18.761883921
C    6.253961307    16.975037833    18.761883921
C    6.253961307    15.188191745    20.548730008
C13    4.467115219    16.975037833    20.548730008
C13    3.573692175    17.868460877     0.000000000
C    5.360538263    19.655306964     0.000000000
C13    3.573692175    19.655306964     1.786846088
C    5.360538263    17.868460877     1.786846088
C13    4.467115219    18.761883921     0.893423044
C    6.253961307    20.548730008     0.893423044
C    6.253961307    18.761883921     2.680269132
C13    4.467115219    20.548730008     2.680269132
C13    3.573692175    17.868460877     3.573692175
C    5.360538263    19.655306964     3.573692175
C13    3.573692175    19.655306964     5.360538263
C    5.360538263    17.868460877     5.360538263
C13    4.467115219    18.761883921     4.467115219
C    6.253961307    20.548730008     4.467115219
C    6.253961307    18.761883921     6.253961307
C13    4.467115219    20.548730008     6.253961307
C13    3.573692175    17.868460877     7.147384351
C    5.360538263    19.655306964     7.147384351
C13    3.573692175    19.655306964     8.934230438
C    5.360538263    17.868460877     8.934230438
C13    4.467115219    18.761883921     8.040807395
C    6.253961307    20.548730008     8.040807395
C    6.253961307    18.761883921     9.827653482
C13    4.467115219    20.548730008     9.827653482
C13    3.573692175    17.868460877    10.721076526
C    5.360538263    19.655306964    10.721076526
C13    3.573692175    19.655306964    12.507922614
C    5.360538263    17.868460877    12.507922614
C13    4.467115219    18.761883921    11.614499570
C    6.253961307    20.548730008    11.614499570
C    6.253961307    18.761883921    13.401345658
C13    4.467115219    20.548730008    13.401345658
C13    3.573692175    17.868460877    14.294768701
C    5.360538263    19.655306964    14.294768701
C13    3.573692175    19.655306964    16.081614789
C    5.360538263    17.868460877    16.081614789
C13    4.467115219    18.761883921    15.188191745
C    6.253961307    20.548730008    15.188191745
C    6.253961307    18.761883921    16.975037833
C13    4.467115219    20.548730008    16.975037833
C13    3.573692175    17.868460877    17.868460877
C    5.360538263    19.655306964    17.868460877
C13    3.573692175    19.655306964    19.655306964
C    5.360538263    17.868460877    19.655306964
C13    4.467115219    18.761883921    18.761883921
C    6.253961307    20.548730008    18.761883921
C    6.253961307    18.761883921    20.548730008
C13    4.467115219    20.548730008    20.548730008
C13    7.147384351     0.000000000     0.000000000
C    8.934230438     1.786846088     0.000000000
C13    7.147384351     1.786846088     1.786846088
C    8.934230438     0.000000000     1.786846088
C13    8.040807395     0.893423044     0.893423044
C    9.827653482     2.680269132     0.893423044
C    9.827653482     0.893423044     2.680269132
C13    8.040807395     2.680269132     2.680269132
C13    7.147384351     0.000000000     3.573692175
C    8.934230438     1.786846088     3.573692175
C13    7.147384351     1.786846088     5.360538263
C    8.934230438     0.000000000     5.360538263
C13    8.040807395     0.893423044     4.467115219
C    9.827653482     2.680269132     4.467115219
C    9.827653482     0.893423044     6.253961307
C13    8.040807395     2.680269132     6.253961307
C13    7.147384351     0.000000000     7.147384351
C    8.934230438     1.786846088     7.147384351
C13    7.147384351     1.786846088     8.934230438
C    8.934230438     0.000000000     8.934230438
C13    8.040807395     0.893423044     8.040807395
C    9.827653482     2.680269132     8.040807395
C    9.827653482     0.893423044     9.827653482
C13    8.040807395     2.680269132     9.827653482
C13    7.147384351     0.000000000    10.721076526
C    8.934230438     1.786846088    10.721076526
C13    7.147384351     1.786846088    12.507922614
C    8.934230438     0.000000000    12.507922614
C13    8.040807395     0.893423044    11.614499570
C    9.827653482     2.680269132    11.614499570
C    9.827653482     0.893423044    13.401345658
C13    8.040807395     2.680269132    13.401345658
C13    7.147384351     0.000000000    14.294768701
C    8.934230438     1.786846088    14.294768701
C13    7.147384351     1.786846088    16.081614789
C    8.934230438     0.000000000    16.081614789
C13    8.040807395     0.893423044    15.188191745
C    9.827653482     2.680269132    15.188191745
C    9.827653482     0.893423044    16.975037833
C13    8.040807395     2.680269132    16.975037833
C13    7.147384351     0.000000000    17.868460877
C    8.934230438     1.786846088    17.868460877
C13    7.147384351     1.786846088    19.655306964
C    8.934230438     0.000000000    19.655306964
C13    8.040807395     0.893423044    18.761883921
C    9.827653482     2.680269132    18.761883921
C    9.827653482     0.893423044    20.548730008
C13    8.040807395     2.680269132    20.548730008
C13    7.147384351     3.573692175     0.000000000
C    8.934230438     5.360538263     0.000000000
C13    7.147384351     5.360538263     1.786846088
C    8.934230438     3.573692175     1.786846088
C13    8.040807395     4.467115219     0.893423044
C    9.827653482     6.253961307     0.893423044
C    9.827653482     4.467115219     2.680269132
C13    8.040807395     6.253961307     2.680269132
C13    7.147384351     3.573692175     3.573692175
C    8.934230438     5.360538263     3.573692175
C13    7.147384351     5.360538263     5.360538263
C    8.934230438     3.573692175     5.360538263
C13    8.040807395     4.467115219     4.467115219
C    9.827653482     6.253961307     4.467115219
C    9.827653482     4.467115219     6.253961307
C13    8.040807395     6.253961307     6.253961307
C13    7.147384351     3.573692175     7.147384351
C    8.934230438     5.360538263     7.147384351
C13    7.147384351     5.360538263     8.934230438
C    8.934230438     3.573692175     8.934230438
C13    8.040807395     4.467115219     8.040807395
C    9.827653482     6.253961307     8.040807395
C    9.827653482     4.467115219     9.827653482
C13    8.040807395     6.253961307     9.827653482
C13    7.147384351     3.573692175    10.721076526
C    8.934230438     5.360538263    10.721076526
C13    7.147384351     5.360538263    12.507922614
C    8.934230438     3.573692175    12.507922614
C13    8.040807395     4.467115219    11.614499570
C    9.827653482     6.253961307    11.614499570
C    9.827653482     4.467115219    13.401345658
C13    8.040807395     6.253961307    13.401345658
C13    7.147384351     3.573692175    14.294768701
C    8.934230438     5.360538263    14.294768701
C13    7.147384351     5.360538263    16.081614789
C    8.934230438     3.573692175    16.081614789
C13    8.040807395     4.467115219    15.188191745
C    9.827653482     6.253961307    15.188191745
C    9.827653482     4.467115219    16.975037833
C13    8.040807395     6.253961307    16.975037833
C13    7.147384351     3.573692175    17.868460877
C    8.934230438     5.360538263    17.868460877
C13    7.147384351     5.360538263    19.655306964
C    8.934230438     3.573692175    19.655306964
C13    8.040807395     4.467115219    18.761883921
C    9.827653482     6.253961307    18.761883921
C    9.827653482     4.467115219    20.548730008
C13    8.040807395     6.253961307    20.548730008
C13    7.147384351     7.147384351     0.000000000
C    8.934230438     8.934230438     0.000000000
C13    7.147384351     8.934230438     1.786846088
C    8.934230438     7.147384351     1.786846088
C13    8.040807395     8.040807395     0.893423044
C    9.827653482     9.827653482     0.893423044
C    9.827653482     8.040807395     2.680269132
C13    8.040807395     9.827653482     2.680269132
C13    7.147384351     7.147384351     3.573692175
C    8.934230438     8.934230438     3.573692175
C13    7.147384351     8.934230438     5.360538263
C    8.934230438     7.147384351     5.360538263
C13    8.040807395     8.040807395     4.467115219
C    9.827653482     9.827653482     4.467115219
C    9.827653482     8.040807395     6.253961307
C13    8.040807395     9.827653482     6.253961307
C13    7.147384351     7.147384351     7.147384351
C    8.934230438     8.934230438     7.147384351
C13    7.147384351     8.934230438     8.934230438
C    8.934230438     7.147384351     8.934230438
C13    8.040807395     8.040807395     8.040807395
C    9.827653482     9.827653482     8.040807395
C    9.827653482     8.040807395     9.827653482
C13    8.040807395     9.827653482     9.827653482
C13    7.147384351     7.147384351    10.721076526
C    8.934230438     8.934230438    10.721076526
C13    7.147384351     8.934230438    12.507922614
C    8.934230438     7.147384351    12.507922614
C13    8.040807395     8.040807395    11.614499570
C    9.827653482     9.827653482    11.614499570
C    9.827653482     8.040807395    13.401345658
C13    8.040807395     9.827653482    13.401345658
C13    7.147384351     7.147384351    14.294768701
C    8.934230438     8.934230438    14.294768701
C13    7.147384351     8.934230438    16.081614789
C    8.934230438     7.147384351    16.081614789
C13    8.040807395     8.040807395    15.188191745
C    9.827653482     9.827653482    15.188191745
C    9.827653482     8.040807395    16.975037833
C13    8.040807395     9.827653482    16.975037833
C13    7.147384351     7.147384351    17.868460877
C    8.934230438     8.934230438    17.868460877
C13    7.147384351     8.934230438    19.655306964
C    8.934230438     7.147384351    19.655306964
C13    8.040807395     8.040807395    18.761883921
C    9.827653482     9.827653482    18.761883921
C    9.827653482     8.040807395    20.548730008
C13    8.040807395     9.827653482    20.548730008
C13    7.147384351    10.721076526     0.000000000
C    8.934230438    12.507922614     0.000000000
C13    7.147384351    12.507922614     1.786846088
C    8.934230438    10.721076526     1.786846088
C13    8.040807395    11.614499570     0.893423044
C    9.827653482    13.401345658     0.893423044
C    9.827653482    11.614499570     2.680269132
C13    8.040807395    13.401345658     2.680269132
C13    7.147384351    10.721076526     3.573692175
C    8.934230438    12.507922614     3.573692175
C13    7.147384351    12.507922614     5.360538263
C    8.934230438    10.721076526     5.360538263
C13    8.040807395    11.614499570     4.467115219
C    9.827653482    13.401345658     4.467115219
C    9.827653482    11.614499570     6.253961307
C13    8.040807395    13.401345658     6.253961307
C13    7.147384351    10.721076526     7.147384351
C    8.934230438    12.507922614     7.147384351
C13    7.147384351    12.507922614     8.934230438
C    8.934230438    10.721076526     8.934230438
C13    8.040807395    11.614499570     8.040807395
C    9.827653482    13.401345658     8.040807395
C    9.827653482    11.614499570     9.827653482
C13    8.040807395    13.401345658     9.827653482
C13    7.147384351    10.721076526    10.721076526
C    8.934230438    12.507922614    10.721076526
C13    7.147384351    12.507922614    12.507922614
C    8.934230438    10.721076526    12.507922614
C13    8.040807395    11.614499570    11.614499570
C    9.827653482    13.401345658    11.614499570
C    9.827653482    11.614499570    13.401345658
C13    8.040807395    13.401345658    13.401345658
C13    7.147384351    10.721076526    14.294768701
C    8.934230438    12.507922614    14.294768701
C13    7.147384351    12.507922614    16.081614789
C    8.934230438    10.721076526    16.081614789
C13    8.040807395    11.614499570    15.188191745
C    9.827653482    13.401345658    15.188191745
C    9.827653482    11.614499570    16.975037833
C13    8.040807395    13.401345658    16.975037833
C13    7.147384351    10.721076526    17.868460877
C    8.934230438    12.507922614    17.868460877
C13    7.147384351    12.507922614    19.655306964
C    8.934230438    10.721076526    19.655306964
C13    8.040807395    11.614499570    18.761883921
C    9.827653482    13.401345658    18.761883921
C    9.827653482    11.614499570    20.548730008
C13    8.040807395    13.401345658    20.548730008
C13    7.147384351    14.294768701     0.000000000
C    8.934230438    16.081614789     0.000000000
C13    7.147384351    16.081614789     1.786846088
C    8.934230438    14.294768701     1.786846088
C13    8.040807395    15.188191745     0.893423044
C    9.827653482    16.975037833     0.893423044
C    9.827653482    15.188191745     2.680269132
C13    8.040807395    16.975037833     2.680269132
C13    7.147384351    14.294768701     3.573692175
C    8.934230438    16.081614789     3.573692175
C13    7.147384351    16.081614789     5.360538263
C    8.934230438    14.294768701     5.360538263
C13    8.040807395    15.188191745     4.467115219
C    9.827653482    16.975037833     4.467115219
C    9.827653482    15.188191745     6.253961307
C13    8.040807395    16.975037833     6.253961307
C13    7.147384351    14.294768701     7.147384351
C    8.934230438    16.081614789     7.147384351
C13    7.147384351    16.081614789     8.934230438
C    8.934230438    14.294768701     8.934230438
C13    8.040807395    15.188191745     8.040807395
C    9.827653482    16.975037833     8.040807395
C    9.827653482    15.188191745     9.827653482
C13    8.040807395    16.975037833     9.827653482
C13    7.147384351    14.294768701    10.721076526
C    8.934230438    16.081614789    10.721076526
C13    7.147384351    16.081614789    12.507922614
C    8.934230438    14.294768701    12.507922614
C13    8.040807395    15.188191745    11.614499570
C    9.827653482    16.975037833    11.614499570
C    9.827653482    15.188191745    13.401345658
C13    8.040807395    16.975037833    13.401345658
C13    7.147384351    14.294768701    14.294768701
C    8.934230438    16.081614789    14.294768701
C13    7.147384351    16.081614789    16.081614789
C    8.934230438    14.294768701    16.081614789
C13    8.040807395    15.188191745    15.188191745
C    9.827653482    16.975037833    15.188191745
C    9.827653482    15.188191745    16.975037833
C13    8.040807395    16.975037833    16.975037833
C13    7.147384351    14.294768701    17.868460877
C    8.934230438    16.081614789    17.868460877
C13    7.147384351    16.081614789    19.655306964
C    8.934230438    14.294768701    19.655306964
C13    8.040807395    15.188191745    18.761883921
C    9.827653482    16.975037833    18.761883921
C    9.827653482    15.188191745    20.548730008
C13    8.040807395    16.975037833    20.548730008
C13    7.147384351    17.868460877     0.000000000
C    8.934230438    19.655306964     0.000000000
C13    7.147384351    19.655306964     1.786846088
C    8.934230438    17.868460877     1.786846088
C13    8.040807395    18.761883921     0.893423044
C    9.827653482    20.548730008     0.893423044
C    9.827653482    18.761883921     2.680269132
C13    8.040807395    20.548730008     2.680269132
C13    7.147384351    17.868460877     3.573692175
C    8.934230438    19.655306964     3.573692175
C13    7.147384351    19.655306964     5.360538263
C    8.934230438    17.868460877     5.360538263
C13    8.040807395    18.761883921     4.467115219
C    9.827653482    20.548730008     4.467115219
C    9.827653482    18.761883921     6.253961307
C13    8.040807395    20.548730008     6.253961307
C13    7.147384351    17.868460877     7.147384351
C    8.934230438    19.655306964     7.147384351
C13    7.147384351    19.655306964     8.934230438
C    8.934230438    17.868460877     8.934230438
C13    8.040807395    18.761883921     8.040807395
C    9.827653482    20.548730008     8.040807395
C    9.827653482    18.761883921     9.827653482
C13    8.040807395    20.548730008     9.827653482
C13    7.147384351    17.868460877    10.721076526
C    8.934230438    19.655306964    10.721076526
C13    7.147384351    19.655306964    12.507922614
C    8.934230438    17.868460877    12.507922614
C13    8.040807395    18.761883921    11.614499570
C    9.827653482    20.548730008    11.614499570
C    9.827653482    18.761883921    13.401345658
C13    8.040807395    20.548730008    13.401345658
C13    7.147384351    17.868460877    14.294768701
C    8.934230438    19.655306964    14.294768701
C13    7.147384351    19.655306964    16.081614789
C    8.934230438    17.868460877    16.081614789
C13    8.040807395    18.761883921    15.188191745
C    9.827653482    20.548730008    15.188191745
C    9.827653482    18.761883921    16.975037833
C13    8.040807395    20.548730008    16.975037833
C13    7.147384351    17.868460877    17.868460877
C    8.934230438    19.655306964    17.868460877
C13    7.147384351    19.655306964    19.655306964
C    8.934230438    17.868460877    19.655306964
C13    8.040807395    18.761883921    18.761883921
C    9.827653482    20.548730008    18.761883921
C    9.827653482    18.761883921    20.548730008
C13    8.040807395    20.548730008    20.548730008
C13   10.721076526     0.000000000     0.000000000
C   12.507922614     1.786846088     0.000000000
C13   10.721076526     1.786846088     1.786846088
C   12.507922614     0.000000000     1.786846088
C13   11.614499570     0.893423044     0.893423044
C   13.401345658     2.680269132     0.893423044
C   13.401345658     0.893423044     2.680269132
C13   11.614499570     2.680269132     2.680269132
C13   10.721076526     0.000000000     3.573692175
C   12.507922614     1.786846088     3.573692175
C13   10.721076526     1.786846088     5.360538263
C   12.507922614     0.000000000     5.360538263
C13   11.614499570     0.893423044     4.467115219
C   13.401345658     2.680269132     4.467115219
C   13.401345658     0.893423044     6.253961307
C13   11.614499570     2.680269132     6.253961307
C13   10.721076526     0.000000000     7.147384351
C   12.507922614     1.786846088     7.147384351
C13   10.721076526     1.786846088     8.934230438
C   12.507922614     0.000000000     8.934230438
C13   11.614499570     0.893423044     8.040807395
C   13.401345658     2.680269132     8.040807395
C   13.401345658     0.893423044     9.827653482
C13   11.614499570     2.680269132     9.827653482
C13   10.721076526     0.000000000    10.721076526
C   12.507922614     1.786846088    10.721076526
C13   10.721076526     1.786846088    12.507922614
C   12.507922614     0.000000000    12.507922614
C13   11.614499570     0.893423044    11.614499570
C   13.401345658     2.680269132    11.614499570
C   13.401345658     0.893423044    13.401345658
C13   11.614499570     2.680269132    13.401345658
C13   10.721076526     0.000000000    14.294768701
C   12.507922614     1.786846088    14.294768701
C13   10.721076526     1.786846088    16.081614789
C   12.507922614     0.000000000    16.081614789
C13   11.614499570     0.893423044    15.188191745
C   13.401345658     2.680269132    15.188191745
C   13.401345658     0.893423044    16.975037833
C13   11.614499570     2.680269132    16.975037833
C13   10.721076526     0.000000000    17.868460877
C   12.507922614     1.786846088    17.868460877
C13   10.721076526     1.786846088    19.655306964
C   12.507922614     0.000000000    19.655306964
C13   11.614499570     0.893423044    18.761883921
C   13.401345658     2.680269132    18.761883921
C   13.401345658     0.893423044    20.548730008
C13   11.614499570     2.680269132    20.548730008
C13   10.721076526     3.573692175     0.000000000
C   12.507922614     5.360538263     0.000000000
C13   10.721076526     5.360538263     1.786846088
C   12.507922614     3.573692175     1.786846088
C13   11.614499570     4.467115219     0.893423044
C   13.401345658     6.253961307     0.893423044
C   13.401345658     4.467115219     2.680269132
C13   11.614499570     6.253961307     2.680269132
C13   10.721076526     3.573692175     3.573692175
C   12.507922614     5.360538263     3.573692175
C13   10.721076526     5.360538263     5.360538263
C   12.507922614     3.573692175     5.360538263
C13   11.614499570     4.467115219     4.467115219
C   13.401345658     6.253961307     4.467115219
C   13.401345658     4.467115219     6.253961307
C13   11.614499570     6.253961307     6.253961307
C13   10.721076526     3.573692175     7.147384351
C   12.507922614     5.360538263     7.147384351
C13   10.721076526     5.360538263     8.934230438
C   12.507922614     3.573692175     8.934230438
C13   11.614499570     4.467115219     8.040807395
C   13.401345658     6.253961307     8.040807395
C   13.401345658     4.467115219     9.827653482
C13   11.614499570     6.253961307     9.827653482
C13   10.721076526     3.573692175    10.721076526
C   12.507922614     5.360538263    10.721076526
C13   10.721076526     5.360538263    12.507922614
C   12.507922614     3.573692175    12.507922614
C13   11.614499570     4.467115219    11.614499570
C   13.401345658     6.253961307    11.614499570
C   13.401345658     4.467115219    13.401345658
C13   11.614499570     6.253961307    13.401345658
C13   10.721076526     3.573692175    14.294768701
C   12.507922614     5.360538263    14.294768701
C13   10.721076526     5.360538263    16.081614789
C   12.507922614     3.573692175    16.081614789
C13   11.614499570     4.467115219    15.188191745
C   13.401345658     6.253961307    15.188191745
C   13.401345658     4.467115219    16.975037833
C13   11.614499570     6.253961307    16.975037833
C13   10.721076526     3.573692175    17.868460877
C   12.507922614     5.360538263    17.868460877
C13   10.721076526     5.360538263    19.655306964
C   12.507922614     3.573692175    19.655306964
C13   11.614499570     4.467115219    18.761883921
C   13.401345658     6.253961307    18.761883921
C   13.401345658     4.467115219    20.548730008
C13   11.614499570     6.253961307    20.548730008
C13   10.721076526     7.147384351     0.000000000
C   12.507922614     8.934230438     0.000000000
C13   10.721076526     8.934230438     1.786846088
C   12.507922614     7.147384351     1.786846088
C13   11.614499570     8.040807395     0.893423044
C   13.401345658     9.827653482     0.893423044
C   13.401345658     8.040807395     2.680269132
C13   11.614499570     9.827653482     2.680269132
C13   10.721076526     7.147384351     3.573692175
C   12.507922614     8.934230438     3.573692175
C13   10.721076526     8.934230438     5.360538263
C   12.507922614     7.147384351     5.360538263
C13   11.614499570     8.040807395     4.467115219
C   13.401345658     9.827653482     4.467115219
C   13.401345658     8.040807395     6.253961307
C13   11.614499570     9.827653482     6.253961307
C13   10.721076526     7.147384351     7.147384351
C   12.507922614     8.934230438     7.147384351
C13   10.721076526     8.934230438     8.934230438
C   12.507922614     7.147384351     8.934230438
C13   11.614499570     8.040807395     8.040807395
C   13.401345658     9.827653482     8.040807395
C   13.401345658     8.040807395     9.827653482
C13   11.614499570     9.827653482     9.827653482
C13   10.721076526     7.147384351    10.721076526
C   12.507922614     8.934230438    10.721076526
C13   10.721076526     8.934230438    12.507922614
C   12.507922614     7.147384351    12.507922614
C13   11.614499570     8.040807395    11.614499570
C   13.401345658     9.827653482    11.614499570
C   13.401345658     8.040807395    13.401345658
C13   11.614499570     9.827653482    13.401345658
C13   10.721076526     7.147384351    14.294768701
C   12.507922614     8.934230438    14.294768701
C13   10.721076526     8.934230438    16.081614789
C   12.507922614     7.147384351    16.081614789
C13   11.614499570     8.040807395    15.188191745
C   13.401345658     9.827653482    15.188191745
C   13.401345658     8.040807395    16.975037833
C13   11.614499570     9.827653482    16.975037833
C13   10.721076526     7.147384351    17.868460877
C   12.507922614     8.934230438    17.868460877
C13   10.721076526     8.934230438    19.655306964
C   12.507922614     7.147384351    19.655306964
C13   11.614499570     8.040807395    18.761883921
C   13.401345658     9.827653482    18.761883921
C   13.401345658     8.040807395    20.548730008
C13   11.614499570     9.827653482    20.548730008
C13   10.721076526    10.721076526     0.000000000
C   12.507922614    12.507922614     0.000000000
C13   10.721076526    12.507922614     1.786846088
C   12.507922614    10.721076526     1.786846088
C13   11.614499570    11.614499570     0.893423044
C   13.401345658    13.401345658     0.893423044
C   13.401345658    11.614499570     2.680269132
C13   11.614499570    13.401345658     2.680269132
C13   10.721076526    10.721076526     3.573692175
C   12.507922614    12.507922614     3.573692175
C13   10.721076526    12.507922614     5.360538263
C   12.507922614    10.721076526     5.360538263
C13   11.614499570    11.614499570     4.467115219
C   13.401345658    13.401345658     4.467115219
C   13.401345658    11.614499570     6.253961307
C13   11.614499570    13.401345658     6.253961307
C13   10.721076526    10.721076526     7.147384351
C   12.507922614    12.507922614     7.147384351
C13   10.721076526    12.507922614     8.934230438
C   12.507922614    10.721076526     8.934230438
C13   11.614499570    11.614499570     8.040807395
C   13.401345658    13.401345658     8.040807395
C   13.401345658    11.614499570     9.827653482
C13   11.614499570    13.401345658     9.827653482
C13   10.721076526    10.721076526    10.721076526
C   12.507922614    12.507922614    10.721076526
C13   10.721076526    12.507922614    12.507922614
C   12.507922614    10.721076526    12.507922614
C13   11.614499570    11.614499570    11.614499570
C   13.401345658    13.401345658    11.614499570
C   13.401345658    11.614499570    13.401345658
C13   11.614499570    13.401345658    13.401345658
C13   10.721076526    10.721076526    14.294768701
C   12.507922614    12.507922614    14.294768701
C13   10.721076526    12.507922614    16.081614789
C   12.507922614    10.721076526    16.081614789
C13   11.614499570    11.614499570    15.188191745
C   13.401345658    13.401345658    15.188191745
C   13.401345658    11.614499570    16.975037833
C13   11.614499570    13.401345658    16.975037833
C13   10.721076526    10.721076526    17.868460877
C   12.507922614    12.507922614    17.868460877
C13   10.721076526    12.507922614    19.655306964
C   12.507922614    10.721076526    19.655306964
C13   11.614499570    11.614499570    18.761883921
C   13.401345658    13.401345658    18.761883921
C   13.401345658    11.614499570    20.548730008
C13   11.614499570    13.401345658    20.548730008
C13   10.721076526    14.294768701     0.000000000
C   12.507922614    16.081614789     0.000000000
C13   10.721076526    16.081614789     1.786846088
C   12.507922614    14.294768701     1.786846088
C13   11.614499570    15.188191745     0.893423044
C   13.401345658    16.975037833     0.893423044
C   13.401345658    15.188191745     2.680269132
C13   11.614499570    16.975037833     2.680269132
C13   10.721076526    14.294768701     3.573692175
C   12.507922614    16.081614789     3.573692175
C13   10.721076526    16.081614789     5.360538263
C   12.507922614    14.294768701     5.360538263
C13   11.614499570    15.188191745     4.467115219
C   13.401345658    16.975037833     4.467115219
C   13.401345658    15.188191745     6.253961307
C13   11.614499570    16.975037833     6.253961307
C13   10.721076526    14.294768701     7.147384351
C   12.507922614    16.081614789     7.147384351
C13   10.721076526    16.081614789     8.934230438
C   12.507922614    14.294768701     8.934230438
C13   11.614499570    15.188191745     8.040807395
C   13.401345658    16.975037833     8.040807395
C   13.401345658    15.188191745     9.827653482
C13   11.614499570    16.975037833     9.827653482
C13   10.721076526    14.294768701    10.721076526
C   12.507922614    16.081614789    10.721076526
C13   10.721076526    16.081614789    12.507922614
C   12.507922614    14.294768701    12.507922614
C13   11.614499570    15.188191745    11.614499570
C   13.401345658    16.975037833    11.614499570
C   13.401345658    15.188191745    13.401345658
C13   11.614499570    16.975037833    13.401345658
C13   10.721076526    14.294768701    14.294768701
C   12.507922614    16.081614789    14.294768701
C13   10.721076526    16.081614789    16.081614789
C   12.507922614    14.294768701    16.081614789
C13   11.614499570    15.188191745    15.188191745
C   13.401345658    16.975037833    15.188191745
C   13.401345658    15.188191745    16.975037833
C13   11.614499570    16.975037833    16.975037833
C13   10.721076526    14.294768701    17.868460877
C   12.507922614    16.081614789    17.868460877
C13   10.721076526    16.081614789    19.655306964
C   12.507922614    14.294768701    19.655306964
C13   11.614499570    15.188191745    18.761883921
C   13.401345658    16.975037833    18.761883921
C   13.401345658    15.188191745    20.548730008
C13   11.614499570    16.975037833    20.548730008
C13   10.721076526    17.868460877     0.000000000
C   12.507922614    19.655306964     0.000000000
C13   10.721076526    19.655306964     1.786846088
C   12.507922614    17.868460877     1.786846088
C13   11.614499570    18.761883921     0.893423044
C   13.401345658    20.548730008     0.893423044
C   13.401345658    18.761883921     2.680269132
C13   11.614499570    20.548730008     2.680269132
C13   10.721076526    17.868460877     3.573692175
C   12.507922614    19.655306964     3.573692175
C13   10.721076526    19.655306964     5.360538263
C   12.507922614    17.868460877     5.360538263
C13   11.614499570    18.761883921     4.467115219
C   13.401345658    20.548730008     4.467115219
C   13.401345658    18.761883921     6.253961307
C13   11.614499570    20.548730008     6.253961307
C13   10.721076526    17.868460877     7.147384351
C   12.507922614    19.655306964     7.147384351
C13   10.721076526    19.655306964     8.934230438
C   12.507922614    17.868460877     8.934230438
C13   11.614499570    18.761883921     8.040807395
C   13.401345658    20.548730008     8.040807395
C   13.401345658    18.761883921     9.827653482
C13   11.614499570    20.548730008     9.827653482
C13   10.721076526    17.868460877    10.721076526
C   12.507922614    19.655306964    10.721076526
C13   10.721076526    19.655306964    12.507922614
C   12.507922614    17.868460877    12.507922614
C13   11.614499570    18.761883921    11.614499570
C   13.401345658    20.548730008    11.614499570
C   13.401345658    18.761883921    13.401345658
C13   11.614499570    20.548730008    13.401345658
C13   10.721076526    17.868460877    14.294768701
C   12.507922614    19.655306964    14.294768701
C13   10.721076526    19.655306964    16.081614789
C   12.507922614    17.868460877    16.081614789
C13   11.614499570    18.761883921    15.188191745
C   13.401345658    20.548730008    15.188191745
C   13.401345658    18.761883921    16.975037833
C13   11.614499570    20.548730008    16.975037833
C13   10.721076526    17.868460877    17.868460877
C   12.507922614    19.655306964    17.868460877
C13   10.721076526    19.655306964    19.655306964
C   12.507922614    17.868460877    19.655306964
C13   11.614499570    18.761883921    18.761883921
C   13.401345658    20.548730008    18.761883921
C   13.401345658    18.761883921    20.548730008
C13   11.614499570    20.548730008    20.548730008
C13   14.294768701     0.000000000     0.000000000
C   16.081614789     1.786846088     0.000000000
C13   14.294768701     1.786846088     1.786846088
C   16.081614789     0.000000000     1.786846088
C13   15.188191745     0.893423044     0.893423044
C   16.975037833     2.680269132     0.893423044
C   16.975037833     0.893423044     2.680269132
C13   15.188191745     2.680269132     2.680269132
C13   14.294768701     0.000000000     3.573692175
C   16.081614789     1.786846088     3.573692175
C13   14.294768701     1.786846088     5.360538263
C   16.081614789     0.000000000     5.360538263
C13   15.188191745     0.893423044     4.467115219
C   16.975037833     2.680269132     4.467115219
C   16.975037833     0.893423044     6.253961307
C13   15.188191745     2.680269132     6.253961307
C13   14.294768701     0.000000000     7.147384351
C   16.081614789     1.786846088     7.147384351
C13   14.294768701     1.786846088     8.934230438
C   16.081614789     0.000000000     8.934230438
C13   15.188191745     0.893423044     8.040807395
C   16.975037833     2.680269132     8.040807395
C   16.975037833     0.893423044     9.827653482
C13   15.188191745     2.680269132     9.827653482
C13   14.294768701     0.000000000    10.721076526
C   16.081614789     1.786846088    10.721076526
C13   14.294768701     1.786846088    12.507922614
C   16.081614789     0.000000000    12.507922614
C13   15.188191745     0.893423044    11.614499570
C   16.975037833     2.680269132    11.614499570
C   16.975037833     0.893423044    13.401345658
C13   15.188191745     2.680269132    13.401345658
C13   14.294768701     0.000000000    14.294768701
C   16.081614789     1.786846088    14.294768701
C13   14.294768701     1.786846088    16.081614789
C   16.081614789     0.000000000    16.081614789
C13   15.188191745     0.893423044    15.188191745
C   16.975037833     2.680269132    15.188191745
C   16.975037833     0.893423044    16.975037833
C13   15.188191745     2.680269132    16.975037833
C13   14.294768701     0.000000000    17.868460877
C   16.081614789     1.786846088    17.868460877
C13   14.294768701     1.786846088    19.655306964
C   16.081614789     0.000000000    19.655306964
C13   15.188191745     0.893423044    18.761883921
C   16.975037833     2.680269132    18.761883921
C   16.975037833     0.893423044    20.548730008
C13   15.188191745     2.680269132    20.548730008
C13   14.294768701     3.573692175     0.000000000
C   16.081614789     5.360538263     0.000000000
C13   14.294768701     5.360538263     1.786846088
C   16.081614789     3.573692175     1.786846088
C13   15.188191745     4.467115219     0.893423044
C   16.975037833     6.253961307     0.893423044
C   16.975037833     4.467115219     2.680269132
C13   15.188191745     6.253961307     2.680269132
C13   14.294768701     3.573692175     3.573692175
C   16.081614789     5.360538263     3.573692175
C13   14.294768701     5.360538263     5.360538263
C   16.081614789     3.573692175     5.360538263
C13   15.188191745     4.467115219     4.467115219
C   16.975037833     6.253961307     4.467115219
C   16.975037833     4.467115219     6.253961307
C13   15.188191745     6.253961307     6.253961307
C13   14.294768701     3.573692175     7.147384351
C   16.081614789     5.360538263     7.147384351
C13   14.294768701     5.360538263     8.934230438
C   16.081614789     3.573692175     8.934230438
C13   15.188191745     4.467115219     8.040807395
C   16.975037833     6.253961307     8.040807395
C   16.975037833     4.467115219     9.827653482
C13   15.188191745     6.253961307     9.827653482
C13   14.294768701     3.573692175    10.721076526
C   16.081614789     5.360538263    10.721076526
C13   14.294768701     5.360538263    12.507922614
C   16.081614789     3.573692175    12.507922614
C13   15.188191745     4.467115219    11.614499570
C   16.975037833     6.253961307    11.614499570
C   16.975037833     4.467115219    13.401345658
C13   15.188191745     6.253961307    13.401345658
C13   14.294768701     3.573692175    14.294768701
C   16.081614789     5.360538263    14.294768701
C13   14.294768701     5.360538263    16.081614789
C   16.081614789     3.573692175    16.081614789
C13   15.188191745     4.467115219    15.188191745
C   16.975037833     6.253961307    15.188191745
C   16.975037833     4.467115219    16.975037833
C13   15.188191745     6.253961307    16.975037833
C13   14.294768701     3.573692175    17.868460877
C   16.081614789     5.360538263    17.868460877
C13   14.294768701     5.360538263    19.655306964
C   16.081614789     3.573692175    19.655306964
C13   15.188191745     4.467115219    18.761883921
C   16.975037833     6.253961307    18.761883921
C   16.975037833     4.467115219    20.548730008
C13   15.188191745     6.253961307    20.548730008
C13   14.294768701     7.147384351     0.000000000
C   16.081614789     8.934230438     0.000000000
C13   14.294768701     8.934230438     1.786846088
C   16.081614789     7.147384351     1.786846088
C13   15.188191745     8.040807395     0.893423044
C   16.975037833     9.827653482     0.893423044
C   16.975037833     8.040807395     2.680269132
C13   15.188191745     9.827653482     2.680269132
C13   14.294768701     7.147384351     3.573692175
C   16.081614789     8.934230438     3.573692175
C13   14.294768701     8.934230438     5.360538263
C   16.081614789     7.147384351     5.360538263
C13   15.188191745     8.040807395     4.467115219
C   16.975037833     9.827653482     4.467115219
C   16.975037833     8.040807395     6.253961307
C13   15.188191745     9.827653482     6.253961307
C13   14.294768701     7.147384351     7.147384351
C   16.081614789     8.934230438     7.147384351
C13   14.294768701     8.934230438     8.934230438
C   16.081614789     7.147384351     8.934230438
C13   15.188191745     8.040807395     8.040807395
C   16.975037833     9.827653482     8.040807395
C   16.975037833     8.040807395     9.827653482
C13   15.188191745     9.827653482     9.827653482
C13   14.294768701     7.147384351    10.721076526
C   16.081614789     8.934230438    10.721076526
C13   14.294768701     8.934230438    12.507922614
C   16.081614789     7.147384351    12.507922614
C13   15.188191745     8.040807395    11.614499570
C   16.975037833     9.827653482    11.614499570
C   16.975037833     8.040807395    13.401345658
C13   15.188191745     9.827653482    13.401345658
C13   14.294768701     7.147384351    14.294768701
C   16.081614789     8.934230438    14.294768701
C13   14.294768701     8.934230438    16.081614789
C   16.081614789     7.147384351    16.081614789
C13   15.188191745     8.040807395    15.188191745
C   16.975037833     9.827653482    15.188191745
C   16.975037833     8.040807395    16.975037833
C13   15.188191745     9.827653482    16.975037833
C13   14.294768701     7.147384351    17.868460877
C   16.081614789     8.934230438    17.868460877
C13   14.294768701     8.934230438    19.655306964
C   16.081614789     7.147384351    19.655306964
C13   15.188191745     8.040807395    18.761883921
C   16.975037833     9.827653482    18.761883921
C   16.975037833     8.040807395    20.548730008
C13   15.188191745     9.827653482    20.548730008
C13   14.294768701    10.721076526     0.000000000
C   16.081614789    12.507922614     0.000000000
C13   14.294768701    12.507922614     1.786846088
C   16.081614789    10.721076526     1.786846088
C13   15.188191745    11.614499570     0.893423044
C   16.975037833    13.401345658     0.893423044
C   16.975037833    11.614499570     2.680269132
C13   15.188191745    13.401345658     2.680269132
C13   14.294768701    10.721076526     3.573692175
C   16.081614789    12.507922614     3.573692175
C13   14.294768701    12.507922614     5.360538263
C   16.081614789    10.721076526     5.360538263
C13   15.188191745    11.614499570     4.467115219
C   16.975037833    13.401345658     4.467115219
C   16.975037833    11.614499570     6.253961307
C13   15.188191745    13.401345658     6.253961307
C13   14.294768701    10.721076526     7.147384351
C   16.081614789    12.507922614     7.147384351
C13   14.294768701    12.507922614     8.934230438
C   16.081614789    10.721076526     8.934230438
C13   15.188191745    11.614499570     8.040807395
C   16.975037833    13.401345658     8.040807395
C   16.975037833    11.614499570     9.827653482
C13   15.188191745    13.401345658     9.827653482
C13   14.294768701    10.721076526    10.721076526
C   16.081614789    12.507922614    10.721076526
C13   14.294768701    12.507922614    12.507922614
C   16.081614789    10.721076526    12.507922614
C13   15.188191745    11.614499570    11.614499570
C   16.975037833    13.401345658    11.614499570
C   16.975037833    11.614499570    13.401345658
C13   15.188191745    13.401345658    13.401345658
C13   14.294768701    10.721076526    14.294768701
C   16.081614789    12.507922614    14.294768701
C13   14.294768701    12.507922614    16.081614789
C   16.081614789    10.721076526    16.081614789
C13   15.188191745    11.614499570    15.188191745
C   16.975037833    13.401345658    15.188191745
C   16.975037833    11.614499570    16.975037833
C13   15.188191745    13.401345658    16.975037833
C13   14.294768701    10.721076526    17.868460877
C   16.081614789    12.507922614    17.868460877
C13   14.294768701    12.507922614    19.655306964
C   16.081614789    10.721076526    19.655306964
C13   15.188191745    11.614499570    18.761883921
C   16.975037833    13.401345658    18.761883921
C   16.975037833    11.614499570    20.548730008
C13   15.188191745    13.401345658    20.548730008
C13   14.294768701    14.294768701     0.000000000
C   16.081614789    16.081614789     0.000000000
C13   14.294768701    16.081614789     1.786846088
C   16.081614789    14.294768701     1.786846088
C13   15.188191745    15.188191745     0.893423044
C   16.975037833    16.975037833     0.893423044
C   16.975037833    15.188191745     2.680269132
C13   15.188191745    16.975037833     2.680269132
C13   14.294768701    14.294768701     3.573692175
C   16.081614789    16.081614789     3.573692175
C13   14.294768701    16.081614789     5.360538263
C   16.081614789    14.294768701     5.360538263
C13   15.188191745    15.188191745     4.467115219
C   16.975037833    16.975037833     4.467115219
C   16.975037833    15.188191745     6.253961307
C13   15.188191745    16.975037833     6.253961307
C13   14.294768701    14.294768701     7.147384351
C   16.081614789    16.081614789     7.147384351
C13   14.294768701    16.081614789     8.934230438
C   16.081614789    14.294768701     8.934230438
C13   15.188191745    15.188191745     8.040807395
C   16.975037833    16.975037833     8.040807395
C   16.975037833    15.188191745     9.827653482
C13   15.188191745    16.975037833     9.827653482
C13   14.294768701    14.294768701    10.721076526
C   16.081614789    16.081614789    10.721076526
C13   14.294768701    16.081614789    12.507922614
C   16.081614789    14.294768701    12.507922614
C13   15.188191745    15.188191745    11.614499570
C   16.975037833    16.975037833    11.614499570
C   16.975037833    15.188191745    13.401345658
C13   15.188191745    16.975037833    13.401345658
C13   14.294768701    14.294768701    14.294768701
C   16.081614789    16.081614789    14.294768701
C13   14.294768701    16.081614789    16.081614789
C   16.081614789    14.294768701    16.081614789
C13   15.188191745    15.188191745    15.188191745
C   16.975037833    16.975037833    15.188191745
C   16.975037833    15.188191745    16.975037833
C13   15.188191745    16.975037833    16.975037833
C13   14.294768701    14.294768701    17.868460877
C   16.081614789    16.081614789    17.868460877
C13   14.294768701    16.081614789    19.655306964
C   16.081614789    14.294768701    19.655306964
C13   15.188191745    15.188191745    18.761883921
C   16.975037833    16.975037833    18.761883921
C   16.975037833    15.188191745    20.548730008
C13   15.188191745    16.975037833    20.548730008
C13   14.294768701    17.868460877     0.000000000
C   16.081614789    19.655306964     0.000000000
C13   14.294768701    19.655306964     1.786846088
C   16.081614789    17.868460877     1.786846088
C13   15.188191745    18.761883921     0.893423044
C   16.975037833    20.548730008     0.893423044
C   16.975037833    18.761883921     2.680269132
C13   15.188191745    20.548730008     2.680269132
C13   14.294768701    17.868460877     3.573692175
C   16.081614789    19.655306964     3.573692175
C13   14.294768701    19.655306964     5.360538263
C   16.081614789    17.868460877     5.360538263
C13   15.188191745    18.761883921     4.467115219
C   16.975037833    20.548730008     4.467115219
C   16.975037833    18.761883921     6.253961307
C13   15.188191745    20.548730008     6.253961307
C13   14.294768701    17.868460877     7.147384351
C   16.081614789    19.655306964     7.147384351
C13   14.294768701    19.655306964     8.934230438
C   16.081614789    17.868460877     8.934230438
C13   15.188191745    18.761883921     8.040807395
C   16.975037833    20.548730008     8.040807395
C   16.975037833    18.761883921     9.827653482
C13   15.188191745    20.548730008     9.827653482
C13   14.294768701    17.868460877    10.721076526
C   16.081614789    19.655306964    10.721076526
C13   14.294768701    19.655306964    12.507922614
C   16.081614789    17.868460877    12.507922614
C13   15.188191745    18.761883921    11.614499570
C   16.975037833    20.548730008    11.614499570
C   16.975037833    18.761883921    13.401345658
C13   15.188191745    20.548730008    13.401345658
C13   14.294768701    17.868460877    14.294768701
C   16.081614789    19.655306964    14.294768701
C13   14.294768701    19.655306964    16.081614789
C   16.081614789    17.868460877    16.081614789
C13   15.188191745    18.761883921    15.188191745
C   16.975037833    20.548730008    15.188191745
C   16.975037833    18.761883921    16.975037833
C13   15.188191745    20.548730008    16.975037833
C13   14.294768701    17.868460877    17.868460877
C   16.081614789    19.655306964    17.868460877
C13   14.294768701    19.655306964    19.655306964
C   16.081614789    17.868460877    19.655306964
C13   15.188191745    18.761883921    18.761883921
C   16.975037833    20.548730008    18.761883921
C   16.975037833    18.761883921    20.548730008
C13   15.188191745    20.548730008    20.548730008
C13   17.868460877     0.000000000     0.000000000
C   19.655306964     1.786846088     0.000000000
C13   17.868460877     1.786846088     1.786846088
C   19.655306964     0.000000000     1.786846088
C13   18.761883921     0.893423044     0.893423044
C   20.548730008     2.680269132     0.893423044
C   20.548730008     0.893423044     2.680269132
C13   18.761883921     2.680269132     2.680269132
C13   17.868460877     0.000000000     3.573692175
C   19.655306964     1.786846088     3.573692175
C13   17.868460877     1.786846088     5.360538263
C   19.655306964     0.000000000     5.360538263
C13   18.761883921     0.893423044     4.467115219
C   20.548730008     2.680269132     4.467115219
C   20.548730008     0.893423044     6.253961307
C13   18.761883921     2.680269132     6.253961307
C13   17.868460877     0.000000000     7.147384351
C   19.655306964     1.786846088     7.147384351
C13   17.868460877     1.786846088     8.934230438
C   19.655306964     0.000000000     8.934230438
C13   18.761883921     0.893423044     8.040807395
C   20.548730008     2.680269132     8.040807395
C   20.548730008     0.893423044     9.827653482
C13   18.761883921     2.680269132     9.827653482
C13   17.868460877     0.000000000    10.721076526
C   19.655306964     1.786846088    10.721076526
C13   17.868460877     1.786846088    12.507922614
C   19.655306964     0.000000000    12.507922614
C13   18.761883921     0.893423044    11.614499570
C   20.548730008     2.680269132    11.614499570
C   20.548730008     0.893423044    13.401345658
C13   18.761883921     2.680269132    13.401345658
C13   17.868460877     0.000000000    14.294768701
C   19.655306964     1.786846088    14.294768701
C13   17.868460877     1.786846088    16.081614789
C   19.655306964     0.000000000    16.081614789
C13   18.761883921     0.893423044    15.188191745
C   20.548730008     2.680269132    15.188191745
C   20.548730008     0.893423044    16.975037833
C13   18.761883921     2.680269132    16.975037833
C13   17.868460877     0.000000000    17.868460877
C   19.655306964     1.786846088    17.868460877
C13   17.868460877     1.786846088    19.655306964
C   19.655306964     0.000000000    19.655306964
C13   18.761883921     0.893423044    18.761883921
C   20.548730008     2.680269132    18.761883921
C   20.548730008     0.893423044    20.548730008
C13   18.761883921     2.680269132    20.548730008
C13   17.868460877     3.573692175     0.000000000
C   19.655306964     5.360538263     0.000000000
C13   17.868460877     5.360538263     1.786846088
C   19.655306964     3.573692175     1.786846088
C13   18.761883921     4.467115219     0.893423044
C   20.548730008     6.253961307     0.893423044
C   20.548730008     4.467115219     2.680269132
C13   18.761883921     6.253961307     2.680269132
C13   17.868460877     3.573692175     3.573692175
C   19.655306964     5.360538263     3.573692175
C13   17.868460877     5.360538263     5.360538263
C   19.655306964     3.573692175     5.360538263
C13   18.761883921     4.467115219     4.467115219
C   20.548730008     6.253961307     4.467115219
C   20.548730008     4.467115219     6.253961307
C13   18.761883921     6.253961307     6.253961307
C13   17.868460877     3.573692175     7.147384351
C   19.655306964     5.360538263     7.147384351
C13   17.868460877     5.360538263     8.934230438
C   19.655306964     3.573692175     8.934230438
C13   18.761883921     4.467115219     8.040807395
C   20.548730008     6.253961307     8.040807395
C   20.548730008     4.467115219     9.827653482
C13   18.761883921     6.253961307     9.827653482
C13   17.868460877     3.573692175    10.721076526
C   19.655306964     5.360538263    10.721076526
C13   17.868460877     5.360538263    12.507922614
C   19.655306964     3.573692175    12.507922614
C13   18.761883921     4.467115219    11.614499570
C   20.548730008     6.253961307    11.614499570
C   20.548730008     4.467115219    13.401345658
C13   18.761883921     6.253961307    13.401345658
C13   17.868460877     3.573692175    14.294768701
C   19.655306964     5.360538263    14.294768701
C13   17.868460877     5.360538263    16.081614789
C   19.655306964     3.573692175    16.081614789
C13   18.761883921     4.467115219    15.188191745
C   20.548730008     6.253961307    15.188191745
C   20.548730008     4.467115219    16.975037833
C13   18.761883921     6.253961307    16.975037833
C13   17.868460877     3.573692175    17.868460877
C   19.655306964     5.360538263    17.868460877
C13   17.868460877     5.360538263    19.655306964
C   19.655306964     3.573692175    19.655306964
C13   18.761883921     4.467115219    18.761883921
C   20.548730008     6.253961307    18.761883921
C   20.548730008     4.467115219    20.548730008
C13   18.761883921     6.253961307    20.548730008
C13   17.868460877     7.147384351     0.000000000
C   19.655306964     8.934230438     0.000000000
C13   17.868460877     8.934230438     1.786846088
C   19.655306964     7.147384351     1.786846088
C13   18.761883921     8.040807395     0.893423044
C   20.548730008     9.827653482     0.893423044
C   20.548730008     8.040807395     2.680269132
C13   18.761883921     9.827653482     2.680269132
C13   17.868460877     7.147384351     3.573692175
C   19.655306964     8.934230438     3.573692175
C13   17.868460877     8.934230438     5.360538263
C   19.655306964     7.147384351     5.360538263
C13   18.761883921     8.040807395     4.467115219
C   20.548730008     9.827653482     4.467115219
C   20.548730008     8.040807395     6.253961307
C13   18.761883921     9.827653482     6.253961307
C13   17.868460877     7.147384351     7.147384351
C   19.655306964     8.934230438     7.147384351
C13   17.868460877     8.934230438     8.934230438
C   19.655306964     7.147384351     8.934230438
C13   18.761883921     8.040807395     8.040807395
C   20.548730008     9.827653482     8.040807395
C   20.548730008     8.040807395     9.827653482
C13   18.761883921     9.827653482     9.827653482
C13   17.868460877     7.147384351    10.721076526
C   19.655306964     8.934230438    10.721076526
C13   17.868460877     8.934230438    12.507922614
C   19.655306964     7.147384351    12.507922614
C13   18.761883921     8.040807395    11.614499570
C   20.548730008     9.827653482    11.614499570
C   20.548730008     8.040807395    13.401345658
C13   18.761883921     9.827653482    13.401345658
C13   17.868460877     7.147384351    14.294768701
C   19.655306964     8.934230438    14.294768701
C13   17.868460877     8.934230438    16.081614789
C   19.655306964     7.147384351    16.081614789
C13   18.761883921     8.040807395    15.188191745
C   20.548730008     9.827653482    15.188191745
C   20.548730008     8.040807395    16.975037833
C13   18.761883921     9.827653482    16.975037833
C13   17.868460877     7.147384351    17.868460877
C   19.655306964     8.934230438    17.868460877
C13   17.868460877     8.934230438    19.655306964
C   19.655306964     7.147384351    19.655306964
C13   18.761883921     8.040807395    18.761883921
C   20.548730008     9.827653482    18.761883921
C   20.548730008     8.040807395    20.548730008
C13   18.761883921     9.827653482    20.548730008
C13   17.868460877    10.721076526     0.000000000
C   19.655306964    12.507922614     0.000000000
C13   17.868460877    12.507922614     1.786846088
C   19.655306964    10.721076526     1.786846088
C13   18.761883921    11.614499570     0.893423044
C   20.548730008    13.401345658     0.893423044
C   20.548730008    11.614499570     2.680269132
C13   18.761883921    13.401345658     2.680269132
C13   17.868460877    10.721076526     3.573692175
C   19.655306964    12.507922614     3.573692175
C13   17.868460877    12.507922614     5.360538263
C   19.655306964    10.721076526     5.360538263
C13   18.761883921    11.614499570     4.467115219
C   20.548730008    13.401345658     4.467115219
C   20.548730008    11.614499570     6.253961307
C13   18.761883921    13.401345658     6.253961307
C13   17.868460877    10.721076526     7.147384351
C   19.655306964    12.507922614     7.147384351
C13   17.868460877    12.507922614     8.934230438
C   19.655306964    10.721076526     8.934230438
C13   18.761883921    11.614499570     8.040807395
C   20.548730008    13.401345658     8.040807395
C   20.548730008    11.614499570     9.827653482
C13   18.761883921    13.401345658     9.827653482
C13   17.868460877    10.721076526    10.721076526
C   19.655306964    12.507922614    10.721076526
C13   17.868460877    12.507922614    12.507922614
C   19.655306964    10.721076526    12.507922614
C13   18.761883921    11.614499570    11.614499570
C   20.548730008    13.401345658    11.614499570
C   20.548730008    11.614499570    13.401345658
C13   18.761883921    13.401345658    13.401345658
C13   17.868460877    10.721076526    14.294768701
C   19.655306964    12.507922614    14.294768701
C13   17.868460877    12.507922614    16.081614789
C   19.655306964    10.721076526    16.081614789
C13   18.761883921    11.614499570    15.188191745
C   20.548730008    13.401345658    15.188191745
C   20.548730008    11.614499570    16.975037833
C13   18.761883921    13.401345658    16.975037833
C13   17.868460877    10.721076526    17.868460877
C   19.655306964    12.507922614    17.868460877
C13   17.868460877    12.507922614    19.655306964
C   19.655306964    10.721076526    19.655306964
C13   18.761883921    11.614499570    18.761883921
C   20.548730008    13.401345658    18.761883921
C   20.548730008    11.614499570    20.548730008
C13   18.761883921    13.401345658    20.548730008
C13   17.868460877    14.294768701     0.000000000
C   19.655306964    16.081614789     0.000000000
C13   17.868460877    16.081614789     1.786846088
C   19.655306964    14.294768701     1.786846088
C13   18.761883921    15.188191745     0.893423044
C   20.548730008    16.975037833     0.893423044
C   20.548730008    15.188191745     2.680269132
C13   18.761883921    16.975037833     2.680269132
C13   17.868460877    14.294768701     3.573692175
C   19.655306964    16.081614789     3.573692175
C13   17.868460877    16.081614789     5.360538263
C   19.655306964    14.294768701     5.360538263
C13   18.761883921    15.188191745     4.467115219
C   20.548730008    16.975037833     4.467115219
C   20.548730008    15.188191745     6.253961307
C13   18.761883921    16.975037833     6.253961307
C13   17.868460877    14.294768701     7.147384351
C   19.655306964    16.081614789     7.147384351
C13   17.868460877    16.081614789     8.934230438
C   19.655306964    14.294768701     8.934230438
C13   18.761883921    15.188191745     8.040807395
C   20.548730008    16.975037833     8.040807395
C   20.548730008    15.188191745     9.827653482
C13   18.761883921    16.975037833     9.827653482
C13   17.868460877    14.294768701    10.721076526
C   19.655306964    16.081614789    10.721076526
C13   17.868460877    16.081614789    12.507922614
C   19.655306964    14.294768701    12.507922614
C13   18.761883921    15.188191745    11.614499570
C   20.548730008    16.975037833    11.614499570
C   20.548730008    15.188191745    13.401345658
C13   18.761883921    16.975037833    13.401345658
C13   17.868460877    14.294768701    14.294768701
C   19.655306964    16.081614789    14.294768701
C13   17.868460877    16.081614789    16.081614789
C   19.655306964    14.294768701    16.081614789
C13   18.761883921    15.188191745    15.188191745
C   20.548730008    16.975037833    15.188191745
C   20.548730008    15.188191745    16.975037833
C13   18.761883921    16.975037833    16.975037833
C13   17.868460877    14.294768701    17.868460877
C   19.655306964    16.081614789    17.868460877
C13   17.868460877    16.081614789    19.655306964
C   19.655306964    14.294768701    19.655306964
C13   18.761883921    15.188191745    18.761883921
C   20.548730008    16.975037833    18.761883921
C   20.548730008    15.188191745    20.548730008
C13   18.761883921    16.975037833    20.548730008
C13   17.868460877    17.868460877     0.000000000
C   19.655306964    19.655306964     0.000000000
C13   17.868460877    19.655306964     1.786846088
C   19.655306964    17.868460877     1.786846088
C13   18.761883921    18.761883921     0.893423044
C   20.548730008    20.548730008     0.893423044
C   20.548730008    18.761883921     2.680269132
C13   18.761883921    20.548730008     2.680269132
C13   17.868460877    17.868460877     3.573692175
C   19.655306964    19.655306964     3.573692175
C13   17.868460877    19.655306964     5.360538263
C   19.655306964    17.868460877     5.360538263
C13   18.761883921    18.761883921     4.467115219
C   20.548730008    20.548730008     4.467115219
C   20.548730008    18.761883921     6.253961307
C13   18.761883921    20.548730008     6.253961307
C13   17.868460877    17.868460877     7.147384351
C   19.655306964    19.655306964     7.147384351
C13   17.868460877    19.655306964     8.934230438
C   19.655306964    17.868460877     8.934230438
C13   18.761883921    18.761883921     8.040807395
C   20.548730008    20.548730008     8.040807395
C   20.548730008    18.761883921     9.827653482
C13   18.761883921    20.548730008     9.827653482
C13   17.868460877    17.868460877    10.721076526
C   19.655306964    19.655306964    10.721076526
C13   17.868460877    19.655306964    12.507922614
C   19.655306964    17.868460877    12.507922614
C13   18.761883921    18.761883921    11.614499570
C   20.548730008    20.548730008    11.614499570
C   20.548730008    18.761883921    13.401345658
C13   18.761883921    20.548730008    13.401345658
C13   17.868460877    17.868460877    14.294768701
C   19.655306964    19.655306964    14.294768701
C13   17.868460877    19.655306964    16.081614789
C   19.655306964    17.868460877    16.081614789
C13   18.761883921    18.761883921    15.188191745
C   20.548730008    20.548730008    15.188191745
C   20.548730008    18.761883921    16.975037833
C13   18.761883921    20.548730008    16.975037833
C13   17.868460877    17.868460877    17.868460877
C   19.655306964    19.655306964    17.868460877
C13   17.868460877    19.655306964    19.655306964
C   19.655306964    17.868460877    19.655306964
C13   18.761883921    18.761883921    18.761883921
C   20.548730008    20.548730008    18.761883921
C   20.548730008    18.761883921    20.548730008
C13   18.761883921    20.548730008    20.548730008
