215

C     0.000000     0.000000     0.000000    -0.053563    -0.053563    -0.053563
C     1.786846     1.786846     0.000000    -0.119673    -0.119673    -0.192498
C     0.000000     1.786846     1.786846    -0.192498    -0.119673    -0.119673
C     1.786846     0.000000     1.786846    -0.119673    -0.192498    -0.119673
C     0.893423     0.893423     0.893423     0.147857     0.147857     0.147857
C     2.680269     2.680269     0.893423     0.081015     0.081015     0.272288
C     2.680269     0.893423     2.680269     0.081015     0.272288     0.081015
C     0.893423     2.680269     2.680269     0.272288     0.081015     0.081015
C     0.000000     0.000000     3.573692    -0.161606    -0.161606     0.031629
C     1.786846     1.786846     3.573692    -0.177957    -0.177957    -0.027302
C     0.000000     1.786846     5.360538    -0.275937    -0.200244     0.050188
C     1.786846     0.000000     5.360538    -0.200244    -0.275937     0.050188
C     0.893423     0.893423     4.467115     0.263161     0.263161    -0.046107
C     2.680269     2.680269     4.467115     0.004964     0.004964    -0.061284
C     2.680269     0.893423     6.253961     0.079781     0.325949     0.003311
C     0.893423     2.680269     6.253961     0.325949     0.079781     0.003311
C     0.000000     0.000000     7.147384    -0.193063    -0.193063    -0.056307
C     1.786846     1.786846     7.147384    -0.207918    -0.207918    -0.045774
C     0.000000     1.786846     8.934230    -0.288384    -0.161632    -0.073807
C     1.786846     0.000000     8.934230    -0.161632    -0.288384    -0.073807
C     0.893423     0.893423     8.040807     0.295451     0.295451     0.099130
C     2.680269     2.680269     8.040807    -0.187144    -0.187144     0.044982
C     2.680269     0.893423     9.827653    -0.049459     0.300054    -0.024185
C     0.893423     2.680269     9.827653     0.300054    -0.049459    -0.024185
C     0.000000     3.573692     0.000000    -0.161606     0.031629    -0.161606
C     1.786846     5.360538     0.000000    -0.200244     0.050188    -0.275937
C     0.000000     5.360538     1.786846    -0.275937     0.050188    -0.200244
C     1.786846     3.573692     1.786846    -0.177957    -0.027302    -0.177957
C     0.893423     4.467115     0.893423     0.263161    -0.046107     0.263161
C     2.680269     6.253961     0.893423     0.079781     0.003311     0.325949
C     2.680269     4.467115     2.680269     0.004964    -0.061284     0.004964
C     0.893423     6.253961     2.680269     0.325949     0.003311     0.079781
C     0.000000     3.573692     3.573692    -0.308244     0.010189     0.010189
C     1.786846     5.360538     3.573692    -0.070450     0.145991     0.169748
C     0.000000     5.360538     5.360538    -0.275694     0.152501     0.152501
C     1.786846     3.573692     5.360538    -0.070450     0.169748     0.145991
C     0.893423     4.467115     4.467115     0.306479    -0.111453    -0.111453
C     2.680269     6.253961     4.467115    -0.789031    -0.124272    -0.685559
C     2.680269     4.467115     6.253961    -0.789031    -0.685559    -0.124272
C     0.893423     6.253961     6.253961     0.149439    -0.204311    -0.204311
C     0.000000     3.573692     7.147384    -0.303523     0.091737    -0.025384
C     1.786846     5.360538     7.147384     0.122615     0.378163     0.128197
C     0.000000     5.360538     8.934230    -0.219287     0.235666    -0.022384
C     1.786846     3.573692     8.934230    -0.103048     0.321376    -0.035469
C     0.893423     4.467115     8.040807     0.253714    -0.311358     0.018701
C     2.680269     6.253961     8.040807    -0.518303    -0.312388     0.154044
C     2.680269     4.467115     9.827653    -0.212158    -0.490994     0.034271
C     0.893423     6.253961     9.827653     0.177679    -0.144847     0.011549
C     0.000000     7.147384     0.000000    -0.193063    -0.056307    -0.193063
C     1.786846     8.934230     0.000000    -0.161632    -0.073807    -0.288384
C     0.000000     8.934230     1.786846    -0.288384    -0.073807    -0.161632
C     1.786846     7.147384     1.786846    -0.207918    -0.045774    -0.207918
C     0.893423     8.040807     0.893423     0.295451     0.099130     0.295451
C     2.680269     9.827653     0.893423    -0.049459    -0.024185     0.300054
C     2.680269     8.040807     2.680269    -0.187144     0.044982    -0.187144
C     0.893423     9.827653     2.680269     0.300054    -0.024185    -0.049459
C     0.000000     7.147384     3.573692    -0.303523    -0.025384     0.091737
C     1.786846     8.934230     3.573692    -0.103048    -0.035469     0.321376
C     0.000000     8.934230     5.360538    -0.219287    -0.022384     0.235666
C     1.786846     7.147384     5.360538     0.122615     0.128197     0.378163
C     0.893423     8.040807     4.467115     0.253714     0.018701    -0.311358
C     2.680269     9.827653     4.467115    -0.212158     0.034271    -0.490994
C     2.680269     8.040807     6.253961    -0.518303     0.154044    -0.312388
C     0.893423     9.827653     6.253961     0.177679     0.011549    -0.144847
C     0.000000     7.147384     7.147384    -0.167843     0.036764     0.036764
C     1.786846     8.934230     7.147384     0.070855    -0.174951    -0.018778
C     0.000000     8.934230     8.934230    -0.198088    -0.134844    -0.134844
C     1.786846     7.147384     8.934230     0.070855    -0.018778    -0.174951
C     0.893423     8.040807     8.040807     0.118417     0.113270     0.113270
C     2.680269     9.827653     8.040807    -0.210638     0.195529     0.284933
C     2.680269     8.040807     9.827653    -0.210638     0.284933     0.195529
C     0.893423     9.827653     9.827653     0.252484     0.093255     0.093255
C     3.573692     0.000000     0.000000     0.031629    -0.161606    -0.161606
C     5.360538     1.786846     0.000000     0.050188    -0.200244    -0.275937
C     3.573692     1.786846     1.786846    -0.027302    -0.177957    -0.177957
C     5.360538     0.000000     1.786846     0.050188    -0.275937    -0.200244
C     4.467115     0.893423     0.893423    -0.046107     0.263161     0.263161
C     6.253961     2.680269     0.893423     0.003311     0.079781     0.325949
C     6.253961     0.893423     2.680269     0.003311     0.325949     0.079781
C     4.467115     2.680269     2.680269    -0.061284     0.004964     0.004964
C     3.573692     0.000000     3.573692     0.010189    -0.308244     0.010189
C     5.360538     1.786846     3.573692     0.145991    -0.070450     0.169748
C     3.573692     1.786846     5.360538     0.169748    -0.070450     0.145991
C     5.360538     0.000000     5.360538     0.152501    -0.275694     0.152501
C     4.467115     0.893423     4.467115    -0.111453     0.306479    -0.111453
C     6.253961     2.680269     4.467115    -0.124272    -0.789031    -0.685559
C     6.253961     0.893423     6.253961    -0.204311     0.149439    -0.204311
C     4.467115     2.680269     6.253961    -0.685559    -0.789031    -0.124272
C     3.573692     0.000000     7.147384     0.091737    -0.303523    -0.025384
C     5.360538     1.786846     7.147384     0.378163     0.122615     0.128197
C     3.573692     1.786846     8.934230     0.321376    -0.103048    -0.035469
C     5.360538     0.000000     8.934230     0.235666    -0.219287    -0.022384
C     4.467115     0.893423     8.040807    -0.311358     0.253714     0.018701
C     6.253961     2.680269     8.040807    -0.312388    -0.518303     0.154044
C     6.253961     0.893423     9.827653    -0.144847     0.177679     0.011549
C     4.467115     2.680269     9.827653    -0.490994    -0.212158     0.034271
C     3.573692     3.573692     0.000000     0.010189     0.010189    -0.308244
C     5.360538     5.360538     0.000000     0.152501     0.152501    -0.275694
C     3.573692     5.360538     1.786846     0.169748     0.145991    -0.070450
C     5.360538     3.573692     1.786846     0.145991     0.169748    -0.070450
C     4.467115     4.467115     0.893423    -0.111453    -0.111453     0.306479
C     6.253961     6.253961     0.893423    -0.204311    -0.204311     0.149439
C     6.253961     4.467115     2.680269    -0.124272    -0.685559    -0.789031
C     4.467115     6.253961     2.680269    -0.685559    -0.124272    -0.789031
N     3.573692     3.573692     3.573692    -0.027896    -0.027896    -0.027896
C     5.360538     5.360538     3.573692     0.921035     0.921035     1.639998
C     3.573692     5.360538     5.360538     1.639998     0.921035     0.921035
C     5.360538     3.573692     5.360538     0.921035     1.639998     0.921035
C     6.253961     6.253961     4.467115    -1.046042    -1.046042    -1.728693
C     6.253961     4.467115     6.253961    -1.046042    -1.728693    -1.046042
C     4.467115     6.253961     6.253961    -1.728693    -1.046042    -1.046042
C     3.573692     3.573692     7.147384     0.778912     0.778912     0.063505
C     5.360538     5.360538     7.147384     1.069235     1.069235     0.129544
C     3.573692     5.360538     8.934230     0.666217     0.558907    -0.288135
C     5.360538     3.573692     8.934230     0.558907     0.666217    -0.288135
C     4.467115     4.467115     8.040807    -0.989773    -0.989773     0.204526
C     6.253961     6.253961     8.040807    -0.296269    -0.296269     0.643367
C     6.253961     4.467115     9.827653    -0.146371    -0.601731     0.389380
C     4.467115     6.253961     9.827653    -0.601731    -0.146371     0.389380
C     3.573692     7.147384     0.000000     0.091737    -0.025384    -0.303523
C     5.360538     8.934230     0.000000     0.235666    -0.022384    -0.219287
C     3.573692     8.934230     1.786846     0.321376    -0.035469    -0.103048
C     5.360538     7.147384     1.786846     0.378163     0.128197     0.122615
C     4.467115     8.040807     0.893423    -0.311358     0.018701     0.253714
C     6.253961     9.827653     0.893423    -0.144847     0.011549     0.177679
C     6.253961     8.040807     2.680269    -0.312388     0.154044    -0.518303
C     4.467115     9.827653     2.680269    -0.490994     0.034271    -0.212158
C     3.573692     7.147384     3.573692     0.778912     0.063505     0.778912
C     5.360538     8.934230     3.573692     0.558907    -0.288135     0.666217
C     3.573692     8.934230     5.360538     0.666217    -0.288135     0.558907
C     5.360538     7.147384     5.360538     1.069235     0.129544     1.069235
C     4.467115     8.040807     4.467115    -0.989773     0.204526    -0.989773
C     6.253961     9.827653     4.467115    -0.146371     0.389380    -0.601731
C     6.253961     8.040807     6.253961    -0.296269     0.643367    -0.296269
C     4.467115     9.827653     6.253961    -0.601731     0.389380    -0.146371
C     3.573692     7.147384     7.147384     0.940652    -0.008608    -0.008608
C     5.360538     8.934230     7.147384     0.543112    -0.678222    -0.258587
C     3.573692     8.934230     8.934230     0.500468    -0.452583    -0.452583
C     5.360538     7.147384     8.934230     0.543112    -0.258587    -0.678222
C     4.467115     8.040807     8.040807    -0.813913     0.523517     0.523517
C     6.253961     9.827653     8.040807    -0.105639     0.489942     0.468135
C     6.253961     8.040807     9.827653    -0.105639     0.468135     0.489942
C     4.467115     9.827653     9.827653    -0.408855     0.259252     0.259252
C     7.147384     0.000000     0.000000    -0.056307    -0.193063    -0.193063
C     8.934230     1.786846     0.000000    -0.073807    -0.161632    -0.288384
C     7.147384     1.786846     1.786846    -0.045774    -0.207918    -0.207918
C     8.934230     0.000000     1.786846    -0.073807    -0.288384    -0.161632
C     8.040807     0.893423     0.893423     0.099130     0.295451     0.295451
C     9.827653     2.680269     0.893423    -0.024185    -0.049459     0.300054
C     9.827653     0.893423     2.680269    -0.024185     0.300054    -0.049459
C     8.040807     2.680269     2.680269     0.044982    -0.187144    -0.187144
C     7.147384     0.000000     3.573692    -0.025384    -0.303523     0.091737
C     8.934230     1.786846     3.573692    -0.035469    -0.103048     0.321376
C     7.147384     1.786846     5.360538     0.128197     0.122615     0.378163
C     8.934230     0.000000     5.360538    -0.022384    -0.219287     0.235666
C     8.040807     0.893423     4.467115     0.018701     0.253714    -0.311358
C     9.827653     2.680269     4.467115     0.034271    -0.212158    -0.490994
C     9.827653     0.893423     6.253961     0.011549     0.177679    -0.144847
C     8.040807     2.680269     6.253961     0.154044    -0.518303    -0.312388
C     7.147384     0.000000     7.147384     0.036764    -0.167843     0.036764
C     8.934230     1.786846     7.147384    -0.174951     0.070855    -0.018778
C     7.147384     1.786846     8.934230    -0.018778     0.070855    -0.174951
C     8.934230     0.000000     8.934230    -0.134844    -0.198088    -0.134844
C     8.040807     0.893423     8.040807     0.113270     0.118417     0.113270
C     9.827653     2.680269     8.040807     0.195529    -0.210638     0.284933
C     9.827653     0.893423     9.827653     0.093255     0.252484     0.093255
C     8.040807     2.680269     9.827653     0.284933    -0.210638     0.195529
C     7.147384     3.573692     0.000000    -0.025384     0.091737    -0.303523
C     8.934230     5.360538     0.000000    -0.022384     0.235666    -0.219287
C     7.147384     5.360538     1.786846     0.128197     0.378163     0.122615
C     8.934230     3.573692     1.786846    -0.035469     0.321376    -0.103048
C     8.040807     4.467115     0.893423     0.018701    -0.311358     0.253714
C     9.827653     6.253961     0.893423     0.011549    -0.144847     0.177679
C     9.827653     4.467115     2.680269     0.034271    -0.490994    -0.212158
C     8.040807     6.253961     2.680269     0.154044    -0.312388    -0.518303
C     7.147384     3.573692     3.573692     0.063505     0.778912     0.778912
C     8.934230     5.360538     3.573692    -0.288135     0.558907     0.666217
C     7.147384     5.360538     5.360538     0.129544     1.069235     1.069235
C     8.934230     3.573692     5.360538    -0.288135     0.666217     0.558907
C     8.040807     4.467115     4.467115     0.204526    -0.989773    -0.989773
C     9.827653     6.253961     4.467115     0.389380    -0.146371    -0.601731
C     9.827653     4.467115     6.253961     0.389380    -0.601731    -0.146371
C     8.040807     6.253961     6.253961     0.643367    -0.296269    -0.296269
C     7.147384     3.573692     7.147384    -0.008608     0.940652    -0.008608
C     8.934230     5.360538     7.147384    -0.678222     0.543112    -0.258587
C     7.147384     5.360538     8.934230    -0.258587     0.543112    -0.678222
C     8.934230     3.573692     8.934230    -0.452583     0.500468    -0.452583
C     8.040807     4.467115     8.040807     0.523517    -0.813913     0.523517
C     9.827653     6.253961     8.040807     0.489942    -0.105639     0.468135
C     9.827653     4.467115     9.827653     0.259252    -0.408855     0.259252
C     8.040807     6.253961     9.827653     0.468135    -0.105639     0.489942
C     7.147384     7.147384     0.000000     0.036764     0.036764    -0.167843
C     8.934230     8.934230     0.000000    -0.134844    -0.134844    -0.198088
C     7.147384     8.934230     1.786846    -0.018778    -0.174951     0.070855
C     8.934230     7.147384     1.786846    -0.174951    -0.018778     0.070855
C     8.040807     8.040807     0.893423     0.113270     0.113270     0.118417
C     9.827653     9.827653     0.893423     0.093255     0.093255     0.252484
C     9.827653     8.040807     2.680269     0.195529     0.284933    -0.210638
C     8.040807     9.827653     2.680269     0.284933     0.195529    -0.210638
C     7.147384     7.147384     3.573692    -0.008608    -0.008608     0.940652
C     8.934230     8.934230     3.573692    -0.452583    -0.452583     0.500468
C     7.147384     8.934230     5.360538    -0.258587    -0.678222     0.543112
C     8.934230     7.147384     5.360538    -0.678222    -0.258587     0.543112
C     8.040807     8.040807     4.467115     0.523517     0.523517    -0.813913
C     9.827653     9.827653     4.467115     0.259252     0.259252    -0.408855
C     9.827653     8.040807     6.253961     0.489942     0.468135    -0.105639
C     8.040807     9.827653     6.253961     0.468135     0.489942    -0.105639
C     7.147384     7.147384     7.147384    -0.315188    -0.315188    -0.315188
C     8.934230     8.934230     7.147384    -0.557105    -0.557105    -0.229625
C     7.147384     8.934230     8.934230    -0.229625    -0.557105    -0.557105
C     8.934230     7.147384     8.934230    -0.557105    -0.229625    -0.557105
C     8.040807     8.040807     8.040807     0.582784     0.582784     0.582784
C     9.827653     9.827653     8.040807     0.254259     0.254259     0.342304
C     9.827653     8.040807     9.827653     0.254259     0.342304     0.254259
C     8.040807     9.827653     9.827653     0.342304     0.254259     0.254259
