 running on   16 total cores
 distrk:  each k-point on   16 cores,    1 groups
 distr:  one band on    4 cores,    4 groups
 using from now: INCAR     
 vasp.5.4.1 05Feb16 (build Aug 05 2016 10:53:20) complex                        
  
 POSCAR found type information on POSCAR  C 
 POSCAR found :  1 types and       2 ions
 scaLAPACK will be used
 LDA part: xc-table for Pade appr. of Perdew
 POSCAR, INCAR and KPOINTS ok, starting setup
 WARNING: small aliasing (wrap around) errors must be expected
 FFT: planning ...
 WAVECAR not read
 entering main loop
       N       E                     dE             d eps       ncg     rms          rms(c)
DAV:   1     0.566000858215E+01    0.56600E+01   -0.31744E+03 80448   0.530E+02
DAV:   2    -0.182973340686E+02   -0.23957E+02   -0.22604E+02109064   0.135E+02
DAV:   3    -0.188281230702E+02   -0.53079E+00   -0.52651E+00 89088   0.155E+01
DAV:   4    -0.188288662257E+02   -0.74316E-03   -0.74314E-03 90296   0.720E-01
DAV:   5    -0.188288669930E+02   -0.76727E-06   -0.76724E-06 89456   0.215E-02    0.563E+00
DAV:   6    -0.183521728214E+02    0.47669E+00   -0.14792E-01 82016   0.317E+00    0.337E+00
DAV:   7    -0.181902842218E+02    0.16189E+00   -0.21192E-01 85272   0.370E+00    0.804E-01
DAV:   8    -0.181923988090E+02   -0.21146E-02   -0.10990E-02 83912   0.716E-01    0.852E-02
DAV:   9    -0.181924034662E+02   -0.46572E-05   -0.18014E-05 91344   0.318E-02
   1 F= -.18192403E+02 E0= -.18192403E+02  d E =-.181924E+02  mag=     0.0000    -0.0000    -0.0000
 BRION: g(F)=  0.000E+00 g(S)=  0.108E-05
 bond charge predicted
       N       E                     dE             d eps       ncg     rms          rms(c)
DAV:   1    -0.181924372490E+02   -0.38440E-04   -0.52869E-05 84080   0.558E-02    0.775E-03
DAV:   2    -0.181924367526E+02    0.49639E-06   -0.25462E-07 43304   0.407E-03
   2 F= -.18192437E+02 E0= -.18192437E+02  d E =-.332865E-04  mag=     0.0000    -0.0000    -0.0000
 BRION: g(F)=  0.000E+00 g(S)=  0.271E-08 retain N=  1 mean eig= 1.05
 eig:   1.053
 reached required accuracy - stopping structural energy minimisation
 writing wavefunctions
