
     Program POST-PROC v.6.0 starts on  9Jan2017 at  3:26:33 

     This program is part of the open-source Quantum ESPRESSO suite
     for quantum simulation of materials; please cite
         "P. Giannozzi et al., J. Phys.:Condens. Matter 21 395502 (2009);
          URL http://www.quantum-espresso.org", 
     in publications or presentations arising from this work. More details at
     http://www.quantum-espresso.org/quote
 
           ARCH :    x86_64
             CC :    icc
            CPP :    cpp
            F90 :    ifort
            F77 :    ifort
         DFLAGS :    -D__INTEL -D__DFTI
      BLAS LIBS :    -lmkl_intel_lp64  -lmkl_sequential -lmkl_core
    LAPACK LIBS :    
       FFT LIBS :    
      MASS LIBS :    

     Parallel version (MPI & OpenMP), running on     384 processor cores
     Number of MPI processes:               192
     Threads/MPI process:                     2
     R & G space division:  proc/nbgrp/npool/nimage =     192

   Info: using nr1, nr2, nr3 values from input

   Info: using nr1, nr2, nr3 values from input

     IMPORTANT: XC functional enforced from input :
     Exchange-correlation      = PBE ( 1  4  3  4 0 0)
     Any further DFT definition will be discarded
     Please, verify this is what you really want

 
     Parallelization info
     --------------------
     sticks:   dense  smooth     PW     G-vecs:    dense   smooth      PW
     Min          24      24      6                 1236     1236     172
     Max          25      25      7                 1241     1241     183
     Sum        4645    4645   1265               237777   237777   33881
 
     Generating pointlists ...
     new r_m :   0.0893 (alat units)  1.2054 (a.u.) for type    1
     new r_m :   0.0893 (alat units)  1.2054 (a.u.) for type    2

     Calling punch_plot, plot_num =   1
     Writing data to file  plots/bulk_tot_pot.dat
     Reading data from file  plots/bulk_tot_pot.dat

     Writing data to be plotted to file plots/bulk_tot_pot.xsf
     Plot Type: 3D                     Output format: XCrySDen     
 
     POST-PROC    :     2.18s CPU         2.97s WALL

 
   This run was terminated on:   3:26:36   9Jan2017            

=------------------------------------------------------------------------------=
   JOB DONE.
=------------------------------------------------------------------------------=
